{"failedCount":1,"prefixedPath":"src\/test\/java\/SamplePackage1\/scenarios\/activity_2\/calling_reusable_BC_into_feature.feature","packageQualifiedName":"src.test.java.SamplePackage1.scenarios.activity_2.calling_reusable_BC_into_feature","loopIndex":-1,"relativePath":"src\/test\/java\/SamplePackage1\/scenarios\/activity_2\/calling_reusable_BC_into_feature.feature","scenarioResults":[{"sectionIndex":0,"stepResults":[{"result":{"nanos":1714600,"millis":1.7146,"status":"passed"},"step":{"background":true,"line":7,"prefix":"*","index":0,"text":"def ENVIRONMENT = env"},"stepLog":"06:33:19.656 karate.env system property was: null \n"},{"result":{"nanos":900136800,"millis":900.1368,"status":"passed"},"step":{"line":11,"prefix":"*","index":0,"text":"def ListUsers = call read('classpath:SamplePackage1\/reusableBC\/api_list_users.feature')"},"callResults":[{"failedCount":0,"prefixedPath":"classpath:SamplePackage1\/reusableBC\/api_list_users.feature","packageQualifiedName":"SamplePackage1.reusableBC.api_list_users","loopIndex":-1,"relativePath":"SamplePackage1\/reusableBC\/api_list_users.feature","scenarioResults":[{"sectionIndex":0,"stepResults":[{"result":{"nanos":1422000,"millis":1.422,"status":"passed"},"step":{"background":true,"line":14,"prefix":"*","index":0,"text":"url p_base_url"}},{"result":{"nanos":926100,"millis":0.9261,"status":"passed"},"step":{"line":18,"prefix":"Given","index":0,"text":"path '\/api\/users'"}},{"result":{"nanos":3019800,"millis":3.0198,"status":"passed"},"step":{"line":19,"prefix":"And","index":1,"text":"param page = 2"}},{"result":{"nanos":866921100,"millis":866.9211,"status":"passed"},"step":{"line":20,"prefix":"When","index":2,"text":"method get"},"stepLog":"06:33:20.060 request:\n1 > GET https:\/\/reqres.in\/api\/users?page=2\n1 > Host: reqres.in\n1 > Connection: Keep-Alive\n1 > User-Agent: Apache-HttpClient\/4.5.13 (Java\/16.0.2)\n1 > Accept-Encoding: gzip,deflate\n\n\n06:33:20.577 response time in milliseconds: 514\n1 < 200\n1 < Date: Tue, 09 Aug 2022 22:33:17 GMT\n1 < Content-Type: application\/json; charset=utf-8\n1 < Transfer-Encoding: chunked\n1 < Connection: keep-alive\n1 < X-Powered-By: Express\n1 < Access-Control-Allow-Origin: *\n1 < Etag: W\/\"406-ut0vzoCuidvyMf8arZpMpJ6ZRDw\"\n1 < Via: 1.1 vegur\n1 < Cache-Control: max-age=14400\n1 < CF-Cache-Status: HIT\n1 < Age: 1115\n1 < Expect-CT: max-age=604800, report-uri=\"https:\/\/report-uri.cloudflare.com\/cdn-cgi\/beacon\/expect-ct\"\n1 < Report-To: {\"endpoints\":[{\"url\":\"https:\\\/\\\/a.nel.cloudflare.com\\\/report\\\/v3?s=BhxGwMJKRfTb6JIZsl9QMefggDiYaeN9MK1MNB%2FdN554uEifx178NWbVQUrpGKJ4qLQursoMh3g7Dw3bWUPy%2Fc2BQhW2VysjmtD2EPnw6cVDejgsLPpDPqhfbQ%3D%3D\"}],\"group\":\"cf-nel\",\"max_age\":604800}\n1 < NEL: {\"success_fraction\":0,\"report_to\":\"cf-nel\",\"max_age\":604800}\n1 < Vary: Accept-Encoding\n1 < Server: cloudflare\n1 < CF-RAY: 7383f3dae8942367-HKG\n{\"page\":2,\"per_page\":6,\"total\":12,\"total_pages\":2,\"data\":[{\"id\":7,\"email\":\"michael.lawson@reqres.in\",\"first_name\":\"Michael\",\"last_name\":\"Lawson\",\"avatar\":\"https:\/\/reqres.in\/img\/faces\/7-image.jpg\"},{\"id\":8,\"email\":\"lindsay.ferguson@reqres.in\",\"first_name\":\"Lindsay\",\"last_name\":\"Ferguson\",\"avatar\":\"https:\/\/reqres.in\/img\/faces\/8-image.jpg\"},{\"id\":9,\"email\":\"tobias.funke@reqres.in\",\"first_name\":\"Tobias\",\"last_name\":\"Funke\",\"avatar\":\"https:\/\/reqres.in\/img\/faces\/9-image.jpg\"},{\"id\":10,\"email\":\"byron.fields@reqres.in\",\"first_name\":\"Byron\",\"last_name\":\"Fields\",\"avatar\":\"https:\/\/reqres.in\/img\/faces\/10-image.jpg\"},{\"id\":11,\"email\":\"george.edwards@reqres.in\",\"first_name\":\"George\",\"last_name\":\"Edwards\",\"avatar\":\"https:\/\/reqres.in\/img\/faces\/11-image.jpg\"},{\"id\":12,\"email\":\"rachel.howell@reqres.in\",\"first_name\":\"Rachel\",\"last_name\":\"Howell\",\"avatar\":\"https:\/\/reqres.in\/img\/faces\/12-image.jpg\"}],\"support\":{\"url\":\"https:\/\/reqres.in\/#support-heading\",\"text\":\"To keep ReqRes free, contributions towards server costs are appreciated!\"}}\n"},{"result":{"nanos":534300,"millis":0.5343,"status":"passed"},"step":{"line":22,"prefix":"*","index":3,"text":"def timeRespond = responseTime"}},{"result":{"nanos":1528800,"millis":1.5288,"status":"passed"},"step":{"line":23,"prefix":"*","index":4,"text":"print timeRespond"},"stepLog":"06:33:20.608 [print] 514 \n"}],"executorName":"main","line":16,"name":"api_list_users","description":"","durationMillis":874.3521,"startTime":1660084399733,"failed":false,"refId":"[1:16]","endTime":1660084400609,"exampleIndex":-1}],"callDepth":1,"name":"api_list_users","description":"Description:\r\n  Reusable BC to get list of users in reqres.in\r\n\r\n  Used in:\r\n  activity_2.calling_reusable_BC_into_feature\r\n\r\n  Parameters:\r\n  none","resultDate":"2022-08-10 06:33:20 am","durationMillis":874.3521,"passedCount":1}]},{"result":{"nanos":7165100,"millis":7.1651,"status":"passed"},"step":{"line":12,"prefix":"*","index":1,"text":"print ListUsers.response"},"stepLog":"06:33:20.617 [print] {\n  \"page\": 2,\n  \"per_page\": 6,\n  \"total\": 12,\n  \"total_pages\": 2,\n  \"data\": [\n    {\n      \"id\": 7,\n      \"email\": \"michael.lawson@reqres.in\",\n      \"first_name\": \"Michael\",\n      \"last_name\": \"Lawson\",\n      \"avatar\": \"https:\/\/reqres.in\/img\/faces\/7-image.jpg\"\n    },\n    {\n      \"id\": 8,\n      \"email\": \"lindsay.ferguson@reqres.in\",\n      \"first_name\": \"Lindsay\",\n      \"last_name\": \"Ferguson\",\n      \"avatar\": \"https:\/\/reqres.in\/img\/faces\/8-image.jpg\"\n    },\n    {\n      \"id\": 9,\n      \"email\": \"tobias.funke@reqres.in\",\n      \"first_name\": \"Tobias\",\n      \"last_name\": \"Funke\",\n      \"avatar\": \"https:\/\/reqres.in\/img\/faces\/9-image.jpg\"\n    },\n    {\n      \"id\": 10,\n      \"email\": \"byron.fields@reqres.in\",\n      \"first_name\": \"Byron\",\n      \"last_name\": \"Fields\",\n      \"avatar\": \"https:\/\/reqres.in\/img\/faces\/10-image.jpg\"\n    },\n    {\n      \"id\": 11,\n      \"email\": \"george.edwards@reqres.in\",\n      \"first_name\": \"George\",\n      \"last_name\": \"Edwards\",\n      \"avatar\": \"https:\/\/reqres.in\/img\/faces\/11-image.jpg\"\n    },\n    {\n      \"id\": 12,\n      \"email\": \"rachel.howell@reqres.in\",\n      \"first_name\": \"Rachel\",\n      \"last_name\": \"Howell\",\n      \"avatar\": \"https:\/\/reqres.in\/img\/faces\/12-image.jpg\"\n    }\n  ],\n  \"support\": {\n    \"url\": \"https:\/\/reqres.in\/#support-heading\",\n    \"text\": \"To keep ReqRes free, contributions towards server costs are appreciated!\"\n  }\n}\n \n"},{"result":{"nanos":975000,"millis":0.975,"status":"passed"},"step":{"line":13,"prefix":"*","index":2,"text":"assert ListUsers.responseStatus == 200"}},{"result":{"nanos":1510600,"millis":1.5106,"status":"passed"},"step":{"line":14,"prefix":"*","index":3,"text":"print ListUsers.timeRespond"},"stepLog":"06:33:20.620 [print] 514 \n"},{"result":{"nanos":3092700,"millis":3.0927,"status":"passed"},"step":{"line":15,"prefix":"*","index":4,"text":"assert ListUsers.timeRespond < 10001"}}],"executorName":"main","line":9,"name":"Get List Users by calling reusable BC - \"call read\" NO parameter used","description":"","durationMillis":914.5948,"startTime":1660084399407,"failed":false,"refId":"[1:9]","endTime":1660084400624,"exampleIndex":-1},{"sectionIndex":1,"stepResults":[{"result":{"nanos":1598100,"millis":1.5981,"status":"passed"},"step":{"background":true,"line":7,"prefix":"*","index":0,"text":"def ENVIRONMENT = env"},"stepLog":"06:33:20.630 karate.env system property was: null \n"},{"result":{"nanos":291946200,"millis":291.9462,"status":"passed"},"step":{"line":19,"prefix":"*","index":0,"text":"def ListUsers = call read('classpath:SamplePackage1\/reusableBC\/api_list_users_with_params.feature') {page_number:2 , var1 : \"sample parameter only\", var2 : \"another sample parameter only\" }"},"callResults":[{"prefixedPath":"classpath:SamplePackage1\/reusableBC\/api_list_users_with_params.feature","loopIndex":-1,"callDepth":1,"description":"Description:\r\n  Reusable BC to get list of users in reqres.in\r\n\r\n  Used in:\r\n  activity_2.calling_reusable_BC_into_feature\r\n\r\n  Parameters:\r\n  page_number (required)\r\n  var_1 (required)\r\n  var_2 (required)\r\n  x_limit (optional)","resultDate":"2022-08-10 06:33:20 am","durationMillis":262.4265,"callArg":{"page_number":2,"var1":"sample parameter only","var2":"another sample parameter only"},"failedCount":0,"packageQualifiedName":"SamplePackage1.reusableBC.api_list_users_with_params","relativePath":"SamplePackage1\/reusableBC\/api_list_users_with_params.feature","scenarioResults":[{"sectionIndex":0,"stepResults":[{"result":{"nanos":256900,"millis":0.2569,"status":"passed"},"step":{"background":true,"line":17,"prefix":"*","index":0,"text":"url p_base_url"}},{"result":{"nanos":12809900,"millis":12.8099,"status":"passed"},"step":{"background":true,"line":18,"prefix":"*","index":1,"text":"def withXLimit = {\"X-Limit\" : #(x_limit)}"}},{"result":{"nanos":4100700,"millis":4.1007,"status":"passed"},"step":{"background":true,"line":19,"prefix":"*","index":2,"text":"def requestHeader = typeof x_limit != 'undefined' ? withXLimit : {}"}},{"result":{"nanos":1533000,"millis":1.533,"status":"passed"},"step":{"background":true,"line":20,"prefix":"*","index":3,"text":"print requestHeader"},"stepLog":"06:33:20.681 [print] {\n}\n \n"},{"result":{"nanos":147900,"millis":0.1479,"status":"passed"},"step":{"line":24,"prefix":"Given","index":0,"text":"path '\/api\/users'"}},{"result":{"nanos":676800,"millis":0.6768,"status":"passed"},"step":{"line":25,"prefix":"And","index":1,"text":"param page = page_number"}},{"result":{"nanos":236119300,"millis":236.1193,"status":"passed"},"step":{"line":26,"prefix":"When","index":2,"text":"method get"},"stepLog":"06:33:20.683 request:\n1 > GET https:\/\/reqres.in\/api\/users?page=2\n1 > Host: reqres.in\n1 > Connection: Keep-Alive\n1 > User-Agent: Apache-HttpClient\/4.5.13 (Java\/16.0.2)\n1 > Accept-Encoding: gzip,deflate\n\n\n06:33:20.917 response time in milliseconds: 233\n1 < 200\n1 < Date: Tue, 09 Aug 2022 22:33:17 GMT\n1 < Content-Type: application\/json; charset=utf-8\n1 < Transfer-Encoding: chunked\n1 < Connection: keep-alive\n1 < X-Powered-By: Express\n1 < Access-Control-Allow-Origin: *\n1 < Etag: W\/\"406-ut0vzoCuidvyMf8arZpMpJ6ZRDw\"\n1 < Via: 1.1 vegur\n1 < Cache-Control: max-age=14400\n1 < CF-Cache-Status: HIT\n1 < Age: 1115\n1 < Expect-CT: max-age=604800, report-uri=\"https:\/\/report-uri.cloudflare.com\/cdn-cgi\/beacon\/expect-ct\"\n1 < Report-To: {\"endpoints\":[{\"url\":\"https:\\\/\\\/a.nel.cloudflare.com\\\/report\\\/v3?s=XDvRWN8U7Op6e90ryif%2FjwX1AxizcuWlWa7qQtjm9zyhbKg2abmWP9c2AORkoFvMuGATIQvJLG9E6I9hvayhmUGLqclhNlFMcKAWaOcDk%2BmmKDoNqlKnsUeC0g%3D%3D\"}],\"group\":\"cf-nel\",\"max_age\":604800}\n1 < NEL: {\"success_fraction\":0,\"report_to\":\"cf-nel\",\"max_age\":604800}\n1 < Vary: Accept-Encoding\n1 < Server: cloudflare\n1 < CF-RAY: 7383f3dd29a53d00-HKG\n{\"page\":2,\"per_page\":6,\"total\":12,\"total_pages\":2,\"data\":[{\"id\":7,\"email\":\"michael.lawson@reqres.in\",\"first_name\":\"Michael\",\"last_name\":\"Lawson\",\"avatar\":\"https:\/\/reqres.in\/img\/faces\/7-image.jpg\"},{\"id\":8,\"email\":\"lindsay.ferguson@reqres.in\",\"first_name\":\"Lindsay\",\"last_name\":\"Ferguson\",\"avatar\":\"https:\/\/reqres.in\/img\/faces\/8-image.jpg\"},{\"id\":9,\"email\":\"tobias.funke@reqres.in\",\"first_name\":\"Tobias\",\"last_name\":\"Funke\",\"avatar\":\"https:\/\/reqres.in\/img\/faces\/9-image.jpg\"},{\"id\":10,\"email\":\"byron.fields@reqres.in\",\"first_name\":\"Byron\",\"last_name\":\"Fields\",\"avatar\":\"https:\/\/reqres.in\/img\/faces\/10-image.jpg\"},{\"id\":11,\"email\":\"george.edwards@reqres.in\",\"first_name\":\"George\",\"last_name\":\"Edwards\",\"avatar\":\"https:\/\/reqres.in\/img\/faces\/11-image.jpg\"},{\"id\":12,\"email\":\"rachel.howell@reqres.in\",\"first_name\":\"Rachel\",\"last_name\":\"Howell\",\"avatar\":\"https:\/\/reqres.in\/img\/faces\/12-image.jpg\"}],\"support\":{\"url\":\"https:\/\/reqres.in\/#support-heading\",\"text\":\"To keep ReqRes free, contributions towards server costs are appreciated!\"}}\n"},{"result":{"nanos":1900500,"millis":1.9005,"status":"passed"},"step":{"line":27,"prefix":"And","index":3,"text":"headers requestHeader"}},{"result":{"nanos":1712600,"millis":1.7126,"status":"passed"},"step":{"line":28,"prefix":"*","index":4,"text":"print var1"},"stepLog":"06:33:20.922 [print] sample parameter only \n"},{"result":{"nanos":1959400,"millis":1.9594,"status":"passed"},"step":{"line":29,"prefix":"*","index":5,"text":"print var2"},"stepLog":"06:33:20.924 [print] another sample parameter only \n"},{"result":{"nanos":336200,"millis":0.3362,"status":"passed"},"step":{"line":31,"prefix":"*","index":6,"text":"def timeRespond = responseTime"}},{"result":{"nanos":873300,"millis":0.8733,"status":"passed"},"step":{"line":32,"prefix":"*","index":7,"text":"print timeRespond"},"stepLog":"06:33:20.925 [print] 233 \n"}],"executorName":"main","line":22,"name":"api_list_users","description":"","durationMillis":262.4265,"startTime":1660084400661,"failed":false,"refId":"[1:22]","endTime":1660084400925,"exampleIndex":-1}],"name":"api_list_users","passedCount":1}]},{"result":{"nanos":1372400,"millis":1.3724,"status":"passed"},"step":{"line":20,"prefix":"*","index":1,"text":"print ListUsers.response"},"stepLog":"06:33:20.927 [print] {\n  \"page\": 2,\n  \"per_page\": 6,\n  \"total\": 12,\n  \"total_pages\": 2,\n  \"data\": [\n    {\n      \"id\": 7,\n      \"email\": \"michael.lawson@reqres.in\",\n      \"first_name\": \"Michael\",\n      \"last_name\": \"Lawson\",\n      \"avatar\": \"https:\/\/reqres.in\/img\/faces\/7-image.jpg\"\n    },\n    {\n      \"id\": 8,\n      \"email\": \"lindsay.ferguson@reqres.in\",\n      \"first_name\": \"Lindsay\",\n      \"last_name\": \"Ferguson\",\n      \"avatar\": \"https:\/\/reqres.in\/img\/faces\/8-image.jpg\"\n    },\n    {\n      \"id\": 9,\n      \"email\": \"tobias.funke@reqres.in\",\n      \"first_name\": \"Tobias\",\n      \"last_name\": \"Funke\",\n      \"avatar\": \"https:\/\/reqres.in\/img\/faces\/9-image.jpg\"\n    },\n    {\n      \"id\": 10,\n      \"email\": \"byron.fields@reqres.in\",\n      \"first_name\": \"Byron\",\n      \"last_name\": \"Fields\",\n      \"avatar\": \"https:\/\/reqres.in\/img\/faces\/10-image.jpg\"\n    },\n    {\n      \"id\": 11,\n      \"email\": \"george.edwards@reqres.in\",\n      \"first_name\": \"George\",\n      \"last_name\": \"Edwards\",\n      \"avatar\": \"https:\/\/reqres.in\/img\/faces\/11-image.jpg\"\n    },\n    {\n      \"id\": 12,\n      \"email\": \"rachel.howell@reqres.in\",\n      \"first_name\": \"Rachel\",\n      \"last_name\": \"Howell\",\n      \"avatar\": \"https:\/\/reqres.in\/img\/faces\/12-image.jpg\"\n    }\n  ],\n  \"support\": {\n    \"url\": \"https:\/\/reqres.in\/#support-heading\",\n    \"text\": \"To keep ReqRes free, contributions towards server costs are appreciated!\"\n  }\n}\n \n"},{"result":{"nanos":250700,"millis":0.2507,"status":"passed"},"step":{"line":21,"prefix":"*","index":2,"text":"assert ListUsers.responseStatus == 200"}},{"result":{"nanos":500200,"millis":0.5002,"status":"passed"},"step":{"line":22,"prefix":"*","index":3,"text":"print ListUsers.timeRespond"},"stepLog":"06:33:20.928 [print] 233 \n"},{"result":{"nanos":225400,"millis":0.2254,"status":"passed"},"step":{"line":23,"prefix":"*","index":4,"text":"assert ListUsers.timeRespond < 10001"}}],"executorName":"main","line":17,"name":"Get List Users by calling reusable BC - \"call read\" WITH parameter used (single line)","description":"","durationMillis":295.893,"startTime":1660084400629,"failed":false,"refId":"[2:17]","endTime":1660084400928,"exampleIndex":-1},{"sectionIndex":2,"stepResults":[{"result":{"nanos":458500,"millis":0.4585,"status":"passed"},"step":{"background":true,"line":7,"prefix":"*","index":0,"text":"def ENVIRONMENT = env"},"stepLog":"06:33:20.935 karate.env system property was: null \n"},{"result":{"nanos":497500,"errorMessage":"net.minidev.json.parser.ParseException: Unexpected token v at position 49.\nsrc\/test\/java\/SamplePackage1\/scenarios\/activity_2\/calling_reusable_BC_into_feature.feature:27","millis":0.4975,"status":"failed"},"step":{"endLine":35,"line":27,"prefix":"*","docString":"{\npage_number : 2,\nvar1 : \"sample parameter only\"\nvar2 : \"another sample parameter only\"\n}","index":0,"text":"def params ="},"stepLog":"06:33:20.939 src\/test\/java\/SamplePackage1\/scenarios\/activity_2\/calling_reusable_BC_into_feature.feature:27\n* def params =\n\"\"\"\n{\npage_number : 2,\nvar1 : \"sample parameter only\"\nvar2 : \"another sample parameter only\"\n}\n\"\"\"\nnet.minidev.json.parser.ParseException: Unexpected token v at position 49.\nsrc\/test\/java\/SamplePackage1\/scenarios\/activity_2\/calling_reusable_BC_into_feature.feature:27\n"},{"result":{"nanos":0,"millis":0.0,"status":"skipped"},"step":{"line":36,"prefix":"*","index":1,"text":"def ListUsers = call read('classpath:SamplePackage1\/reusableBC\/api_list_users_with_params.feature') params"}},{"result":{"nanos":0,"millis":0.0,"status":"skipped"},"step":{"line":37,"prefix":"*","index":2,"text":"print ListUsers.response"}},{"result":{"nanos":0,"millis":0.0,"status":"skipped"},"step":{"line":38,"prefix":"*","index":3,"text":"assert ListUsers.responseStatus == 200"}},{"result":{"nanos":0,"millis":0.0,"status":"skipped"},"step":{"line":39,"prefix":"*","index":4,"text":"print ListUsers.timeRespond"}},{"result":{"nanos":0,"millis":0.0,"status":"skipped"},"step":{"line":40,"prefix":"*","index":5,"text":"assert ListUsers.timeRespond < 10001"}}],"line":25,"description":"","durationMillis":0.956,"failed":true,"error":"net.minidev.json.parser.ParseException: Unexpected token v at position 49.\nsrc\/test\/java\/SamplePackage1\/scenarios\/activity_2\/calling_reusable_BC_into_feature.feature:27","executorName":"main","name":"Get List Users by calling reusable BC - \"call read\" WITH parameter used (multiple line)","startTime":1660084400934,"refId":"[3:25]","endTime":1660084400939,"exampleIndex":-1}],"callDepth":0,"name":"calling_reusable_BC_into_feature","description":"Description: Different ways to call feature \/ reusable BC into the feature file","resultDate":"2022-08-10 06:33:20 am","durationMillis":1211.4438,"passedCount":2}