{"failedCount":0,"prefixedPath":"src\/test\/java\/SamplePackage1\/scenarios\/Activity_4\/reading_different_file_formats.feature","packageQualifiedName":"src.test.java.SamplePackage1.scenarios.Activity_4.reading_different_file_formats","loopIndex":-1,"relativePath":"src\/test\/java\/SamplePackage1\/scenarios\/Activity_4\/reading_different_file_formats.feature","scenarioResults":[{"sectionIndex":0,"stepResults":[{"result":{"nanos":1159500,"millis":1.1595,"status":"passed"},"step":{"background":true,"line":7,"prefix":"*","index":0,"text":"def ENVIRONMENT = env"},"stepLog":"07:22:48.938 karate.env system property was: null \n"},{"result":{"nanos":62896700,"millis":62.8967,"status":"passed"},"step":{"line":10,"prefix":"*","index":0,"text":"def ListUsers = read('classpath:SamplePackage1\/reusableBC\/Activity_4_helper\/api_list_users.json')"}},{"result":{"nanos":6673200,"millis":6.6732,"status":"passed"},"step":{"line":11,"prefix":"*","index":1,"text":"print ListUsers"},"stepLog":"07:22:49.051 [print] {\n  \"page\": 2,\n  \"per_page\": 6,\n  \"total\": 12,\n  \"total_pages\": 2,\n  \"data\": [\n    {\n      \"id\": 7,\n      \"email\": \"michael.lawson@reqres.in\",\n      \"first_name\": \"Michael\",\n      \"last_name\": \"Lawson\",\n      \"avatar\": \"https:\/\/reqres.in\/img\/faces\/7-image.jpg\"\n    },\n    {\n      \"id\": 8,\n      \"email\": \"lindsay.ferguson@reqres.in\",\n      \"first_name\": \"Lindsay\",\n      \"last_name\": \"Ferguson\",\n      \"avatar\": \"https:\/\/reqres.in\/img\/faces\/8-image.jpg\"\n    },\n    {\n      \"id\": 9,\n      \"email\": \"tobias.funke@reqres.in\",\n      \"first_name\": \"Tobias\",\n      \"last_name\": \"Funke\",\n      \"avatar\": \"https:\/\/reqres.in\/img\/faces\/9-image.jpg\"\n    },\n    {\n      \"id\": 10,\n      \"email\": \"byron.fields@reqres.in\",\n      \"first_name\": \"Byron\",\n      \"last_name\": \"Fields\",\n      \"avatar\": \"https:\/\/reqres.in\/img\/faces\/10-image.jpg\"\n    },\n    {\n      \"id\": 11,\n      \"email\": \"george.edwards@reqres.in\",\n      \"first_name\": \"George\",\n      \"last_name\": \"Edwards\",\n      \"avatar\": \"https:\/\/reqres.in\/img\/faces\/11-image.jpg\"\n    },\n    {\n      \"id\": 12,\n      \"email\": \"rachel.howell@reqres.in\",\n      \"first_name\": \"Rachel\",\n      \"last_name\": \"Howell\",\n      \"avatar\": \"https:\/\/reqres.in\/img\/faces\/12-image.jpg\"\n    }\n  ],\n  \"support\": {\n    \"url\": \"https:\/\/reqres.in\/#support-heading\",\n    \"text\": \"To keep ReqRes free, contributions towards server costs are appreciated!\"\n  }\n}\n \n"},{"result":{"nanos":1835700,"millis":1.8357,"status":"passed"},"step":{"line":12,"prefix":"*","index":2,"text":"print ListUsers.page"},"stepLog":"07:22:49.053 [print] 2 \n"},{"result":{"nanos":5513100,"millis":5.5131,"status":"passed"},"step":{"line":13,"prefix":"*","index":3,"text":"print ListUsers.data[0]"},"stepLog":"07:22:49.059 [print] {\n  \"id\": 7,\n  \"email\": \"michael.lawson@reqres.in\",\n  \"first_name\": \"Michael\",\n  \"last_name\": \"Lawson\",\n  \"avatar\": \"https:\/\/reqres.in\/img\/faces\/7-image.jpg\"\n}\n \n"},{"result":{"nanos":1415700,"millis":1.4157,"status":"passed"},"step":{"line":14,"prefix":"*","index":4,"text":"print ListUsers.data[1].email"},"stepLog":"07:22:49.061 [print] lindsay.ferguson@reqres.in \n"},{"result":{"nanos":2552200,"millis":2.5522,"status":"passed"},"step":{"line":16,"prefix":"*","index":5,"text":"set ListUsers.newObject = 'Im a new object'"}},{"result":{"nanos":1647500,"millis":1.6475,"status":"passed"},"step":{"line":17,"prefix":"*","index":6,"text":"set ListUsers.data[*].addedObject = 'Im a new ADDED object'"}},{"result":{"nanos":1438400,"millis":1.4384,"status":"passed"},"step":{"line":18,"prefix":"*","index":7,"text":"print ListUsers"},"stepLog":"07:22:49.067 [print] {\n  \"page\": 2,\n  \"per_page\": 6,\n  \"total\": 12,\n  \"total_pages\": 2,\n  \"data\": [\n    {\n      \"id\": 7,\n      \"email\": \"michael.lawson@reqres.in\",\n      \"first_name\": \"Michael\",\n      \"last_name\": \"Lawson\",\n      \"avatar\": \"https:\/\/reqres.in\/img\/faces\/7-image.jpg\",\n      \"addedObject\": \"Im a new ADDED object\"\n    },\n    {\n      \"id\": 8,\n      \"email\": \"lindsay.ferguson@reqres.in\",\n      \"first_name\": \"Lindsay\",\n      \"last_name\": \"Ferguson\",\n      \"avatar\": \"https:\/\/reqres.in\/img\/faces\/8-image.jpg\",\n      \"addedObject\": \"Im a new ADDED object\"\n    },\n    {\n      \"id\": 9,\n      \"email\": \"tobias.funke@reqres.in\",\n      \"first_name\": \"Tobias\",\n      \"last_name\": \"Funke\",\n      \"avatar\": \"https:\/\/reqres.in\/img\/faces\/9-image.jpg\",\n      \"addedObject\": \"Im a new ADDED object\"\n    },\n    {\n      \"id\": 10,\n      \"email\": \"byron.fields@reqres.in\",\n      \"first_name\": \"Byron\",\n      \"last_name\": \"Fields\",\n      \"avatar\": \"https:\/\/reqres.in\/img\/faces\/10-image.jpg\",\n      \"addedObject\": \"Im a new ADDED object\"\n    },\n    {\n      \"id\": 11,\n      \"email\": \"george.edwards@reqres.in\",\n      \"first_name\": \"George\",\n      \"last_name\": \"Edwards\",\n      \"avatar\": \"https:\/\/reqres.in\/img\/faces\/11-image.jpg\",\n      \"addedObject\": \"Im a new ADDED object\"\n    },\n    {\n      \"id\": 12,\n      \"email\": \"rachel.howell@reqres.in\",\n      \"first_name\": \"Rachel\",\n      \"last_name\": \"Howell\",\n      \"avatar\": \"https:\/\/reqres.in\/img\/faces\/12-image.jpg\",\n      \"addedObject\": \"Im a new ADDED object\"\n    }\n  ],\n  \"support\": {\n    \"url\": \"https:\/\/reqres.in\/#support-heading\",\n    \"text\": \"To keep ReqRes free, contributions towards server costs are appreciated!\"\n  },\n  \"newObject\": \"Im a new object\"\n}\n \n"}],"executorName":"main","line":9,"name":"Read json's files - Using * def + varName","description":"","durationMillis":85.132,"startTime":1660087368728,"failed":false,"refId":"[1:9]","endTime":1660087369067,"exampleIndex":-1},{"sectionIndex":1,"stepResults":[{"result":{"nanos":369900,"millis":0.3699,"status":"passed"},"step":{"background":true,"line":7,"prefix":"*","index":0,"text":"def ENVIRONMENT = env"},"stepLog":"07:22:49.074 karate.env system property was: null \n"},{"result":{"nanos":1377800,"millis":1.3778,"status":"passed"},"step":{"line":21,"prefix":"*","index":0,"text":"json ListUsersJson = read('classpath:SamplePackage1\/reusableBC\/Activity_4_helper\/api_list_users.json')"}},{"result":{"nanos":1724900,"millis":1.7249,"status":"passed"},"step":{"line":22,"prefix":"*","index":1,"text":"print ListUsersJson"},"stepLog":"07:22:49.080 [print] {\n  \"page\": 2,\n  \"per_page\": 6,\n  \"total\": 12,\n  \"total_pages\": 2,\n  \"data\": [\n    {\n      \"id\": 7,\n      \"email\": \"michael.lawson@reqres.in\",\n      \"first_name\": \"Michael\",\n      \"last_name\": \"Lawson\",\n      \"avatar\": \"https:\/\/reqres.in\/img\/faces\/7-image.jpg\"\n    },\n    {\n      \"id\": 8,\n      \"email\": \"lindsay.ferguson@reqres.in\",\n      \"first_name\": \"Lindsay\",\n      \"last_name\": \"Ferguson\",\n      \"avatar\": \"https:\/\/reqres.in\/img\/faces\/8-image.jpg\"\n    },\n    {\n      \"id\": 9,\n      \"email\": \"tobias.funke@reqres.in\",\n      \"first_name\": \"Tobias\",\n      \"last_name\": \"Funke\",\n      \"avatar\": \"https:\/\/reqres.in\/img\/faces\/9-image.jpg\"\n    },\n    {\n      \"id\": 10,\n      \"email\": \"byron.fields@reqres.in\",\n      \"first_name\": \"Byron\",\n      \"last_name\": \"Fields\",\n      \"avatar\": \"https:\/\/reqres.in\/img\/faces\/10-image.jpg\"\n    },\n    {\n      \"id\": 11,\n      \"email\": \"george.edwards@reqres.in\",\n      \"first_name\": \"George\",\n      \"last_name\": \"Edwards\",\n      \"avatar\": \"https:\/\/reqres.in\/img\/faces\/11-image.jpg\"\n    },\n    {\n      \"id\": 12,\n      \"email\": \"rachel.howell@reqres.in\",\n      \"first_name\": \"Rachel\",\n      \"last_name\": \"Howell\",\n      \"avatar\": \"https:\/\/reqres.in\/img\/faces\/12-image.jpg\"\n    }\n  ],\n  \"support\": {\n    \"url\": \"https:\/\/reqres.in\/#support-heading\",\n    \"text\": \"To keep ReqRes free, contributions towards server costs are appreciated!\"\n  }\n}\n \n"},{"result":{"nanos":1660300,"millis":1.6603,"status":"passed"},"step":{"line":23,"prefix":"*","index":2,"text":"print ListUsersJson.page"},"stepLog":"07:22:49.082 [print] 2 \n"},{"result":{"nanos":2218400,"millis":2.2184,"status":"passed"},"step":{"line":24,"prefix":"*","index":3,"text":"print ListUsersJson.data[0]"},"stepLog":"07:22:49.084 [print] {\n  \"id\": 7,\n  \"email\": \"michael.lawson@reqres.in\",\n  \"first_name\": \"Michael\",\n  \"last_name\": \"Lawson\",\n  \"avatar\": \"https:\/\/reqres.in\/img\/faces\/7-image.jpg\"\n}\n \n"},{"result":{"nanos":1452400,"millis":1.4524,"status":"passed"},"step":{"line":25,"prefix":"*","index":4,"text":"print ListUsersJson.data[1].email"},"stepLog":"07:22:49.086 [print] lindsay.ferguson@reqres.in \n"},{"result":{"nanos":706300,"millis":0.7063,"status":"passed"},"step":{"line":27,"prefix":"*","index":5,"text":"set ListUsersJson.newObject = 'Im a new object'"}},{"result":{"nanos":741200,"millis":0.7412,"status":"passed"},"step":{"line":28,"prefix":"*","index":6,"text":"set ListUsersJson.data[*].addedObject = 'Im a new ADDED object'"}},{"result":{"nanos":1144900,"millis":1.1449,"status":"passed"},"step":{"line":29,"prefix":"*","index":7,"text":"print ListUsersJson"},"stepLog":"07:22:49.089 [print] {\n  \"page\": 2,\n  \"per_page\": 6,\n  \"total\": 12,\n  \"total_pages\": 2,\n  \"data\": [\n    {\n      \"id\": 7,\n      \"email\": \"michael.lawson@reqres.in\",\n      \"first_name\": \"Michael\",\n      \"last_name\": \"Lawson\",\n      \"avatar\": \"https:\/\/reqres.in\/img\/faces\/7-image.jpg\",\n      \"addedObject\": \"Im a new ADDED object\"\n    },\n    {\n      \"id\": 8,\n      \"email\": \"lindsay.ferguson@reqres.in\",\n      \"first_name\": \"Lindsay\",\n      \"last_name\": \"Ferguson\",\n      \"avatar\": \"https:\/\/reqres.in\/img\/faces\/8-image.jpg\",\n      \"addedObject\": \"Im a new ADDED object\"\n    },\n    {\n      \"id\": 9,\n      \"email\": \"tobias.funke@reqres.in\",\n      \"first_name\": \"Tobias\",\n      \"last_name\": \"Funke\",\n      \"avatar\": \"https:\/\/reqres.in\/img\/faces\/9-image.jpg\",\n      \"addedObject\": \"Im a new ADDED object\"\n    },\n    {\n      \"id\": 10,\n      \"email\": \"byron.fields@reqres.in\",\n      \"first_name\": \"Byron\",\n      \"last_name\": \"Fields\",\n      \"avatar\": \"https:\/\/reqres.in\/img\/faces\/10-image.jpg\",\n      \"addedObject\": \"Im a new ADDED object\"\n    },\n    {\n      \"id\": 11,\n      \"email\": \"george.edwards@reqres.in\",\n      \"first_name\": \"George\",\n      \"last_name\": \"Edwards\",\n      \"avatar\": \"https:\/\/reqres.in\/img\/faces\/11-image.jpg\",\n      \"addedObject\": \"Im a new ADDED object\"\n    },\n    {\n      \"id\": 12,\n      \"email\": \"rachel.howell@reqres.in\",\n      \"first_name\": \"Rachel\",\n      \"last_name\": \"Howell\",\n      \"avatar\": \"https:\/\/reqres.in\/img\/faces\/12-image.jpg\",\n      \"addedObject\": \"Im a new ADDED object\"\n    }\n  ],\n  \"support\": {\n    \"url\": \"https:\/\/reqres.in\/#support-heading\",\n    \"text\": \"To keep ReqRes free, contributions towards server costs are appreciated!\"\n  },\n  \"newObject\": \"Im a new object\"\n}\n \n"}],"executorName":"main","line":20,"name":"Read json's files - Using * json + varName","description":"","durationMillis":11.3961,"startTime":1660087369074,"failed":false,"refId":"[2:20]","endTime":1660087369089,"exampleIndex":-1}],"callDepth":0,"name":"reading_different_file_formats","description":"Description: Ways to read different file format using feature file","resultDate":"2022-08-10 07:22:49 am","durationMillis":96.5281,"passedCount":2}