{"failedCount":0,"prefixedPath":"src\/test\/java\/SamplePackage1\/scenarios\/activity_1\/Validation_of_list_of_users_in_reqres.feature","packageQualifiedName":"src.test.java.SamplePackage1.scenarios.activity_1.Validation_of_list_of_users_in_reqres","loopIndex":-1,"relativePath":"src\/test\/java\/SamplePackage1\/scenarios\/activity_1\/Validation_of_list_of_users_in_reqres.feature","scenarioResults":[{"sectionIndex":0,"stepResults":[{"result":{"nanos":1372300,"millis":1.3723,"status":"passed"},"step":{"background":true,"line":7,"prefix":"*","index":0,"text":"def ENVIRONMENT = env"},"stepLog":"10:33:31.109 karate.env system property was: null \n"},{"result":{"nanos":2343600,"millis":2.3436,"status":"passed"},"step":{"line":11,"prefix":"*","index":0,"text":"print ENVIRONMENT"},"stepLog":"10:33:31.161 [print] default \n"},{"result":{"nanos":57744200,"millis":57.7442,"status":"passed"},"step":{"line":13,"prefix":"*","index":1,"text":"def params = {page_number: 2}"}},{"result":{"nanos":838851900,"millis":838.8519,"status":"passed"},"step":{"line":14,"prefix":"*","index":2,"text":"def jsonResponse = call read('classpath:SamplePackage1\/reusableBC\/BC_for_users.feature') params"},"callResults":[{"prefixedPath":"classpath:SamplePackage1\/reusableBC\/BC_for_users.feature","loopIndex":-1,"callDepth":1,"description":"Description: Reusable BC for users in reqres.in\r\n  Parameters:\r\n  page_number (required)","resultDate":"2022-08-05 10:33:32 am","durationMillis":807.5965,"callArg":{"page_number":2},"failedCount":0,"packageQualifiedName":"SamplePackage1.reusableBC.BC_for_users","relativePath":"SamplePackage1\/reusableBC\/BC_for_users.feature","scenarioResults":[{"sectionIndex":0,"stepResults":[{"result":{"nanos":335700,"millis":0.3357,"status":"passed"},"step":{"background":true,"line":9,"prefix":"*","index":0,"text":"url p_base_url"}},{"result":{"nanos":907100,"millis":0.9071,"status":"passed"},"step":{"line":13,"prefix":"Given","index":0,"text":"path '\/api\/users'"}},{"result":{"nanos":1517900,"millis":1.5179,"status":"passed"},"step":{"line":14,"prefix":"And","index":1,"text":"param page = page_number"}},{"result":{"nanos":804835800,"millis":804.8358,"status":"passed"},"step":{"line":15,"prefix":"When","index":2,"text":"method get"},"stepLog":"10:33:31.544 request:\n1 > GET https:\/\/reqres.in\/api\/users?page=2\n1 > Host: reqres.in\n1 > Connection: Keep-Alive\n1 > User-Agent: Apache-HttpClient\/4.5.13 (Java\/16.0.2)\n1 > Accept-Encoding: gzip,deflate\n\n\n10:33:32.053 response time in milliseconds: 507\n1 < 200\n1 < Date: Fri, 05 Aug 2022 02:33:31 GMT\n1 < Content-Type: application\/json; charset=utf-8\n1 < Transfer-Encoding: chunked\n1 < Connection: keep-alive\n1 < X-Powered-By: Express\n1 < Access-Control-Allow-Origin: *\n1 < Etag: W\/\"406-ut0vzoCuidvyMf8arZpMpJ6ZRDw\"\n1 < Via: 1.1 vegur\n1 < Cache-Control: max-age=14400\n1 < CF-Cache-Status: HIT\n1 < Age: 5494\n1 < Expect-CT: max-age=604800, report-uri=\"https:\/\/report-uri.cloudflare.com\/cdn-cgi\/beacon\/expect-ct\"\n1 < Report-To: {\"endpoints\":[{\"url\":\"https:\\\/\\\/a.nel.cloudflare.com\\\/report\\\/v3?s=rsut%2Bz%2B2DmtReygpFoYjVhfpYBOcZrYLUwPVVVqffcC%2F%2FglCe70N1wi%2FwzLjnn1YVMhVR7IMQyc9keqcEG%2BLLu7iR4a6Ne30SZ6sIR066nCxMjy5YG9Ud%2Bg5IQ%3D%3D\"}],\"group\":\"cf-nel\",\"max_age\":604800}\n1 < NEL: {\"success_fraction\":0,\"report_to\":\"cf-nel\",\"max_age\":604800}\n1 < Vary: Accept-Encoding\n1 < Server: cloudflare\n1 < CF-RAY: 735c20e5bf6f24ad-HKG\n{\"page\":2,\"per_page\":6,\"total\":12,\"total_pages\":2,\"data\":[{\"id\":7,\"email\":\"michael.lawson@reqres.in\",\"first_name\":\"Michael\",\"last_name\":\"Lawson\",\"avatar\":\"https:\/\/reqres.in\/img\/faces\/7-image.jpg\"},{\"id\":8,\"email\":\"lindsay.ferguson@reqres.in\",\"first_name\":\"Lindsay\",\"last_name\":\"Ferguson\",\"avatar\":\"https:\/\/reqres.in\/img\/faces\/8-image.jpg\"},{\"id\":9,\"email\":\"tobias.funke@reqres.in\",\"first_name\":\"Tobias\",\"last_name\":\"Funke\",\"avatar\":\"https:\/\/reqres.in\/img\/faces\/9-image.jpg\"},{\"id\":10,\"email\":\"byron.fields@reqres.in\",\"first_name\":\"Byron\",\"last_name\":\"Fields\",\"avatar\":\"https:\/\/reqres.in\/img\/faces\/10-image.jpg\"},{\"id\":11,\"email\":\"george.edwards@reqres.in\",\"first_name\":\"George\",\"last_name\":\"Edwards\",\"avatar\":\"https:\/\/reqres.in\/img\/faces\/11-image.jpg\"},{\"id\":12,\"email\":\"rachel.howell@reqres.in\",\"first_name\":\"Rachel\",\"last_name\":\"Howell\",\"avatar\":\"https:\/\/reqres.in\/img\/faces\/12-image.jpg\"}],\"support\":{\"url\":\"https:\/\/reqres.in\/#support-heading\",\"text\":\"To keep ReqRes free, contributions towards server costs are appreciated!\"}}\n"}],"executorName":"main","line":11,"name":"Validation_of_list_of_users_in_reqres","description":"","durationMillis":807.5965,"startTime":1659666811249,"failed":false,"refId":"[1:11]","endTime":1659666812058,"exampleIndex":-1}],"name":"BC_for_users","passedCount":1}]},{"result":{"nanos":2270400,"millis":2.2704,"status":"passed"},"step":{"line":15,"prefix":"*","index":3,"text":"print jsonResponse.response"},"stepLog":"10:33:32.061 [print] {\n  \"page\": 2,\n  \"per_page\": 6,\n  \"total\": 12,\n  \"total_pages\": 2,\n  \"data\": [\n    {\n      \"id\": 7,\n      \"email\": \"michael.lawson@reqres.in\",\n      \"first_name\": \"Michael\",\n      \"last_name\": \"Lawson\",\n      \"avatar\": \"https:\/\/reqres.in\/img\/faces\/7-image.jpg\"\n    },\n    {\n      \"id\": 8,\n      \"email\": \"lindsay.ferguson@reqres.in\",\n      \"first_name\": \"Lindsay\",\n      \"last_name\": \"Ferguson\",\n      \"avatar\": \"https:\/\/reqres.in\/img\/faces\/8-image.jpg\"\n    },\n    {\n      \"id\": 9,\n      \"email\": \"tobias.funke@reqres.in\",\n      \"first_name\": \"Tobias\",\n      \"last_name\": \"Funke\",\n      \"avatar\": \"https:\/\/reqres.in\/img\/faces\/9-image.jpg\"\n    },\n    {\n      \"id\": 10,\n      \"email\": \"byron.fields@reqres.in\",\n      \"first_name\": \"Byron\",\n      \"last_name\": \"Fields\",\n      \"avatar\": \"https:\/\/reqres.in\/img\/faces\/10-image.jpg\"\n    },\n    {\n      \"id\": 11,\n      \"email\": \"george.edwards@reqres.in\",\n      \"first_name\": \"George\",\n      \"last_name\": \"Edwards\",\n      \"avatar\": \"https:\/\/reqres.in\/img\/faces\/11-image.jpg\"\n    },\n    {\n      \"id\": 12,\n      \"email\": \"rachel.howell@reqres.in\",\n      \"first_name\": \"Rachel\",\n      \"last_name\": \"Howell\",\n      \"avatar\": \"https:\/\/reqres.in\/img\/faces\/12-image.jpg\"\n    }\n  ],\n  \"support\": {\n    \"url\": \"https:\/\/reqres.in\/#support-heading\",\n    \"text\": \"To keep ReqRes free, contributions towards server costs are appreciated!\"\n  }\n}\n \n"},{"result":{"nanos":1340700,"millis":1.3407,"status":"passed"},"step":{"line":16,"prefix":"*","index":4,"text":"print jsonResponse.responseStatus"},"stepLog":"10:33:32.063 [print] 200 \n"},{"result":{"nanos":4173800,"millis":4.1738,"status":"passed"},"step":{"line":17,"prefix":"*","index":5,"text":"print jsonResponse.responseTime"},"stepLog":"10:33:32.067 [print] null \n"},{"result":{"nanos":1273300,"millis":1.2733,"status":"passed"},"step":{"line":18,"prefix":"*","index":6,"text":"print jsonResponse.responseType"},"stepLog":"10:33:32.068 [print] null \n"},{"result":{"nanos":1406400,"millis":1.4064,"status":"passed"},"step":{"line":19,"prefix":"*","index":7,"text":"print jsonResponse.responseBytes"},"stepLog":"10:33:32.070 [print] null \n"},{"result":{"nanos":2298100,"millis":2.2981,"status":"passed"},"step":{"line":20,"prefix":"*","index":8,"text":"print jsonResponse.responseHeaders"},"stepLog":"10:33:32.072 [print] {\n  \"Date\": [\n    \"Fri, 05 Aug 2022 02:33:31 GMT\"\n  ],\n  \"Content-Type\": [\n    \"application\/json; charset=utf-8\"\n  ],\n  \"Transfer-Encoding\": [\n    \"chunked\"\n  ],\n  \"Connection\": [\n    \"keep-alive\"\n  ],\n  \"X-Powered-By\": [\n    \"Express\"\n  ],\n  \"Access-Control-Allow-Origin\": [\n    \"*\"\n  ],\n  \"Etag\": [\n    \"W\/\\\"406-ut0vzoCuidvyMf8arZpMpJ6ZRDw\\\"\"\n  ],\n  \"Via\": [\n    \"1.1 vegur\"\n  ],\n  \"Cache-Control\": [\n    \"max-age=14400\"\n  ],\n  \"CF-Cache-Status\": [\n    \"HIT\"\n  ],\n  \"Age\": [\n    \"5494\"\n  ],\n  \"Expect-CT\": [\n    \"max-age=604800, report-uri=\\\"https:\/\/report-uri.cloudflare.com\/cdn-cgi\/beacon\/expect-ct\\\"\"\n  ],\n  \"Report-To\": [\n    \"{\\\"endpoints\\\":[{\\\"url\\\":\\\"https:\\\\\/\\\\\/a.nel.cloudflare.com\\\\\/report\\\\\/v3?s=rsut%2Bz%2B2DmtReygpFoYjVhfpYBOcZrYLUwPVVVqffcC%2F%2FglCe70N1wi%2FwzLjnn1YVMhVR7IMQyc9keqcEG%2BLLu7iR4a6Ne30SZ6sIR066nCxMjy5YG9Ud%2Bg5IQ%3D%3D\\\"}],\\\"group\\\":\\\"cf-nel\\\",\\\"max_age\\\":604800}\"\n  ],\n  \"NEL\": [\n    \"{\\\"success_fraction\\\":0,\\\"report_to\\\":\\\"cf-nel\\\",\\\"max_age\\\":604800}\"\n  ],\n  \"Vary\": [\n    \"Accept-Encoding\"\n  ],\n  \"Server\": [\n    \"cloudflare\"\n  ],\n  \"CF-RAY\": [\n    \"735c20e5bf6f24ad-HKG\"\n  ]\n}\n \n"},{"result":{"nanos":1349700,"millis":1.3497,"status":"passed"},"step":{"line":21,"prefix":"*","index":9,"text":"print jsonResponse.responseCookies"},"stepLog":"10:33:32.074 [print] null \n"},{"result":{"nanos":1363000,"millis":1.363,"status":"passed"},"step":{"line":22,"prefix":"*","index":10,"text":"assert jsonResponse.responseStatus == 200"}},{"result":{"nanos":8004600,"millis":8.0046,"status":"passed"},"step":{"comments":["#      Validation"],"line":26,"prefix":"*","index":11,"text":"match jsonResponse.response contains {\"data\" : \"#array\", \"page\" : 2}"}},{"result":{"nanos":483200,"millis":0.4832,"status":"passed"},"step":{"line":27,"prefix":"*","index":12,"text":"match jsonResponse.response contains {\"data\" : \"#present\", \"page\" : \"#number\"}"}},{"result":{"nanos":1249500,"millis":1.2495,"status":"passed"},"step":{"line":28,"prefix":"*","index":13,"text":"match jsonResponse.response.page == 2"}},{"result":{"nanos":822100,"millis":0.8221,"status":"passed"},"step":{"line":29,"prefix":"*","index":14,"text":"match jsonResponse.response.per_page == 6"}},{"result":{"nanos":733800,"millis":0.7338,"status":"passed"},"step":{"line":31,"prefix":"*","index":15,"text":"match jsonResponse.response.data == '#array'"}},{"result":{"nanos":1728000,"millis":1.728,"status":"passed"},"step":{"line":32,"prefix":"*","index":16,"text":"match jsonResponse.response.data[0].id == 7"}},{"result":{"nanos":821000,"millis":0.821,"status":"passed"},"step":{"line":33,"prefix":"*","index":17,"text":"match jsonResponse.response.data == '#notnull'"}},{"result":{"nanos":447100,"millis":0.4471,"status":"passed"},"step":{"endLine":45,"line":34,"prefix":"*","docString":"[\n  {\n    \"id\": 7,\n    \"email\": \"michael.lawson@reqres.in\",\n    \"first_name\": \"Michael\",\n    \"last_name\": \"Lawson\",\n    \"avatar\": \"https:\/\/reqres.in\/img\/faces\/7-image.jpg\"\n  }\n]","index":18,"text":"match jsonResponse.response.data contains"}},{"result":{"nanos":2097400,"millis":2.0974,"status":"passed"},"step":{"line":47,"prefix":"*","index":19,"text":"print jsonResponse.response.data"},"stepLog":"10:33:32.092 [print] [\n  {\n    \"id\": 7,\n    \"email\": \"michael.lawson@reqres.in\",\n    \"first_name\": \"Michael\",\n    \"last_name\": \"Lawson\",\n    \"avatar\": \"https:\/\/reqres.in\/img\/faces\/7-image.jpg\"\n  },\n  {\n    \"id\": 8,\n    \"email\": \"lindsay.ferguson@reqres.in\",\n    \"first_name\": \"Lindsay\",\n    \"last_name\": \"Ferguson\",\n    \"avatar\": \"https:\/\/reqres.in\/img\/faces\/8-image.jpg\"\n  },\n  {\n    \"id\": 9,\n    \"email\": \"tobias.funke@reqres.in\",\n    \"first_name\": \"Tobias\",\n    \"last_name\": \"Funke\",\n    \"avatar\": \"https:\/\/reqres.in\/img\/faces\/9-image.jpg\"\n  },\n  {\n    \"id\": 10,\n    \"email\": \"byron.fields@reqres.in\",\n    \"first_name\": \"Byron\",\n    \"last_name\": \"Fields\",\n    \"avatar\": \"https:\/\/reqres.in\/img\/faces\/10-image.jpg\"\n  },\n  {\n    \"id\": 11,\n    \"email\": \"george.edwards@reqres.in\",\n    \"first_name\": \"George\",\n    \"last_name\": \"Edwards\",\n    \"avatar\": \"https:\/\/reqres.in\/img\/faces\/11-image.jpg\"\n  },\n  {\n    \"id\": 12,\n    \"email\": \"rachel.howell@reqres.in\",\n    \"first_name\": \"Rachel\",\n    \"last_name\": \"Howell\",\n    \"avatar\": \"https:\/\/reqres.in\/img\/faces\/12-image.jpg\"\n  }\n]\n \n"},{"result":{"nanos":2159000,"millis":2.159,"status":"passed"},"step":{"line":48,"prefix":"*","index":20,"text":"match jsonResponse.response.data == '#[6]'"}},{"result":{"nanos":772800,"millis":0.7728,"status":"passed"},"step":{"line":49,"prefix":"*","index":21,"text":"assert jsonResponse.response.data.length == 6"}},{"result":{"nanos":842800,"millis":0.8428,"status":"passed"},"step":{"line":50,"prefix":"*","index":22,"text":"match jsonResponse.response.data[0].email == '#string'"}},{"result":{"nanos":309300,"millis":0.3093,"status":"passed"},"step":{"line":52,"prefix":"*","index":23,"text":"def parameter1 = { page:2 }"}},{"result":{"nanos":1542100,"millis":1.5421,"status":"passed"},"step":{"line":53,"prefix":"*","index":24,"text":"eval parameter1.column = 'column value'"}},{"result":{"nanos":1406400,"millis":1.4064,"status":"passed"},"step":{"line":54,"prefix":"*","index":25,"text":"print parameter1"},"stepLog":"10:33:32.100 [print] {\n  \"page\": 2,\n  \"column\": \"column value\"\n}\n \n"}],"executorName":"main","line":9,"name":"Validation_of_list_of_users_in_reqres","description":"","durationMillis":939.2065,"startTime":1659666810875,"failed":false,"refId":"[1:9]","endTime":1659666812100,"exampleIndex":-1},{"sectionIndex":1,"stepResults":[{"result":{"nanos":390400,"millis":0.3904,"status":"passed"},"step":{"background":true,"line":7,"prefix":"*","index":0,"text":"def ENVIRONMENT = env"},"stepLog":"10:33:32.107 karate.env system property was: null \n"},{"result":{"nanos":1283500,"millis":1.2835,"status":"passed"},"step":{"line":58,"prefix":"*","index":0,"text":"def foo = 10"}},{"result":{"nanos":8828100,"millis":8.8281,"status":"passed"},"step":{"line":59,"prefix":"*","index":1,"text":"def json = {\"bar\" : #(foo + '')}"}},{"result":{"nanos":479800,"millis":0.4798,"status":"passed"},"step":{"line":60,"prefix":"*","index":2,"text":"match json == {\"bar\" : '10'}"}}],"executorName":"main","line":57,"name":"Convert Number to String: 1) add(+) variable by ''","description":"","durationMillis":10.9818,"startTime":1659666812106,"failed":false,"refId":"[2:57]","endTime":1659666812120,"exampleIndex":-1},{"sectionIndex":2,"stepResults":[{"result":{"nanos":391900,"millis":0.3919,"status":"passed"},"step":{"background":true,"line":7,"prefix":"*","index":0,"text":"def ENVIRONMENT = env"},"stepLog":"10:33:32.127 karate.env system property was: null \n"},{"result":{"nanos":821000,"millis":0.821,"status":"passed"},"step":{"line":63,"prefix":"*","index":0,"text":"def foo = '999'"}},{"result":{"nanos":13059800,"millis":13.0598,"status":"passed"},"step":{"line":64,"prefix":"*","index":1,"text":"def json = {\"bar\" : #(foo * 1)}"}},{"result":{"nanos":420300,"millis":0.4203,"status":"passed"},"step":{"line":65,"prefix":"*","index":2,"text":"match json == {\"bar\" : 999}"}}],"executorName":"main","line":62,"name":"Convert String to Number: 1) multiply variable by '1' ; 2) use js ~~parseInt(var)","description":"","durationMillis":14.693,"startTime":1659666812126,"failed":false,"refId":"[3:62]","endTime":1659666812144,"exampleIndex":-1}],"callDepth":0,"name":"Validation_of_list_of_users_in_reqres","description":"Description: List of users in Reqres.in sample website (used env: 'default')","resultDate":"2022-08-05 10:33:32 am","durationMillis":964.8813,"passedCount":3}