{"failedCount":0,"prefixedPath":"src\/test\/java\/SamplePackage1\/scenarios\/activity_2\/calling_reusable_BC_into_feature.feature","packageQualifiedName":"src.test.java.SamplePackage1.scenarios.activity_2.calling_reusable_BC_into_feature","loopIndex":-1,"relativePath":"src\/test\/java\/SamplePackage1\/scenarios\/activity_2\/calling_reusable_BC_into_feature.feature","scenarioResults":[{"sectionIndex":0,"stepResults":[{"result":{"nanos":1245200,"millis":1.2452,"status":"passed"},"step":{"background":true,"line":7,"prefix":"*","index":0,"text":"def ENVIRONMENT = env"},"stepLog":"06:26:52.168 karate.env system property was: null \n"},{"result":{"nanos":860406300,"millis":860.4063,"status":"passed"},"step":{"line":11,"prefix":"*","index":0,"text":"def ListUsers = call read('classpath:SamplePackage1\/reusableBC\/api_list_users.feature')"},"callResults":[{"failedCount":0,"prefixedPath":"classpath:SamplePackage1\/reusableBC\/api_list_users.feature","packageQualifiedName":"SamplePackage1.reusableBC.api_list_users","loopIndex":-1,"relativePath":"SamplePackage1\/reusableBC\/api_list_users.feature","scenarioResults":[{"sectionIndex":0,"stepResults":[{"result":{"nanos":1048000,"millis":1.048,"status":"passed"},"step":{"background":true,"line":14,"prefix":"*","index":0,"text":"url p_base_url"}},{"result":{"nanos":674600,"millis":0.6746,"status":"passed"},"step":{"line":18,"prefix":"Given","index":0,"text":"path '\/api\/users'"}},{"result":{"nanos":1643800,"millis":1.6438,"status":"passed"},"step":{"line":19,"prefix":"And","index":1,"text":"param page = 2"}},{"result":{"nanos":832133400,"millis":832.1334,"status":"passed"},"step":{"line":20,"prefix":"When","index":2,"text":"method get"},"stepLog":"06:26:52.552 request:\n1 > GET https:\/\/reqres.in\/api\/users?page=2\n1 > Host: reqres.in\n1 > Connection: Keep-Alive\n1 > User-Agent: Apache-HttpClient\/4.5.13 (Java\/16.0.2)\n1 > Accept-Encoding: gzip,deflate\n\n\n06:26:53.035 response time in milliseconds: 479\n1 < 200\n1 < Date: Tue, 09 Aug 2022 22:26:49 GMT\n1 < Content-Type: application\/json; charset=utf-8\n1 < Transfer-Encoding: chunked\n1 < Connection: keep-alive\n1 < X-Powered-By: Express\n1 < Access-Control-Allow-Origin: *\n1 < Etag: W\/\"406-ut0vzoCuidvyMf8arZpMpJ6ZRDw\"\n1 < Via: 1.1 vegur\n1 < Cache-Control: max-age=14400\n1 < CF-Cache-Status: HIT\n1 < Age: 6384\n1 < Expect-CT: max-age=604800, report-uri=\"https:\/\/report-uri.cloudflare.com\/cdn-cgi\/beacon\/expect-ct\"\n1 < Report-To: {\"endpoints\":[{\"url\":\"https:\\\/\\\/a.nel.cloudflare.com\\\/report\\\/v3?s=Gt1uO%2F1gEt8fyq4IbKzOqjlo7xXafqiq8fpiocE%2FQMmR9cw9hRu8%2B%2FyxlUElQTepsryThUq%2BflcDnDmCuFQOFJortubsC4nD0k1g9UCURr%2BDrQF2%2BZrNOmcuJw%3D%3D\"}],\"group\":\"cf-nel\",\"max_age\":604800}\n1 < NEL: {\"success_fraction\":0,\"report_to\":\"cf-nel\",\"max_age\":604800}\n1 < Vary: Accept-Encoding\n1 < Server: cloudflare\n1 < CF-RAY: 7383ea6508f4af31-NRT\n{\"page\":2,\"per_page\":6,\"total\":12,\"total_pages\":2,\"data\":[{\"id\":7,\"email\":\"michael.lawson@reqres.in\",\"first_name\":\"Michael\",\"last_name\":\"Lawson\",\"avatar\":\"https:\/\/reqres.in\/img\/faces\/7-image.jpg\"},{\"id\":8,\"email\":\"lindsay.ferguson@reqres.in\",\"first_name\":\"Lindsay\",\"last_name\":\"Ferguson\",\"avatar\":\"https:\/\/reqres.in\/img\/faces\/8-image.jpg\"},{\"id\":9,\"email\":\"tobias.funke@reqres.in\",\"first_name\":\"Tobias\",\"last_name\":\"Funke\",\"avatar\":\"https:\/\/reqres.in\/img\/faces\/9-image.jpg\"},{\"id\":10,\"email\":\"byron.fields@reqres.in\",\"first_name\":\"Byron\",\"last_name\":\"Fields\",\"avatar\":\"https:\/\/reqres.in\/img\/faces\/10-image.jpg\"},{\"id\":11,\"email\":\"george.edwards@reqres.in\",\"first_name\":\"George\",\"last_name\":\"Edwards\",\"avatar\":\"https:\/\/reqres.in\/img\/faces\/11-image.jpg\"},{\"id\":12,\"email\":\"rachel.howell@reqres.in\",\"first_name\":\"Rachel\",\"last_name\":\"Howell\",\"avatar\":\"https:\/\/reqres.in\/img\/faces\/12-image.jpg\"}],\"support\":{\"url\":\"https:\/\/reqres.in\/#support-heading\",\"text\":\"To keep ReqRes free, contributions towards server costs are appreciated!\"}}\n"},{"result":{"nanos":302700,"millis":0.3027,"status":"passed"},"step":{"line":22,"prefix":"*","index":3,"text":"def timeRespond = responseTime"}},{"result":{"nanos":1549100,"millis":1.5491,"status":"passed"},"step":{"line":23,"prefix":"*","index":4,"text":"print timeRespond"},"stepLog":"06:26:53.073 [print] 479 \n"}],"executorName":"main","line":16,"name":"api_list_users","description":"","durationMillis":837.3516,"startTime":1660084012235,"failed":false,"refId":"[1:16]","endTime":1660084013073,"exampleIndex":-1}],"callDepth":1,"name":"api_list_users","description":"Description:\r\n  Reusable BC to get list of users in reqres.in\r\n\r\n  Used in:\r\n  activity_2.calling_reusable_BC_into_feature\r\n\r\n  Parameters:\r\n  none","resultDate":"2022-08-10 06:26:53 am","durationMillis":837.3516,"passedCount":1}]},{"result":{"nanos":6770600,"millis":6.7706,"status":"passed"},"step":{"line":12,"prefix":"*","index":1,"text":"print ListUsers.response"},"stepLog":"06:26:53.082 [print] {\n  \"page\": 2,\n  \"per_page\": 6,\n  \"total\": 12,\n  \"total_pages\": 2,\n  \"data\": [\n    {\n      \"id\": 7,\n      \"email\": \"michael.lawson@reqres.in\",\n      \"first_name\": \"Michael\",\n      \"last_name\": \"Lawson\",\n      \"avatar\": \"https:\/\/reqres.in\/img\/faces\/7-image.jpg\"\n    },\n    {\n      \"id\": 8,\n      \"email\": \"lindsay.ferguson@reqres.in\",\n      \"first_name\": \"Lindsay\",\n      \"last_name\": \"Ferguson\",\n      \"avatar\": \"https:\/\/reqres.in\/img\/faces\/8-image.jpg\"\n    },\n    {\n      \"id\": 9,\n      \"email\": \"tobias.funke@reqres.in\",\n      \"first_name\": \"Tobias\",\n      \"last_name\": \"Funke\",\n      \"avatar\": \"https:\/\/reqres.in\/img\/faces\/9-image.jpg\"\n    },\n    {\n      \"id\": 10,\n      \"email\": \"byron.fields@reqres.in\",\n      \"first_name\": \"Byron\",\n      \"last_name\": \"Fields\",\n      \"avatar\": \"https:\/\/reqres.in\/img\/faces\/10-image.jpg\"\n    },\n    {\n      \"id\": 11,\n      \"email\": \"george.edwards@reqres.in\",\n      \"first_name\": \"George\",\n      \"last_name\": \"Edwards\",\n      \"avatar\": \"https:\/\/reqres.in\/img\/faces\/11-image.jpg\"\n    },\n    {\n      \"id\": 12,\n      \"email\": \"rachel.howell@reqres.in\",\n      \"first_name\": \"Rachel\",\n      \"last_name\": \"Howell\",\n      \"avatar\": \"https:\/\/reqres.in\/img\/faces\/12-image.jpg\"\n    }\n  ],\n  \"support\": {\n    \"url\": \"https:\/\/reqres.in\/#support-heading\",\n    \"text\": \"To keep ReqRes free, contributions towards server costs are appreciated!\"\n  }\n}\n \n"},{"result":{"nanos":1070900,"millis":1.0709,"status":"passed"},"step":{"line":13,"prefix":"*","index":2,"text":"assert ListUsers.responseStatus == 200"}},{"result":{"nanos":1182000,"millis":1.182,"status":"passed"},"step":{"line":14,"prefix":"*","index":3,"text":"print ListUsers.timeRespond"},"stepLog":"06:26:53.085 [print] 479 \n"},{"result":{"nanos":2733800,"millis":2.7338,"status":"passed"},"step":{"line":15,"prefix":"*","index":4,"text":"assert ListUsers.timeRespond < 10001"}}],"executorName":"main","line":9,"name":"Get List Users by calling reusable BC - \"call read\" NO parameter used","description":"","durationMillis":873.4088,"startTime":1660084011945,"failed":false,"refId":"[1:9]","endTime":1660084013088,"exampleIndex":-1},{"sectionIndex":1,"stepResults":[{"result":{"nanos":1201200,"millis":1.2012,"status":"passed"},"step":{"background":true,"line":7,"prefix":"*","index":0,"text":"def ENVIRONMENT = env"},"stepLog":"06:26:53.096 karate.env system property was: null \n"},{"result":{"nanos":339165500,"millis":339.1655,"status":"passed"},"step":{"line":19,"prefix":"*","index":0,"text":"def ListUsers = call read('classpath:SamplePackage1\/reusableBC\/api_list_users_with_params.feature') {page_number:2 ,x_limit:2 , var1 : \"sample parameter only\" }"},"callResults":[{"prefixedPath":"classpath:SamplePackage1\/reusableBC\/api_list_users_with_params.feature","loopIndex":-1,"callDepth":1,"description":"Description:\r\n  Reusable BC to get list of users in reqres.in\r\n\r\n  Used in:\r\n  activity_2.calling_reusable_BC_into_feature\r\n\r\n  Parameters:\r\n  page_number (required)\r\n  var_1 (required)\r\n  x_limit (optional)","resultDate":"2022-08-10 06:26:53 am","durationMillis":307.6051,"callArg":{"page_number":2,"x_limit":2,"var1":"sample parameter only"},"failedCount":0,"packageQualifiedName":"SamplePackage1.reusableBC.api_list_users_with_params","relativePath":"SamplePackage1\/reusableBC\/api_list_users_with_params.feature","scenarioResults":[{"sectionIndex":0,"stepResults":[{"result":{"nanos":168000,"millis":0.168,"status":"passed"},"step":{"background":true,"line":16,"prefix":"*","index":0,"text":"url p_base_url"}},{"result":{"nanos":1629200,"millis":1.6292,"status":"passed"},"step":{"background":true,"line":17,"prefix":"*","index":1,"text":"def withXLimit = {\"X-Limit\" : #(x_limit)}"}},{"result":{"nanos":5105600,"millis":5.1056,"status":"passed"},"step":{"background":true,"line":18,"prefix":"*","index":2,"text":"def requestHeader = typeof x_limit != 'undefined' ? withXLimit : {}"}},{"result":{"nanos":1300300,"millis":1.3003,"status":"passed"},"step":{"background":true,"line":19,"prefix":"*","index":3,"text":"print requestHeader"},"stepLog":"06:26:53.138 [print] {\n  \"X-Limit\": 2\n}\n \n"},{"result":{"nanos":147000,"millis":0.147,"status":"passed"},"step":{"line":23,"prefix":"Given","index":0,"text":"path '\/api\/users'"}},{"result":{"nanos":804700,"millis":0.8047,"status":"passed"},"step":{"line":24,"prefix":"And","index":1,"text":"param page = page_number"}},{"result":{"nanos":294497900,"millis":294.4979,"status":"passed"},"step":{"line":25,"prefix":"When","index":2,"text":"method get"},"stepLog":"06:26:53.141 request:\n1 > GET https:\/\/reqres.in\/api\/users?page=2\n1 > Host: reqres.in\n1 > Connection: Keep-Alive\n1 > User-Agent: Apache-HttpClient\/4.5.13 (Java\/16.0.2)\n1 > Accept-Encoding: gzip,deflate\n\n\n06:26:53.433 response time in milliseconds: 291\n1 < 200\n1 < Date: Tue, 09 Aug 2022 22:26:50 GMT\n1 < Content-Type: application\/json; charset=utf-8\n1 < Transfer-Encoding: chunked\n1 < Connection: keep-alive\n1 < X-Powered-By: Express\n1 < Access-Control-Allow-Origin: *\n1 < Etag: W\/\"406-ut0vzoCuidvyMf8arZpMpJ6ZRDw\"\n1 < Via: 1.1 vegur\n1 < Cache-Control: max-age=14400\n1 < CF-Cache-Status: HIT\n1 < Age: 2570\n1 < Expect-CT: max-age=604800, report-uri=\"https:\/\/report-uri.cloudflare.com\/cdn-cgi\/beacon\/expect-ct\"\n1 < Report-To: {\"endpoints\":[{\"url\":\"https:\\\/\\\/a.nel.cloudflare.com\\\/report\\\/v3?s=AsZBU4tApNkYojdC6NnVN3NRs8k9HRY6EpBn1p2DcS1KjQtdUthEg%2F%2BPfSmBD8SFGqp9meoxpG%2F94NLuHoL6sqIOBCOgaZNTrEma2PSpV7SfTAJHadB%2BXgxDUw%3D%3D\"}],\"group\":\"cf-nel\",\"max_age\":604800}\n1 < NEL: {\"success_fraction\":0,\"report_to\":\"cf-nel\",\"max_age\":604800}\n1 < Vary: Accept-Encoding\n1 < Server: cloudflare\n1 < CF-RAY: 7383ea67898c1fbd-NRT\n{\"page\":2,\"per_page\":6,\"total\":12,\"total_pages\":2,\"data\":[{\"id\":7,\"email\":\"michael.lawson@reqres.in\",\"first_name\":\"Michael\",\"last_name\":\"Lawson\",\"avatar\":\"https:\/\/reqres.in\/img\/faces\/7-image.jpg\"},{\"id\":8,\"email\":\"lindsay.ferguson@reqres.in\",\"first_name\":\"Lindsay\",\"last_name\":\"Ferguson\",\"avatar\":\"https:\/\/reqres.in\/img\/faces\/8-image.jpg\"},{\"id\":9,\"email\":\"tobias.funke@reqres.in\",\"first_name\":\"Tobias\",\"last_name\":\"Funke\",\"avatar\":\"https:\/\/reqres.in\/img\/faces\/9-image.jpg\"},{\"id\":10,\"email\":\"byron.fields@reqres.in\",\"first_name\":\"Byron\",\"last_name\":\"Fields\",\"avatar\":\"https:\/\/reqres.in\/img\/faces\/10-image.jpg\"},{\"id\":11,\"email\":\"george.edwards@reqres.in\",\"first_name\":\"George\",\"last_name\":\"Edwards\",\"avatar\":\"https:\/\/reqres.in\/img\/faces\/11-image.jpg\"},{\"id\":12,\"email\":\"rachel.howell@reqres.in\",\"first_name\":\"Rachel\",\"last_name\":\"Howell\",\"avatar\":\"https:\/\/reqres.in\/img\/faces\/12-image.jpg\"}],\"support\":{\"url\":\"https:\/\/reqres.in\/#support-heading\",\"text\":\"To keep ReqRes free, contributions towards server costs are appreciated!\"}}\n"},{"result":{"nanos":1163000,"millis":1.163,"status":"passed"},"step":{"line":26,"prefix":"And","index":3,"text":"headers requestHeader"}},{"result":{"nanos":1506300,"millis":1.5063,"status":"passed"},"step":{"line":27,"prefix":"*","index":4,"text":"print var1"},"stepLog":"06:26:53.437 [print] sample parameter only \n"},{"result":{"nanos":412900,"millis":0.4129,"status":"passed"},"step":{"line":29,"prefix":"*","index":5,"text":"def timeRespond = responseTime"}},{"result":{"nanos":870200,"millis":0.8702,"status":"passed"},"step":{"line":30,"prefix":"*","index":6,"text":"print timeRespond"},"stepLog":"06:26:53.438 [print] 291 \n"}],"executorName":"main","line":21,"name":"api_list_users","description":"","durationMillis":307.6051,"startTime":1660084013129,"failed":false,"refId":"[1:21]","endTime":1660084013438,"exampleIndex":-1}],"name":"api_list_users","passedCount":1}]},{"result":{"nanos":1387800,"millis":1.3878,"status":"passed"},"step":{"line":20,"prefix":"*","index":1,"text":"print ListUsers.response"},"stepLog":"06:26:53.440 [print] {\n  \"page\": 2,\n  \"per_page\": 6,\n  \"total\": 12,\n  \"total_pages\": 2,\n  \"data\": [\n    {\n      \"id\": 7,\n      \"email\": \"michael.lawson@reqres.in\",\n      \"first_name\": \"Michael\",\n      \"last_name\": \"Lawson\",\n      \"avatar\": \"https:\/\/reqres.in\/img\/faces\/7-image.jpg\"\n    },\n    {\n      \"id\": 8,\n      \"email\": \"lindsay.ferguson@reqres.in\",\n      \"first_name\": \"Lindsay\",\n      \"last_name\": \"Ferguson\",\n      \"avatar\": \"https:\/\/reqres.in\/img\/faces\/8-image.jpg\"\n    },\n    {\n      \"id\": 9,\n      \"email\": \"tobias.funke@reqres.in\",\n      \"first_name\": \"Tobias\",\n      \"last_name\": \"Funke\",\n      \"avatar\": \"https:\/\/reqres.in\/img\/faces\/9-image.jpg\"\n    },\n    {\n      \"id\": 10,\n      \"email\": \"byron.fields@reqres.in\",\n      \"first_name\": \"Byron\",\n      \"last_name\": \"Fields\",\n      \"avatar\": \"https:\/\/reqres.in\/img\/faces\/10-image.jpg\"\n    },\n    {\n      \"id\": 11,\n      \"email\": \"george.edwards@reqres.in\",\n      \"first_name\": \"George\",\n      \"last_name\": \"Edwards\",\n      \"avatar\": \"https:\/\/reqres.in\/img\/faces\/11-image.jpg\"\n    },\n    {\n      \"id\": 12,\n      \"email\": \"rachel.howell@reqres.in\",\n      \"first_name\": \"Rachel\",\n      \"last_name\": \"Howell\",\n      \"avatar\": \"https:\/\/reqres.in\/img\/faces\/12-image.jpg\"\n    }\n  ],\n  \"support\": {\n    \"url\": \"https:\/\/reqres.in\/#support-heading\",\n    \"text\": \"To keep ReqRes free, contributions towards server costs are appreciated!\"\n  }\n}\n \n"},{"result":{"nanos":370700,"millis":0.3707,"status":"passed"},"step":{"line":21,"prefix":"*","index":2,"text":"assert ListUsers.responseStatus == 200"}},{"result":{"nanos":980500,"millis":0.9805,"status":"passed"},"step":{"line":22,"prefix":"*","index":3,"text":"print ListUsers.timeRespond"},"stepLog":"06:26:53.442 [print] 291 \n"},{"result":{"nanos":417300,"millis":0.4173,"status":"passed"},"step":{"line":23,"prefix":"*","index":4,"text":"assert ListUsers.timeRespond < 10001"}}],"executorName":"main","line":17,"name":"Get List Users by calling reusable BC - \"call read\" WITH parameter used (single line)","description":"","durationMillis":343.523,"startTime":1660084013095,"failed":false,"refId":"[2:17]","endTime":1660084013443,"exampleIndex":-1}],"callDepth":0,"name":"calling_reusable_BC_into_feature","description":"Description: Different ways to call feature \/ reusable BC into the feature file","resultDate":"2022-08-10 06:26:53 am","durationMillis":1216.9318,"passedCount":2}