{"failedCount":0,"prefixedPath":"src\/test\/java\/SamplePackage1\/scenarios\/activity_2\/calling_reusable_BC_into_feature.feature","packageQualifiedName":"src.test.java.SamplePackage1.scenarios.activity_2.calling_reusable_BC_into_feature","loopIndex":-1,"relativePath":"src\/test\/java\/SamplePackage1\/scenarios\/activity_2\/calling_reusable_BC_into_feature.feature","scenarioResults":[{"sectionIndex":0,"stepResults":[{"result":{"nanos":1457400,"millis":1.4574,"status":"passed"},"step":{"background":true,"line":7,"prefix":"*","index":0,"text":"def ENVIRONMENT = env"},"stepLog":"06:30:05.219 karate.env system property was: null \n"},{"result":{"nanos":790663200,"millis":790.6632,"status":"passed"},"step":{"line":11,"prefix":"*","index":0,"text":"def ListUsers = call read('classpath:SamplePackage1\/reusableBC\/api_list_users.feature')"},"callResults":[{"failedCount":0,"prefixedPath":"classpath:SamplePackage1\/reusableBC\/api_list_users.feature","packageQualifiedName":"SamplePackage1.reusableBC.api_list_users","loopIndex":-1,"relativePath":"SamplePackage1\/reusableBC\/api_list_users.feature","scenarioResults":[{"sectionIndex":0,"stepResults":[{"result":{"nanos":1113700,"millis":1.1137,"status":"passed"},"step":{"background":true,"line":14,"prefix":"*","index":0,"text":"url p_base_url"}},{"result":{"nanos":748800,"millis":0.7488,"status":"passed"},"step":{"line":18,"prefix":"Given","index":0,"text":"path '\/api\/users'"}},{"result":{"nanos":2243100,"millis":2.2431,"status":"passed"},"step":{"line":19,"prefix":"And","index":1,"text":"param page = 2"}},{"result":{"nanos":761976300,"millis":761.9763,"status":"passed"},"step":{"line":20,"prefix":"When","index":2,"text":"method get"},"stepLog":"06:30:05.578 request:\n1 > GET https:\/\/reqres.in\/api\/users?page=2\n1 > Host: reqres.in\n1 > Connection: Keep-Alive\n1 > User-Agent: Apache-HttpClient\/4.5.13 (Java\/16.0.2)\n1 > Accept-Encoding: gzip,deflate\n\n\n06:30:06.018 response time in milliseconds: 437\n1 < 200\n1 < Date: Tue, 09 Aug 2022 22:30:02 GMT\n1 < Content-Type: application\/json; charset=utf-8\n1 < Transfer-Encoding: chunked\n1 < Connection: keep-alive\n1 < X-Powered-By: Express\n1 < Access-Control-Allow-Origin: *\n1 < Etag: W\/\"406-ut0vzoCuidvyMf8arZpMpJ6ZRDw\"\n1 < Via: 1.1 vegur\n1 < Cache-Control: max-age=14400\n1 < CF-Cache-Status: HIT\n1 < Age: 1261\n1 < Expect-CT: max-age=604800, report-uri=\"https:\/\/report-uri.cloudflare.com\/cdn-cgi\/beacon\/expect-ct\"\n1 < Report-To: {\"endpoints\":[{\"url\":\"https:\\\/\\\/a.nel.cloudflare.com\\\/report\\\/v3?s=50vUepVxGCrRF%2BF5lNsZczeWY6HmqGj%2FCJuEWdF%2Bjz9f0n5NxApSVEPtzYzUv5%2FPdbWoJXMc9P%2FRar7bMmQmDiUQwE8lKr3xviE%2B2gXxORnrbni2v3tNNha%2BBg%3D%3D\"}],\"group\":\"cf-nel\",\"max_age\":604800}\n1 < NEL: {\"success_fraction\":0,\"report_to\":\"cf-nel\",\"max_age\":604800}\n1 < Vary: Accept-Encoding\n1 < Server: cloudflare\n1 < CF-RAY: 7383ef1b2817afe8-NRT\n{\"page\":2,\"per_page\":6,\"total\":12,\"total_pages\":2,\"data\":[{\"id\":7,\"email\":\"michael.lawson@reqres.in\",\"first_name\":\"Michael\",\"last_name\":\"Lawson\",\"avatar\":\"https:\/\/reqres.in\/img\/faces\/7-image.jpg\"},{\"id\":8,\"email\":\"lindsay.ferguson@reqres.in\",\"first_name\":\"Lindsay\",\"last_name\":\"Ferguson\",\"avatar\":\"https:\/\/reqres.in\/img\/faces\/8-image.jpg\"},{\"id\":9,\"email\":\"tobias.funke@reqres.in\",\"first_name\":\"Tobias\",\"last_name\":\"Funke\",\"avatar\":\"https:\/\/reqres.in\/img\/faces\/9-image.jpg\"},{\"id\":10,\"email\":\"byron.fields@reqres.in\",\"first_name\":\"Byron\",\"last_name\":\"Fields\",\"avatar\":\"https:\/\/reqres.in\/img\/faces\/10-image.jpg\"},{\"id\":11,\"email\":\"george.edwards@reqres.in\",\"first_name\":\"George\",\"last_name\":\"Edwards\",\"avatar\":\"https:\/\/reqres.in\/img\/faces\/11-image.jpg\"},{\"id\":12,\"email\":\"rachel.howell@reqres.in\",\"first_name\":\"Rachel\",\"last_name\":\"Howell\",\"avatar\":\"https:\/\/reqres.in\/img\/faces\/12-image.jpg\"}],\"support\":{\"url\":\"https:\/\/reqres.in\/#support-heading\",\"text\":\"To keep ReqRes free, contributions towards server costs are appreciated!\"}}\n"},{"result":{"nanos":549900,"millis":0.5499,"status":"passed"},"step":{"line":22,"prefix":"*","index":3,"text":"def timeRespond = responseTime"}},{"result":{"nanos":1665000,"millis":1.665,"status":"passed"},"step":{"line":23,"prefix":"*","index":4,"text":"print timeRespond"},"stepLog":"06:30:06.053 [print] 437 \n"}],"executorName":"main","line":16,"name":"api_list_users","description":"","durationMillis":768.2968,"startTime":1660084205284,"failed":false,"refId":"[1:16]","endTime":1660084206053,"exampleIndex":-1}],"callDepth":1,"name":"api_list_users","description":"Description:\r\n  Reusable BC to get list of users in reqres.in\r\n\r\n  Used in:\r\n  activity_2.calling_reusable_BC_into_feature\r\n\r\n  Parameters:\r\n  none","resultDate":"2022-08-10 06:30:06 am","durationMillis":768.2968,"passedCount":1}]},{"result":{"nanos":6552100,"millis":6.5521,"status":"passed"},"step":{"line":12,"prefix":"*","index":1,"text":"print ListUsers.response"},"stepLog":"06:30:06.062 [print] {\n  \"page\": 2,\n  \"per_page\": 6,\n  \"total\": 12,\n  \"total_pages\": 2,\n  \"data\": [\n    {\n      \"id\": 7,\n      \"email\": \"michael.lawson@reqres.in\",\n      \"first_name\": \"Michael\",\n      \"last_name\": \"Lawson\",\n      \"avatar\": \"https:\/\/reqres.in\/img\/faces\/7-image.jpg\"\n    },\n    {\n      \"id\": 8,\n      \"email\": \"lindsay.ferguson@reqres.in\",\n      \"first_name\": \"Lindsay\",\n      \"last_name\": \"Ferguson\",\n      \"avatar\": \"https:\/\/reqres.in\/img\/faces\/8-image.jpg\"\n    },\n    {\n      \"id\": 9,\n      \"email\": \"tobias.funke@reqres.in\",\n      \"first_name\": \"Tobias\",\n      \"last_name\": \"Funke\",\n      \"avatar\": \"https:\/\/reqres.in\/img\/faces\/9-image.jpg\"\n    },\n    {\n      \"id\": 10,\n      \"email\": \"byron.fields@reqres.in\",\n      \"first_name\": \"Byron\",\n      \"last_name\": \"Fields\",\n      \"avatar\": \"https:\/\/reqres.in\/img\/faces\/10-image.jpg\"\n    },\n    {\n      \"id\": 11,\n      \"email\": \"george.edwards@reqres.in\",\n      \"first_name\": \"George\",\n      \"last_name\": \"Edwards\",\n      \"avatar\": \"https:\/\/reqres.in\/img\/faces\/11-image.jpg\"\n    },\n    {\n      \"id\": 12,\n      \"email\": \"rachel.howell@reqres.in\",\n      \"first_name\": \"Rachel\",\n      \"last_name\": \"Howell\",\n      \"avatar\": \"https:\/\/reqres.in\/img\/faces\/12-image.jpg\"\n    }\n  ],\n  \"support\": {\n    \"url\": \"https:\/\/reqres.in\/#support-heading\",\n    \"text\": \"To keep ReqRes free, contributions towards server costs are appreciated!\"\n  }\n}\n \n"},{"result":{"nanos":832300,"millis":0.8323,"status":"passed"},"step":{"line":13,"prefix":"*","index":2,"text":"assert ListUsers.responseStatus == 200"}},{"result":{"nanos":1331400,"millis":1.3314,"status":"passed"},"step":{"line":14,"prefix":"*","index":3,"text":"print ListUsers.timeRespond"},"stepLog":"06:30:06.064 [print] 437 \n"},{"result":{"nanos":3429300,"millis":3.4293,"status":"passed"},"step":{"line":15,"prefix":"*","index":4,"text":"assert ListUsers.timeRespond < 10001"}}],"executorName":"main","line":9,"name":"Get List Users by calling reusable BC - \"call read\" NO parameter used","description":"","durationMillis":804.2657,"startTime":1660084205015,"failed":false,"refId":"[1:9]","endTime":1660084206068,"exampleIndex":-1},{"sectionIndex":1,"stepResults":[{"result":{"nanos":552400,"millis":0.5524,"status":"passed"},"step":{"background":true,"line":7,"prefix":"*","index":0,"text":"def ENVIRONMENT = env"},"stepLog":"06:30:06.075 karate.env system property was: null \n"},{"result":{"nanos":302485800,"millis":302.4858,"status":"passed"},"step":{"line":19,"prefix":"*","index":0,"text":"def ListUsers = call read('classpath:SamplePackage1\/reusableBC\/api_list_users_with_params.feature') {page_number:2 , var1 : \"sample parameter only\" }"},"callResults":[{"prefixedPath":"classpath:SamplePackage1\/reusableBC\/api_list_users_with_params.feature","loopIndex":-1,"callDepth":1,"description":"Description:\r\n  Reusable BC to get list of users in reqres.in\r\n\r\n  Used in:\r\n  activity_2.calling_reusable_BC_into_feature\r\n\r\n  Parameters:\r\n  page_number (required)\r\n  var_1 (required)\r\n  x_limit (optional)","resultDate":"2022-08-10 06:30:06 am","durationMillis":275.7252,"callArg":{"page_number":2,"var1":"sample parameter only"},"failedCount":0,"packageQualifiedName":"SamplePackage1.reusableBC.api_list_users_with_params","relativePath":"SamplePackage1\/reusableBC\/api_list_users_with_params.feature","scenarioResults":[{"sectionIndex":0,"stepResults":[{"result":{"nanos":240100,"millis":0.2401,"status":"passed"},"step":{"background":true,"line":16,"prefix":"*","index":0,"text":"url p_base_url"}},{"result":{"nanos":12251900,"millis":12.2519,"status":"passed"},"step":{"background":true,"line":17,"prefix":"*","index":1,"text":"def withXLimit = {\"X-Limit\" : #(x_limit)}"}},{"result":{"nanos":4116800,"millis":4.1168,"status":"passed"},"step":{"background":true,"line":18,"prefix":"*","index":2,"text":"def requestHeader = typeof x_limit != 'undefined' ? withXLimit : {}"}},{"result":{"nanos":1143400,"millis":1.1434,"status":"passed"},"step":{"background":true,"line":19,"prefix":"*","index":3,"text":"print requestHeader"},"stepLog":"06:30:06.121 [print] {\n}\n \n"},{"result":{"nanos":134800,"millis":0.1348,"status":"passed"},"step":{"line":23,"prefix":"Given","index":0,"text":"path '\/api\/users'"}},{"result":{"nanos":571400,"millis":0.5714,"status":"passed"},"step":{"line":24,"prefix":"And","index":1,"text":"param page = page_number"}},{"result":{"nanos":253448100,"millis":253.4481,"status":"passed"},"step":{"line":25,"prefix":"When","index":2,"text":"method get"},"stepLog":"06:30:06.124 request:\n1 > GET https:\/\/reqres.in\/api\/users?page=2\n1 > Host: reqres.in\n1 > Connection: Keep-Alive\n1 > User-Agent: Apache-HttpClient\/4.5.13 (Java\/16.0.2)\n1 > Accept-Encoding: gzip,deflate\n\n\n06:30:06.374 response time in milliseconds: 250\n1 < 200\n1 < Date: Tue, 09 Aug 2022 22:30:03 GMT\n1 < Content-Type: application\/json; charset=utf-8\n1 < Transfer-Encoding: chunked\n1 < Connection: keep-alive\n1 < X-Powered-By: Express\n1 < Access-Control-Allow-Origin: *\n1 < Etag: W\/\"406-ut0vzoCuidvyMf8arZpMpJ6ZRDw\"\n1 < Via: 1.1 vegur\n1 < Cache-Control: max-age=14400\n1 < CF-Cache-Status: HIT\n1 < Age: 2763\n1 < Expect-CT: max-age=604800, report-uri=\"https:\/\/report-uri.cloudflare.com\/cdn-cgi\/beacon\/expect-ct\"\n1 < Report-To: {\"endpoints\":[{\"url\":\"https:\\\/\\\/a.nel.cloudflare.com\\\/report\\\/v3?s=D6lRcPQLJlgvegQCXqrARm3%2Beo%2FhVdOPQri0XnT7QwbZANoJz%2BOVB%2F2IidBHcI2e8DOZb66d1v11NWvzmZZRA7YCJo3mTBS84ZPsDRg84wArQ3NX%2FtqzDMvkgg%3D%3D\"}],\"group\":\"cf-nel\",\"max_age\":604800}\n1 < NEL: {\"success_fraction\":0,\"report_to\":\"cf-nel\",\"max_age\":604800}\n1 < Vary: Accept-Encoding\n1 < Server: cloudflare\n1 < CF-RAY: 7383ef1d7a5d20a7-NRT\n{\"page\":2,\"per_page\":6,\"total\":12,\"total_pages\":2,\"data\":[{\"id\":7,\"email\":\"michael.lawson@reqres.in\",\"first_name\":\"Michael\",\"last_name\":\"Lawson\",\"avatar\":\"https:\/\/reqres.in\/img\/faces\/7-image.jpg\"},{\"id\":8,\"email\":\"lindsay.ferguson@reqres.in\",\"first_name\":\"Lindsay\",\"last_name\":\"Ferguson\",\"avatar\":\"https:\/\/reqres.in\/img\/faces\/8-image.jpg\"},{\"id\":9,\"email\":\"tobias.funke@reqres.in\",\"first_name\":\"Tobias\",\"last_name\":\"Funke\",\"avatar\":\"https:\/\/reqres.in\/img\/faces\/9-image.jpg\"},{\"id\":10,\"email\":\"byron.fields@reqres.in\",\"first_name\":\"Byron\",\"last_name\":\"Fields\",\"avatar\":\"https:\/\/reqres.in\/img\/faces\/10-image.jpg\"},{\"id\":11,\"email\":\"george.edwards@reqres.in\",\"first_name\":\"George\",\"last_name\":\"Edwards\",\"avatar\":\"https:\/\/reqres.in\/img\/faces\/11-image.jpg\"},{\"id\":12,\"email\":\"rachel.howell@reqres.in\",\"first_name\":\"Rachel\",\"last_name\":\"Howell\",\"avatar\":\"https:\/\/reqres.in\/img\/faces\/12-image.jpg\"}],\"support\":{\"url\":\"https:\/\/reqres.in\/#support-heading\",\"text\":\"To keep ReqRes free, contributions towards server costs are appreciated!\"}}\n"},{"result":{"nanos":1417700,"millis":1.4177,"status":"passed"},"step":{"line":26,"prefix":"And","index":3,"text":"headers requestHeader"}},{"result":{"nanos":1479800,"millis":1.4798,"status":"passed"},"step":{"line":27,"prefix":"*","index":4,"text":"print var1"},"stepLog":"06:30:06.378 [print] sample parameter only \n"},{"result":{"nanos":284300,"millis":0.2843,"status":"passed"},"step":{"line":29,"prefix":"*","index":5,"text":"def timeRespond = responseTime"}},{"result":{"nanos":636900,"millis":0.6369,"status":"passed"},"step":{"line":30,"prefix":"*","index":6,"text":"print timeRespond"},"stepLog":"06:30:06.380 [print] 250 \n"}],"executorName":"main","line":21,"name":"api_list_users","description":"","durationMillis":275.7252,"startTime":1660084206103,"failed":false,"refId":"[1:21]","endTime":1660084206380,"exampleIndex":-1}],"name":"api_list_users","passedCount":1}]},{"result":{"nanos":1361600,"millis":1.3616,"status":"passed"},"step":{"line":20,"prefix":"*","index":1,"text":"print ListUsers.response"},"stepLog":"06:30:06.381 [print] {\n  \"page\": 2,\n  \"per_page\": 6,\n  \"total\": 12,\n  \"total_pages\": 2,\n  \"data\": [\n    {\n      \"id\": 7,\n      \"email\": \"michael.lawson@reqres.in\",\n      \"first_name\": \"Michael\",\n      \"last_name\": \"Lawson\",\n      \"avatar\": \"https:\/\/reqres.in\/img\/faces\/7-image.jpg\"\n    },\n    {\n      \"id\": 8,\n      \"email\": \"lindsay.ferguson@reqres.in\",\n      \"first_name\": \"Lindsay\",\n      \"last_name\": \"Ferguson\",\n      \"avatar\": \"https:\/\/reqres.in\/img\/faces\/8-image.jpg\"\n    },\n    {\n      \"id\": 9,\n      \"email\": \"tobias.funke@reqres.in\",\n      \"first_name\": \"Tobias\",\n      \"last_name\": \"Funke\",\n      \"avatar\": \"https:\/\/reqres.in\/img\/faces\/9-image.jpg\"\n    },\n    {\n      \"id\": 10,\n      \"email\": \"byron.fields@reqres.in\",\n      \"first_name\": \"Byron\",\n      \"last_name\": \"Fields\",\n      \"avatar\": \"https:\/\/reqres.in\/img\/faces\/10-image.jpg\"\n    },\n    {\n      \"id\": 11,\n      \"email\": \"george.edwards@reqres.in\",\n      \"first_name\": \"George\",\n      \"last_name\": \"Edwards\",\n      \"avatar\": \"https:\/\/reqres.in\/img\/faces\/11-image.jpg\"\n    },\n    {\n      \"id\": 12,\n      \"email\": \"rachel.howell@reqres.in\",\n      \"first_name\": \"Rachel\",\n      \"last_name\": \"Howell\",\n      \"avatar\": \"https:\/\/reqres.in\/img\/faces\/12-image.jpg\"\n    }\n  ],\n  \"support\": {\n    \"url\": \"https:\/\/reqres.in\/#support-heading\",\n    \"text\": \"To keep ReqRes free, contributions towards server costs are appreciated!\"\n  }\n}\n \n"},{"result":{"nanos":875400,"millis":0.8754,"status":"passed"},"step":{"line":21,"prefix":"*","index":2,"text":"assert ListUsers.responseStatus == 200"}},{"result":{"nanos":1559300,"millis":1.5593,"status":"passed"},"step":{"line":22,"prefix":"*","index":3,"text":"print ListUsers.timeRespond"},"stepLog":"06:30:06.396 [print] 250 \n"},{"result":{"nanos":1003300,"millis":1.0033,"status":"passed"},"step":{"line":23,"prefix":"*","index":4,"text":"assert ListUsers.timeRespond < 10001"}}],"executorName":"main","line":17,"name":"Get List Users by calling reusable BC - \"call read\" WITH parameter used (single line)","description":"","durationMillis":307.8378,"startTime":1660084206074,"failed":false,"refId":"[2:17]","endTime":1660084206397,"exampleIndex":-1},{"sectionIndex":2,"stepResults":[{"result":{"nanos":381100,"millis":0.3811,"status":"passed"},"step":{"background":true,"line":7,"prefix":"*","index":0,"text":"def ENVIRONMENT = env"},"stepLog":"06:30:06.407 karate.env system property was: null \n"},{"result":{"nanos":541400,"millis":0.5414,"status":"passed"},"step":{"endLine":34,"line":27,"prefix":"*","docString":"{\npage_number : 2,\nvar1 : \"sample parameter only\"\n}","index":0,"text":"def params ="}},{"result":{"nanos":277524000,"millis":277.524,"status":"passed"},"step":{"line":35,"prefix":"*","index":1,"text":"def ListUsers = call read('classpath:SamplePackage1\/reusableBC\/api_list_users_with_params.feature') params"},"callResults":[{"prefixedPath":"classpath:SamplePackage1\/reusableBC\/api_list_users_with_params.feature","loopIndex":-1,"callDepth":1,"description":"Description:\r\n  Reusable BC to get list of users in reqres.in\r\n\r\n  Used in:\r\n  activity_2.calling_reusable_BC_into_feature\r\n\r\n  Parameters:\r\n  page_number (required)\r\n  var_1 (required)\r\n  x_limit (optional)","resultDate":"2022-08-10 06:30:06 am","durationMillis":265.6904,"callArg":{"page_number":2,"var1":"sample parameter only"},"failedCount":0,"packageQualifiedName":"SamplePackage1.reusableBC.api_list_users_with_params","relativePath":"SamplePackage1\/reusableBC\/api_list_users_with_params.feature","scenarioResults":[{"sectionIndex":0,"stepResults":[{"result":{"nanos":165800,"millis":0.1658,"status":"passed"},"step":{"background":true,"line":16,"prefix":"*","index":0,"text":"url p_base_url"}},{"result":{"nanos":2358200,"millis":2.3582,"status":"passed"},"step":{"background":true,"line":17,"prefix":"*","index":1,"text":"def withXLimit = {\"X-Limit\" : #(x_limit)}"}},{"result":{"nanos":1491000,"millis":1.491,"status":"passed"},"step":{"background":true,"line":18,"prefix":"*","index":2,"text":"def requestHeader = typeof x_limit != 'undefined' ? withXLimit : {}"}},{"result":{"nanos":1641700,"millis":1.6417,"status":"passed"},"step":{"background":true,"line":19,"prefix":"*","index":3,"text":"print requestHeader"},"stepLog":"06:30:06.427 [print] {\n}\n \n"},{"result":{"nanos":554100,"millis":0.5541,"status":"passed"},"step":{"line":23,"prefix":"Given","index":0,"text":"path '\/api\/users'"}},{"result":{"nanos":621100,"millis":0.6211,"status":"passed"},"step":{"line":24,"prefix":"And","index":1,"text":"param page = page_number"}},{"result":{"nanos":254992300,"millis":254.9923,"status":"passed"},"step":{"line":25,"prefix":"When","index":2,"text":"method get"},"stepLog":"06:30:06.430 request:\n1 > GET https:\/\/reqres.in\/api\/users?page=2\n1 > Host: reqres.in\n1 > Connection: Keep-Alive\n1 > User-Agent: Apache-HttpClient\/4.5.13 (Java\/16.0.2)\n1 > Accept-Encoding: gzip,deflate\n\n\n06:30:06.683 response time in milliseconds: 253\n1 < 200\n1 < Date: Tue, 09 Aug 2022 22:30:03 GMT\n1 < Content-Type: application\/json; charset=utf-8\n1 < Transfer-Encoding: chunked\n1 < Connection: keep-alive\n1 < X-Powered-By: Express\n1 < Access-Control-Allow-Origin: *\n1 < Etag: W\/\"406-ut0vzoCuidvyMf8arZpMpJ6ZRDw\"\n1 < Via: 1.1 vegur\n1 < Cache-Control: max-age=14400\n1 < CF-Cache-Status: HIT\n1 < Age: 6578\n1 < Expect-CT: max-age=604800, report-uri=\"https:\/\/report-uri.cloudflare.com\/cdn-cgi\/beacon\/expect-ct\"\n1 < Report-To: {\"endpoints\":[{\"url\":\"https:\\\/\\\/a.nel.cloudflare.com\\\/report\\\/v3?s=naCWIvQKM%2FiIrVWdqg6%2BfAiRoWyV5C5%2F2Jxy2eU0L2Ei9ITT%2BcY6H9HhaVvHu24Hg%2Btcvlaer7AGe0gtPjfeyQvIWtlAxhF5uGbkw7AJ5M4CR%2BmZqPBRPdFxeA%3D%3D\"}],\"group\":\"cf-nel\",\"max_age\":604800}\n1 < NEL: {\"success_fraction\":0,\"report_to\":\"cf-nel\",\"max_age\":604800}\n1 < Vary: Accept-Encoding\n1 < Server: cloudflare\n1 < CF-RAY: 7383ef1f5ddeaf52-NRT\n{\"page\":2,\"per_page\":6,\"total\":12,\"total_pages\":2,\"data\":[{\"id\":7,\"email\":\"michael.lawson@reqres.in\",\"first_name\":\"Michael\",\"last_name\":\"Lawson\",\"avatar\":\"https:\/\/reqres.in\/img\/faces\/7-image.jpg\"},{\"id\":8,\"email\":\"lindsay.ferguson@reqres.in\",\"first_name\":\"Lindsay\",\"last_name\":\"Ferguson\",\"avatar\":\"https:\/\/reqres.in\/img\/faces\/8-image.jpg\"},{\"id\":9,\"email\":\"tobias.funke@reqres.in\",\"first_name\":\"Tobias\",\"last_name\":\"Funke\",\"avatar\":\"https:\/\/reqres.in\/img\/faces\/9-image.jpg\"},{\"id\":10,\"email\":\"byron.fields@reqres.in\",\"first_name\":\"Byron\",\"last_name\":\"Fields\",\"avatar\":\"https:\/\/reqres.in\/img\/faces\/10-image.jpg\"},{\"id\":11,\"email\":\"george.edwards@reqres.in\",\"first_name\":\"George\",\"last_name\":\"Edwards\",\"avatar\":\"https:\/\/reqres.in\/img\/faces\/11-image.jpg\"},{\"id\":12,\"email\":\"rachel.howell@reqres.in\",\"first_name\":\"Rachel\",\"last_name\":\"Howell\",\"avatar\":\"https:\/\/reqres.in\/img\/faces\/12-image.jpg\"}],\"support\":{\"url\":\"https:\/\/reqres.in\/#support-heading\",\"text\":\"To keep ReqRes free, contributions towards server costs are appreciated!\"}}\n"},{"result":{"nanos":166500,"millis":0.1665,"status":"passed"},"step":{"line":26,"prefix":"And","index":3,"text":"headers requestHeader"}},{"result":{"nanos":1660200,"millis":1.6602,"status":"passed"},"step":{"line":27,"prefix":"*","index":4,"text":"print var1"},"stepLog":"06:30:06.686 [print] sample parameter only \n"},{"result":{"nanos":393400,"millis":0.3934,"status":"passed"},"step":{"line":29,"prefix":"*","index":5,"text":"def timeRespond = responseTime"}},{"result":{"nanos":1646100,"millis":1.6461,"status":"passed"},"step":{"line":30,"prefix":"*","index":6,"text":"print timeRespond"},"stepLog":"06:30:06.688 [print] 253 \n"}],"executorName":"main","line":21,"name":"api_list_users","description":"","durationMillis":265.6904,"startTime":1660084206421,"failed":false,"refId":"[1:21]","endTime":1660084206689,"exampleIndex":-1}],"name":"api_list_users","passedCount":1}]},{"result":{"nanos":2838800,"millis":2.8388,"status":"passed"},"step":{"line":36,"prefix":"*","index":2,"text":"print ListUsers.response"},"stepLog":"06:30:06.692 [print] {\n  \"page\": 2,\n  \"per_page\": 6,\n  \"total\": 12,\n  \"total_pages\": 2,\n  \"data\": [\n    {\n      \"id\": 7,\n      \"email\": \"michael.lawson@reqres.in\",\n      \"first_name\": \"Michael\",\n      \"last_name\": \"Lawson\",\n      \"avatar\": \"https:\/\/reqres.in\/img\/faces\/7-image.jpg\"\n    },\n    {\n      \"id\": 8,\n      \"email\": \"lindsay.ferguson@reqres.in\",\n      \"first_name\": \"Lindsay\",\n      \"last_name\": \"Ferguson\",\n      \"avatar\": \"https:\/\/reqres.in\/img\/faces\/8-image.jpg\"\n    },\n    {\n      \"id\": 9,\n      \"email\": \"tobias.funke@reqres.in\",\n      \"first_name\": \"Tobias\",\n      \"last_name\": \"Funke\",\n      \"avatar\": \"https:\/\/reqres.in\/img\/faces\/9-image.jpg\"\n    },\n    {\n      \"id\": 10,\n      \"email\": \"byron.fields@reqres.in\",\n      \"first_name\": \"Byron\",\n      \"last_name\": \"Fields\",\n      \"avatar\": \"https:\/\/reqres.in\/img\/faces\/10-image.jpg\"\n    },\n    {\n      \"id\": 11,\n      \"email\": \"george.edwards@reqres.in\",\n      \"first_name\": \"George\",\n      \"last_name\": \"Edwards\",\n      \"avatar\": \"https:\/\/reqres.in\/img\/faces\/11-image.jpg\"\n    },\n    {\n      \"id\": 12,\n      \"email\": \"rachel.howell@reqres.in\",\n      \"first_name\": \"Rachel\",\n      \"last_name\": \"Howell\",\n      \"avatar\": \"https:\/\/reqres.in\/img\/faces\/12-image.jpg\"\n    }\n  ],\n  \"support\": {\n    \"url\": \"https:\/\/reqres.in\/#support-heading\",\n    \"text\": \"To keep ReqRes free, contributions towards server costs are appreciated!\"\n  }\n}\n \n"},{"result":{"nanos":382500,"millis":0.3825,"status":"passed"},"step":{"line":37,"prefix":"*","index":3,"text":"assert ListUsers.responseStatus == 200"}},{"result":{"nanos":826700,"millis":0.8267,"status":"passed"},"step":{"line":38,"prefix":"*","index":4,"text":"print ListUsers.timeRespond"},"stepLog":"06:30:06.693 [print] 253 \n"},{"result":{"nanos":334000,"millis":0.334,"status":"passed"},"step":{"line":39,"prefix":"*","index":5,"text":"assert ListUsers.timeRespond < 10001"}}],"executorName":"main","line":25,"name":"Get List Users by calling reusable BC - \"call read\" WITH parameter used (multiple line)","description":"","durationMillis":282.8285,"startTime":1660084206403,"failed":false,"refId":"[3:25]","endTime":1660084206694,"exampleIndex":-1}],"callDepth":0,"name":"calling_reusable_BC_into_feature","description":"Description: Different ways to call feature \/ reusable BC into the feature file","resultDate":"2022-08-10 06:30:06 am","durationMillis":1394.932,"passedCount":3}