{"failedCount":0,"prefixedPath":"src\/test\/java\/SamplePackage1\/scenarios\/activity_2\/calling_reusable_BC_into_feature.feature","packageQualifiedName":"src.test.java.SamplePackage1.scenarios.activity_2.calling_reusable_BC_into_feature","loopIndex":-1,"relativePath":"src\/test\/java\/SamplePackage1\/scenarios\/activity_2\/calling_reusable_BC_into_feature.feature","scenarioResults":[{"sectionIndex":0,"stepResults":[{"result":{"nanos":2200600,"millis":2.2006,"status":"passed"},"step":{"background":true,"line":7,"prefix":"*","index":0,"text":"def ENVIRONMENT = env"},"stepLog":"06:25:41.920 karate.env system property was: null \n"},{"result":{"nanos":900544400,"millis":900.5444,"status":"passed"},"step":{"line":11,"prefix":"*","index":0,"text":"def ListUsers = call read('classpath:SamplePackage1\/reusableBC\/api_list_users.feature')"},"callResults":[{"failedCount":0,"prefixedPath":"classpath:SamplePackage1\/reusableBC\/api_list_users.feature","packageQualifiedName":"SamplePackage1.reusableBC.api_list_users","loopIndex":-1,"relativePath":"SamplePackage1\/reusableBC\/api_list_users.feature","scenarioResults":[{"sectionIndex":0,"stepResults":[{"result":{"nanos":3792300,"millis":3.7923,"status":"passed"},"step":{"background":true,"line":14,"prefix":"*","index":0,"text":"url p_base_url"}},{"result":{"nanos":1174400,"millis":1.1744,"status":"passed"},"step":{"line":18,"prefix":"Given","index":0,"text":"path '\/api\/users'"}},{"result":{"nanos":3850600,"millis":3.8506,"status":"passed"},"step":{"line":19,"prefix":"And","index":1,"text":"param page = 2"}},{"result":{"nanos":853970000,"millis":853.97,"status":"passed"},"step":{"line":20,"prefix":"When","index":2,"text":"method get"},"stepLog":"06:25:42.358 request:\n1 > GET https:\/\/reqres.in\/api\/users?page=2\n1 > Host: reqres.in\n1 > Connection: Keep-Alive\n1 > User-Agent: Apache-HttpClient\/4.5.13 (Java\/16.0.2)\n1 > Accept-Encoding: gzip,deflate\n\n\n06:25:42.835 response time in milliseconds: 472\n1 < 200\n1 < Date: Tue, 09 Aug 2022 22:25:39 GMT\n1 < Content-Type: application\/json; charset=utf-8\n1 < Transfer-Encoding: chunked\n1 < Connection: keep-alive\n1 < X-Powered-By: Express\n1 < Access-Control-Allow-Origin: *\n1 < Etag: W\/\"406-ut0vzoCuidvyMf8arZpMpJ6ZRDw\"\n1 < Via: 1.1 vegur\n1 < Cache-Control: max-age=14400\n1 < CF-Cache-Status: HIT\n1 < Age: 6314\n1 < Expect-CT: max-age=604800, report-uri=\"https:\/\/report-uri.cloudflare.com\/cdn-cgi\/beacon\/expect-ct\"\n1 < Report-To: {\"endpoints\":[{\"url\":\"https:\\\/\\\/a.nel.cloudflare.com\\\/report\\\/v3?s=NBN8KBkG%2BEoTijhGcHebT1%2BgOxXLrMldsZBk5Abw9gw89%2BFp8Ylgsm%2FzcF5%2BmFwlZL%2B5B7E1Mo9i%2BqfCatQ7qAIlBkE7v%2Fm9P5kfFhJ6eSZHvF5nip1P%2BzjvKw%3D%3D\"}],\"group\":\"cf-nel\",\"max_age\":604800}\n1 < NEL: {\"success_fraction\":0,\"report_to\":\"cf-nel\",\"max_age\":604800}\n1 < Vary: Accept-Encoding\n1 < Server: cloudflare\n1 < CF-RAY: 7383e8ae59beaf40-NRT\n{\"page\":2,\"per_page\":6,\"total\":12,\"total_pages\":2,\"data\":[{\"id\":7,\"email\":\"michael.lawson@reqres.in\",\"first_name\":\"Michael\",\"last_name\":\"Lawson\",\"avatar\":\"https:\/\/reqres.in\/img\/faces\/7-image.jpg\"},{\"id\":8,\"email\":\"lindsay.ferguson@reqres.in\",\"first_name\":\"Lindsay\",\"last_name\":\"Ferguson\",\"avatar\":\"https:\/\/reqres.in\/img\/faces\/8-image.jpg\"},{\"id\":9,\"email\":\"tobias.funke@reqres.in\",\"first_name\":\"Tobias\",\"last_name\":\"Funke\",\"avatar\":\"https:\/\/reqres.in\/img\/faces\/9-image.jpg\"},{\"id\":10,\"email\":\"byron.fields@reqres.in\",\"first_name\":\"Byron\",\"last_name\":\"Fields\",\"avatar\":\"https:\/\/reqres.in\/img\/faces\/10-image.jpg\"},{\"id\":11,\"email\":\"george.edwards@reqres.in\",\"first_name\":\"George\",\"last_name\":\"Edwards\",\"avatar\":\"https:\/\/reqres.in\/img\/faces\/11-image.jpg\"},{\"id\":12,\"email\":\"rachel.howell@reqres.in\",\"first_name\":\"Rachel\",\"last_name\":\"Howell\",\"avatar\":\"https:\/\/reqres.in\/img\/faces\/12-image.jpg\"}],\"support\":{\"url\":\"https:\/\/reqres.in\/#support-heading\",\"text\":\"To keep ReqRes free, contributions towards server costs are appreciated!\"}}\n"},{"result":{"nanos":468400,"millis":0.4684,"status":"passed"},"step":{"line":22,"prefix":"*","index":3,"text":"def timeRespond = responseTime"}},{"result":{"nanos":1539900,"millis":1.5399,"status":"passed"},"step":{"line":23,"prefix":"*","index":4,"text":"print timeRespond"},"stepLog":"06:25:42.870 [print] 472 \n"}],"executorName":"main","line":16,"name":"api_list_users","description":"","durationMillis":864.7956,"startTime":1660083942003,"failed":false,"refId":"[1:16]","endTime":1660083942870,"exampleIndex":-1}],"callDepth":1,"name":"api_list_users","description":"Description:\r\n  Reusable BC to get list of users in reqres.in\r\n\r\n  Used in:\r\n  activity_2.calling_reusable_BC_into_feature\r\n\r\n  Parameters:\r\n  none","resultDate":"2022-08-10 06:25:43 am","durationMillis":864.7956,"passedCount":1}]},{"result":{"nanos":6706600,"millis":6.7066,"status":"passed"},"step":{"line":12,"prefix":"*","index":1,"text":"print ListUsers.response"},"stepLog":"06:25:42.878 [print] {\n  \"page\": 2,\n  \"per_page\": 6,\n  \"total\": 12,\n  \"total_pages\": 2,\n  \"data\": [\n    {\n      \"id\": 7,\n      \"email\": \"michael.lawson@reqres.in\",\n      \"first_name\": \"Michael\",\n      \"last_name\": \"Lawson\",\n      \"avatar\": \"https:\/\/reqres.in\/img\/faces\/7-image.jpg\"\n    },\n    {\n      \"id\": 8,\n      \"email\": \"lindsay.ferguson@reqres.in\",\n      \"first_name\": \"Lindsay\",\n      \"last_name\": \"Ferguson\",\n      \"avatar\": \"https:\/\/reqres.in\/img\/faces\/8-image.jpg\"\n    },\n    {\n      \"id\": 9,\n      \"email\": \"tobias.funke@reqres.in\",\n      \"first_name\": \"Tobias\",\n      \"last_name\": \"Funke\",\n      \"avatar\": \"https:\/\/reqres.in\/img\/faces\/9-image.jpg\"\n    },\n    {\n      \"id\": 10,\n      \"email\": \"byron.fields@reqres.in\",\n      \"first_name\": \"Byron\",\n      \"last_name\": \"Fields\",\n      \"avatar\": \"https:\/\/reqres.in\/img\/faces\/10-image.jpg\"\n    },\n    {\n      \"id\": 11,\n      \"email\": \"george.edwards@reqres.in\",\n      \"first_name\": \"George\",\n      \"last_name\": \"Edwards\",\n      \"avatar\": \"https:\/\/reqres.in\/img\/faces\/11-image.jpg\"\n    },\n    {\n      \"id\": 12,\n      \"email\": \"rachel.howell@reqres.in\",\n      \"first_name\": \"Rachel\",\n      \"last_name\": \"Howell\",\n      \"avatar\": \"https:\/\/reqres.in\/img\/faces\/12-image.jpg\"\n    }\n  ],\n  \"support\": {\n    \"url\": \"https:\/\/reqres.in\/#support-heading\",\n    \"text\": \"To keep ReqRes free, contributions towards server costs are appreciated!\"\n  }\n}\n \n"},{"result":{"nanos":934200,"millis":0.9342,"status":"passed"},"step":{"line":13,"prefix":"*","index":2,"text":"assert ListUsers.responseStatus == 200"}},{"result":{"nanos":1768300,"millis":1.7683,"status":"passed"},"step":{"line":14,"prefix":"*","index":3,"text":"print ListUsers.timeRespond"},"stepLog":"06:25:42.881 [print] 472 \n"},{"result":{"nanos":3461700,"millis":3.4617,"status":"passed"},"step":{"line":15,"prefix":"*","index":4,"text":"assert ListUsers.timeRespond < 10001"}}],"executorName":"main","line":9,"name":"Get List Users by calling reusable BC - \"call read\" NO parameter used","description":"","durationMillis":915.6158,"startTime":1660083941671,"failed":false,"refId":"[1:9]","endTime":1660083942885,"exampleIndex":-1},{"sectionIndex":1,"stepResults":[{"result":{"nanos":1349300,"millis":1.3493,"status":"passed"},"step":{"background":true,"line":7,"prefix":"*","index":0,"text":"def ENVIRONMENT = env"},"stepLog":"06:25:42.898 karate.env system property was: null \n"},{"result":{"nanos":333641300,"millis":333.6413,"status":"passed"},"step":{"line":19,"prefix":"*","index":0,"text":"def ListUsers = call read('classpath:SamplePackage1\/reusableBC\/api_list_users_with_params.feature') {page_number:2 , var1 : \"sample parameter only\" }"},"callResults":[{"prefixedPath":"classpath:SamplePackage1\/reusableBC\/api_list_users_with_params.feature","loopIndex":-1,"callDepth":1,"description":"Description:\r\n  Reusable BC to get list of users in reqres.in\r\n\r\n  Used in:\r\n  activity_2.calling_reusable_BC_into_feature\r\n\r\n  Parameters:\r\n  page_number (required)\r\n  var_1 (required)\r\n  x_limit (optional)","resultDate":"2022-08-10 06:25:43 am","durationMillis":287.0049,"callArg":{"page_number":2,"var1":"sample parameter only"},"failedCount":0,"packageQualifiedName":"SamplePackage1.reusableBC.api_list_users_with_params","relativePath":"SamplePackage1\/reusableBC\/api_list_users_with_params.feature","scenarioResults":[{"sectionIndex":0,"stepResults":[{"result":{"nanos":261200,"millis":0.2612,"status":"passed"},"step":{"background":true,"line":16,"prefix":"*","index":0,"text":"url p_base_url"}},{"result":{"nanos":24525600,"millis":24.5256,"status":"passed"},"step":{"background":true,"line":17,"prefix":"*","index":1,"text":"def withXLimit = {\"X-Limit\" : #(x_limit)}"}},{"result":{"nanos":8256300,"millis":8.2563,"status":"passed"},"step":{"background":true,"line":18,"prefix":"*","index":2,"text":"def requestHeader = typeof x_limit != 'undefined' ? withXLimit : {}"}},{"result":{"nanos":2085400,"millis":2.0854,"status":"passed"},"step":{"background":true,"line":19,"prefix":"*","index":3,"text":"print requestHeader"},"stepLog":"06:25:42.982 [print] {\n}\n \n"},{"result":{"nanos":443500,"millis":0.4435,"status":"passed"},"step":{"line":23,"prefix":"Given","index":0,"text":"path '\/api\/users'"}},{"result":{"nanos":776500,"millis":0.7765,"status":"passed"},"step":{"line":24,"prefix":"And","index":1,"text":"param page = page_number"}},{"result":{"nanos":245860800,"millis":245.8608,"status":"passed"},"step":{"line":25,"prefix":"When","index":2,"text":"method get"},"stepLog":"06:25:42.987 request:\n1 > GET https:\/\/reqres.in\/api\/users?page=2\n1 > Host: reqres.in\n1 > Connection: Keep-Alive\n1 > User-Agent: Apache-HttpClient\/4.5.13 (Java\/16.0.2)\n1 > Accept-Encoding: gzip,deflate\n\n\n06:25:43.229 response time in milliseconds: 241\n1 < 200\n1 < Date: Tue, 09 Aug 2022 22:25:39 GMT\n1 < Content-Type: application\/json; charset=utf-8\n1 < Transfer-Encoding: chunked\n1 < Connection: keep-alive\n1 < X-Powered-By: Express\n1 < Access-Control-Allow-Origin: *\n1 < Etag: W\/\"406-ut0vzoCuidvyMf8arZpMpJ6ZRDw\"\n1 < Via: 1.1 vegur\n1 < Cache-Control: max-age=14400\n1 < CF-Cache-Status: HIT\n1 < Age: 2499\n1 < Expect-CT: max-age=604800, report-uri=\"https:\/\/report-uri.cloudflare.com\/cdn-cgi\/beacon\/expect-ct\"\n1 < Report-To: {\"endpoints\":[{\"url\":\"https:\\\/\\\/a.nel.cloudflare.com\\\/report\\\/v3?s=S7stDH5df8X0ibEHz6jM1S7axyWvx1IJh%2Bx5bjxbxx7QoYhwh9wXV00wqEXgeiKdpzab2nUJXy2LP8t3JkYiIt9InXfP9NWjQRFvBDmLT%2Fm7VGLHKSuuz7jvLw%3D%3D\"}],\"group\":\"cf-nel\",\"max_age\":604800}\n1 < NEL: {\"success_fraction\":0,\"report_to\":\"cf-nel\",\"max_age\":604800}\n1 < Vary: Accept-Encoding\n1 < Server: cloudflare\n1 < CF-RAY: 7383e8b0dd341ecc-NRT\n{\"page\":2,\"per_page\":6,\"total\":12,\"total_pages\":2,\"data\":[{\"id\":7,\"email\":\"michael.lawson@reqres.in\",\"first_name\":\"Michael\",\"last_name\":\"Lawson\",\"avatar\":\"https:\/\/reqres.in\/img\/faces\/7-image.jpg\"},{\"id\":8,\"email\":\"lindsay.ferguson@reqres.in\",\"first_name\":\"Lindsay\",\"last_name\":\"Ferguson\",\"avatar\":\"https:\/\/reqres.in\/img\/faces\/8-image.jpg\"},{\"id\":9,\"email\":\"tobias.funke@reqres.in\",\"first_name\":\"Tobias\",\"last_name\":\"Funke\",\"avatar\":\"https:\/\/reqres.in\/img\/faces\/9-image.jpg\"},{\"id\":10,\"email\":\"byron.fields@reqres.in\",\"first_name\":\"Byron\",\"last_name\":\"Fields\",\"avatar\":\"https:\/\/reqres.in\/img\/faces\/10-image.jpg\"},{\"id\":11,\"email\":\"george.edwards@reqres.in\",\"first_name\":\"George\",\"last_name\":\"Edwards\",\"avatar\":\"https:\/\/reqres.in\/img\/faces\/11-image.jpg\"},{\"id\":12,\"email\":\"rachel.howell@reqres.in\",\"first_name\":\"Rachel\",\"last_name\":\"Howell\",\"avatar\":\"https:\/\/reqres.in\/img\/faces\/12-image.jpg\"}],\"support\":{\"url\":\"https:\/\/reqres.in\/#support-heading\",\"text\":\"To keep ReqRes free, contributions towards server costs are appreciated!\"}}\n"},{"result":{"nanos":1585100,"millis":1.5851,"status":"passed"},"step":{"line":26,"prefix":"And","index":3,"text":"headers requestHeader"}},{"result":{"nanos":1910600,"millis":1.9106,"status":"passed"},"step":{"line":27,"prefix":"*","index":4,"text":"print var1"},"stepLog":"06:25:43.234 [print] sample parameter only \n"},{"result":{"nanos":465900,"millis":0.4659,"status":"passed"},"step":{"line":29,"prefix":"*","index":5,"text":"def timeRespond = responseTime"}},{"result":{"nanos":834000,"millis":0.834,"status":"passed"},"step":{"line":30,"prefix":"*","index":6,"text":"print timeRespond"},"stepLog":"06:25:43.236 [print] 241 \n"}],"executorName":"main","line":21,"name":"api_list_users","description":"","durationMillis":287.0049,"startTime":1660083942946,"failed":false,"refId":"[1:21]","endTime":1660083943236,"exampleIndex":-1}],"name":"api_list_users","passedCount":1}]},{"result":{"nanos":1449900,"millis":1.4499,"status":"passed"},"step":{"line":20,"prefix":"*","index":1,"text":"print ListUsers.response"},"stepLog":"06:25:43.238 [print] {\n  \"page\": 2,\n  \"per_page\": 6,\n  \"total\": 12,\n  \"total_pages\": 2,\n  \"data\": [\n    {\n      \"id\": 7,\n      \"email\": \"michael.lawson@reqres.in\",\n      \"first_name\": \"Michael\",\n      \"last_name\": \"Lawson\",\n      \"avatar\": \"https:\/\/reqres.in\/img\/faces\/7-image.jpg\"\n    },\n    {\n      \"id\": 8,\n      \"email\": \"lindsay.ferguson@reqres.in\",\n      \"first_name\": \"Lindsay\",\n      \"last_name\": \"Ferguson\",\n      \"avatar\": \"https:\/\/reqres.in\/img\/faces\/8-image.jpg\"\n    },\n    {\n      \"id\": 9,\n      \"email\": \"tobias.funke@reqres.in\",\n      \"first_name\": \"Tobias\",\n      \"last_name\": \"Funke\",\n      \"avatar\": \"https:\/\/reqres.in\/img\/faces\/9-image.jpg\"\n    },\n    {\n      \"id\": 10,\n      \"email\": \"byron.fields@reqres.in\",\n      \"first_name\": \"Byron\",\n      \"last_name\": \"Fields\",\n      \"avatar\": \"https:\/\/reqres.in\/img\/faces\/10-image.jpg\"\n    },\n    {\n      \"id\": 11,\n      \"email\": \"george.edwards@reqres.in\",\n      \"first_name\": \"George\",\n      \"last_name\": \"Edwards\",\n      \"avatar\": \"https:\/\/reqres.in\/img\/faces\/11-image.jpg\"\n    },\n    {\n      \"id\": 12,\n      \"email\": \"rachel.howell@reqres.in\",\n      \"first_name\": \"Rachel\",\n      \"last_name\": \"Howell\",\n      \"avatar\": \"https:\/\/reqres.in\/img\/faces\/12-image.jpg\"\n    }\n  ],\n  \"support\": {\n    \"url\": \"https:\/\/reqres.in\/#support-heading\",\n    \"text\": \"To keep ReqRes free, contributions towards server costs are appreciated!\"\n  }\n}\n \n"},{"result":{"nanos":265700,"millis":0.2657,"status":"passed"},"step":{"line":21,"prefix":"*","index":2,"text":"assert ListUsers.responseStatus == 200"}},{"result":{"nanos":866400,"millis":0.8664,"status":"passed"},"step":{"line":22,"prefix":"*","index":3,"text":"print ListUsers.timeRespond"},"stepLog":"06:25:43.239 [print] 241 \n"},{"result":{"nanos":1043000,"millis":1.043,"status":"passed"},"step":{"line":23,"prefix":"*","index":4,"text":"assert ListUsers.timeRespond < 10001"}}],"executorName":"main","line":17,"name":"Get List Users by calling reusable BC - \"call read\" WITH parameter used (single line)","description":"","durationMillis":338.6156,"startTime":1660083942897,"failed":false,"refId":"[2:17]","endTime":1660083943252,"exampleIndex":-1}],"callDepth":0,"name":"calling_reusable_BC_into_feature","description":"Description: Different ways to call feature \/ reusable BC into the feature file","resultDate":"2022-08-10 06:25:43 am","durationMillis":1254.2314,"passedCount":2}