{"failedCount":0,"prefixedPath":"src\/test\/java\/SamplePackage1\/scenarios\/activity_1\/Validation_of_list_of_users_in_reqres.feature","packageQualifiedName":"src.test.java.SamplePackage1.scenarios.activity_1.Validation_of_list_of_users_in_reqres","loopIndex":-1,"relativePath":"src\/test\/java\/SamplePackage1\/scenarios\/activity_1\/Validation_of_list_of_users_in_reqres.feature","scenarioResults":[{"sectionIndex":0,"stepResults":[{"result":{"nanos":1677200,"millis":1.6772,"status":"passed"},"step":{"background":true,"line":7,"prefix":"*","index":0,"text":"def ENVIRONMENT = env"},"stepLog":"10:43:13.962 karate.env system property was: null \n"},{"result":{"nanos":2537700,"millis":2.5377,"status":"passed"},"step":{"line":11,"prefix":"*","index":0,"text":"print ENVIRONMENT"},"stepLog":"10:43:14.016 [print] default \n"},{"result":{"nanos":53714700,"millis":53.7147,"status":"passed"},"step":{"line":13,"prefix":"*","index":1,"text":"def params = {page_number: 2}"}},{"result":{"nanos":779705700,"millis":779.7057,"status":"passed"},"step":{"line":14,"prefix":"*","index":2,"text":"def jsonResponse = call read('classpath:SamplePackage1\/reusableBC\/BC_for_users.feature') params"},"callResults":[{"prefixedPath":"classpath:SamplePackage1\/reusableBC\/BC_for_users.feature","loopIndex":-1,"callDepth":1,"description":"Description: Reusable BC for users in reqres.in\r\n  Parameters:\r\n  page_number (required)","resultDate":"2022-08-05 10:43:14 am","durationMillis":755.0119,"callArg":{"page_number":2},"failedCount":0,"packageQualifiedName":"SamplePackage1.reusableBC.BC_for_users","relativePath":"SamplePackage1\/reusableBC\/BC_for_users.feature","scenarioResults":[{"sectionIndex":0,"stepResults":[{"result":{"nanos":273500,"millis":0.2735,"status":"passed"},"step":{"background":true,"line":9,"prefix":"*","index":0,"text":"url p_base_url"}},{"result":{"nanos":720000,"millis":0.72,"status":"passed"},"step":{"line":13,"prefix":"Given","index":0,"text":"path '\/api\/users'"}},{"result":{"nanos":1370600,"millis":1.3706,"status":"passed"},"step":{"line":14,"prefix":"And","index":1,"text":"param page = page_number"}},{"result":{"nanos":752647800,"millis":752.6478,"status":"passed"},"step":{"line":15,"prefix":"When","index":2,"text":"method get"},"stepLog":"10:43:14.391 request:\n1 > GET https:\/\/reqres.in\/api\/users?page=2\n1 > Host: reqres.in\n1 > Connection: Keep-Alive\n1 > User-Agent: Apache-HttpClient\/4.5.13 (Java\/16.0.2)\n1 > Accept-Encoding: gzip,deflate\n\n\n10:43:14.843 response time in milliseconds: 449\n1 < 200\n1 < Date: Fri, 05 Aug 2022 02:43:14 GMT\n1 < Content-Type: application\/json; charset=utf-8\n1 < Transfer-Encoding: chunked\n1 < Connection: keep-alive\n1 < X-Powered-By: Express\n1 < Access-Control-Allow-Origin: *\n1 < Etag: W\/\"406-ut0vzoCuidvyMf8arZpMpJ6ZRDw\"\n1 < Via: 1.1 vegur\n1 < Cache-Control: max-age=14400\n1 < CF-Cache-Status: HIT\n1 < Age: 6855\n1 < Expect-CT: max-age=604800, report-uri=\"https:\/\/report-uri.cloudflare.com\/cdn-cgi\/beacon\/expect-ct\"\n1 < Report-To: {\"endpoints\":[{\"url\":\"https:\\\/\\\/a.nel.cloudflare.com\\\/report\\\/v3?s=DbGeARcoYrF7VGRnk6T3qgXImuQ8bYa5AxhPnWamuiBZbMFf2tY29MRuwxp%2FfHOPmL8I5Tokd%2Fs%2BVQ2wP9Dd9QvXegJ%2Bprr05uSxNrWwEMw1J%2B%2FrCqDQtE058g%3D%3D\"}],\"group\":\"cf-nel\",\"max_age\":604800}\n1 < NEL: {\"success_fraction\":0,\"report_to\":\"cf-nel\",\"max_age\":604800}\n1 < Vary: Accept-Encoding\n1 < Server: cloudflare\n1 < CF-RAY: 735c2f203d200df9-NRT\n{\"page\":2,\"per_page\":6,\"total\":12,\"total_pages\":2,\"data\":[{\"id\":7,\"email\":\"michael.lawson@reqres.in\",\"first_name\":\"Michael\",\"last_name\":\"Lawson\",\"avatar\":\"https:\/\/reqres.in\/img\/faces\/7-image.jpg\"},{\"id\":8,\"email\":\"lindsay.ferguson@reqres.in\",\"first_name\":\"Lindsay\",\"last_name\":\"Ferguson\",\"avatar\":\"https:\/\/reqres.in\/img\/faces\/8-image.jpg\"},{\"id\":9,\"email\":\"tobias.funke@reqres.in\",\"first_name\":\"Tobias\",\"last_name\":\"Funke\",\"avatar\":\"https:\/\/reqres.in\/img\/faces\/9-image.jpg\"},{\"id\":10,\"email\":\"byron.fields@reqres.in\",\"first_name\":\"Byron\",\"last_name\":\"Fields\",\"avatar\":\"https:\/\/reqres.in\/img\/faces\/10-image.jpg\"},{\"id\":11,\"email\":\"george.edwards@reqres.in\",\"first_name\":\"George\",\"last_name\":\"Edwards\",\"avatar\":\"https:\/\/reqres.in\/img\/faces\/11-image.jpg\"},{\"id\":12,\"email\":\"rachel.howell@reqres.in\",\"first_name\":\"Rachel\",\"last_name\":\"Howell\",\"avatar\":\"https:\/\/reqres.in\/img\/faces\/12-image.jpg\"}],\"support\":{\"url\":\"https:\/\/reqres.in\/#support-heading\",\"text\":\"To keep ReqRes free, contributions towards server costs are appreciated!\"}}\n"}],"executorName":"main","line":11,"name":"Validation_of_list_of_users_in_reqres","description":"","durationMillis":755.0119,"startTime":1659667394093,"failed":false,"refId":"[1:11]","endTime":1659667394848,"exampleIndex":-1}],"name":"BC_for_users","passedCount":1}]},{"result":{"nanos":2470100,"millis":2.4701,"status":"passed"},"step":{"line":15,"prefix":"*","index":3,"text":"print jsonResponse.response"},"stepLog":"10:43:14.852 [print] {\n  \"page\": 2,\n  \"per_page\": 6,\n  \"total\": 12,\n  \"total_pages\": 2,\n  \"data\": [\n    {\n      \"id\": 7,\n      \"email\": \"michael.lawson@reqres.in\",\n      \"first_name\": \"Michael\",\n      \"last_name\": \"Lawson\",\n      \"avatar\": \"https:\/\/reqres.in\/img\/faces\/7-image.jpg\"\n    },\n    {\n      \"id\": 8,\n      \"email\": \"lindsay.ferguson@reqres.in\",\n      \"first_name\": \"Lindsay\",\n      \"last_name\": \"Ferguson\",\n      \"avatar\": \"https:\/\/reqres.in\/img\/faces\/8-image.jpg\"\n    },\n    {\n      \"id\": 9,\n      \"email\": \"tobias.funke@reqres.in\",\n      \"first_name\": \"Tobias\",\n      \"last_name\": \"Funke\",\n      \"avatar\": \"https:\/\/reqres.in\/img\/faces\/9-image.jpg\"\n    },\n    {\n      \"id\": 10,\n      \"email\": \"byron.fields@reqres.in\",\n      \"first_name\": \"Byron\",\n      \"last_name\": \"Fields\",\n      \"avatar\": \"https:\/\/reqres.in\/img\/faces\/10-image.jpg\"\n    },\n    {\n      \"id\": 11,\n      \"email\": \"george.edwards@reqres.in\",\n      \"first_name\": \"George\",\n      \"last_name\": \"Edwards\",\n      \"avatar\": \"https:\/\/reqres.in\/img\/faces\/11-image.jpg\"\n    },\n    {\n      \"id\": 12,\n      \"email\": \"rachel.howell@reqres.in\",\n      \"first_name\": \"Rachel\",\n      \"last_name\": \"Howell\",\n      \"avatar\": \"https:\/\/reqres.in\/img\/faces\/12-image.jpg\"\n    }\n  ],\n  \"support\": {\n    \"url\": \"https:\/\/reqres.in\/#support-heading\",\n    \"text\": \"To keep ReqRes free, contributions towards server costs are appreciated!\"\n  }\n}\n \n"},{"result":{"nanos":1474300,"millis":1.4743,"status":"passed"},"step":{"line":16,"prefix":"*","index":4,"text":"print jsonResponse.responseStatus"},"stepLog":"10:43:14.853 [print] 200 \n"},{"result":{"nanos":5418800,"millis":5.4188,"status":"passed"},"step":{"line":17,"prefix":"*","index":5,"text":"print jsonResponse.responseTime"},"stepLog":"10:43:14.859 [print] null \n"},{"result":{"nanos":1790500,"millis":1.7905,"status":"passed"},"step":{"line":18,"prefix":"*","index":6,"text":"print jsonResponse.responseType"},"stepLog":"10:43:14.861 [print] null \n"},{"result":{"nanos":1499600,"millis":1.4996,"status":"passed"},"step":{"line":19,"prefix":"*","index":7,"text":"print jsonResponse.responseBytes"},"stepLog":"10:43:14.862 [print] null \n"},{"result":{"nanos":2507700,"millis":2.5077,"status":"passed"},"step":{"line":20,"prefix":"*","index":8,"text":"print jsonResponse.responseHeaders"},"stepLog":"10:43:14.865 [print] {\n  \"Date\": [\n    \"Fri, 05 Aug 2022 02:43:14 GMT\"\n  ],\n  \"Content-Type\": [\n    \"application\/json; charset=utf-8\"\n  ],\n  \"Transfer-Encoding\": [\n    \"chunked\"\n  ],\n  \"Connection\": [\n    \"keep-alive\"\n  ],\n  \"X-Powered-By\": [\n    \"Express\"\n  ],\n  \"Access-Control-Allow-Origin\": [\n    \"*\"\n  ],\n  \"Etag\": [\n    \"W\/\\\"406-ut0vzoCuidvyMf8arZpMpJ6ZRDw\\\"\"\n  ],\n  \"Via\": [\n    \"1.1 vegur\"\n  ],\n  \"Cache-Control\": [\n    \"max-age=14400\"\n  ],\n  \"CF-Cache-Status\": [\n    \"HIT\"\n  ],\n  \"Age\": [\n    \"6855\"\n  ],\n  \"Expect-CT\": [\n    \"max-age=604800, report-uri=\\\"https:\/\/report-uri.cloudflare.com\/cdn-cgi\/beacon\/expect-ct\\\"\"\n  ],\n  \"Report-To\": [\n    \"{\\\"endpoints\\\":[{\\\"url\\\":\\\"https:\\\\\/\\\\\/a.nel.cloudflare.com\\\\\/report\\\\\/v3?s=DbGeARcoYrF7VGRnk6T3qgXImuQ8bYa5AxhPnWamuiBZbMFf2tY29MRuwxp%2FfHOPmL8I5Tokd%2Fs%2BVQ2wP9Dd9QvXegJ%2Bprr05uSxNrWwEMw1J%2B%2FrCqDQtE058g%3D%3D\\\"}],\\\"group\\\":\\\"cf-nel\\\",\\\"max_age\\\":604800}\"\n  ],\n  \"NEL\": [\n    \"{\\\"success_fraction\\\":0,\\\"report_to\\\":\\\"cf-nel\\\",\\\"max_age\\\":604800}\"\n  ],\n  \"Vary\": [\n    \"Accept-Encoding\"\n  ],\n  \"Server\": [\n    \"cloudflare\"\n  ],\n  \"CF-RAY\": [\n    \"735c2f203d200df9-NRT\"\n  ]\n}\n \n"},{"result":{"nanos":1350700,"millis":1.3507,"status":"passed"},"step":{"line":21,"prefix":"*","index":9,"text":"print jsonResponse.responseCookies"},"stepLog":"10:43:14.866 [print] null \n"},{"result":{"nanos":1614300,"millis":1.6143,"status":"passed"},"step":{"line":22,"prefix":"*","index":10,"text":"assert jsonResponse.responseStatus == 200"}},{"result":{"nanos":9652000,"millis":9.652,"status":"passed"},"step":{"comments":["#      Validation"],"line":26,"prefix":"*","index":11,"text":"match jsonResponse.response contains {\"data\" : \"#array\", \"page\" : 2}"}},{"result":{"nanos":536800,"millis":0.5368,"status":"passed"},"step":{"line":27,"prefix":"*","index":12,"text":"match jsonResponse.response contains {\"data\" : \"#present\", \"page\" : \"#number\"}"}},{"result":{"nanos":1490300,"millis":1.4903,"status":"passed"},"step":{"line":28,"prefix":"*","index":13,"text":"match jsonResponse.response.page == 2"}},{"result":{"nanos":1053900,"millis":1.0539,"status":"passed"},"step":{"line":29,"prefix":"*","index":14,"text":"match jsonResponse.response.per_page == 6"}},{"result":{"nanos":877400,"millis":0.8774,"status":"passed"},"step":{"line":31,"prefix":"*","index":15,"text":"match jsonResponse.response.data == '#array'"}},{"result":{"nanos":1710600,"millis":1.7106,"status":"passed"},"step":{"line":32,"prefix":"*","index":16,"text":"match jsonResponse.response.data[0].id == 7"}},{"result":{"nanos":1445500,"millis":1.4455,"status":"passed"},"step":{"line":33,"prefix":"*","index":17,"text":"match jsonResponse.response.data == '#notnull'"}},{"result":{"nanos":614300,"millis":0.6143,"status":"passed"},"step":{"endLine":45,"line":34,"prefix":"*","docString":"[\n  {\n    \"id\": 7,\n    \"email\": \"michael.lawson@reqres.in\",\n    \"first_name\": \"Michael\",\n    \"last_name\": \"Lawson\",\n    \"avatar\": \"https:\/\/reqres.in\/img\/faces\/7-image.jpg\"\n  }\n]","index":18,"text":"match jsonResponse.response.data contains"}},{"result":{"nanos":3319300,"millis":3.3193,"status":"passed"},"step":{"line":47,"prefix":"*","index":19,"text":"print jsonResponse.response.data"},"stepLog":"10:43:14.890 [print] [\n  {\n    \"id\": 7,\n    \"email\": \"michael.lawson@reqres.in\",\n    \"first_name\": \"Michael\",\n    \"last_name\": \"Lawson\",\n    \"avatar\": \"https:\/\/reqres.in\/img\/faces\/7-image.jpg\"\n  },\n  {\n    \"id\": 8,\n    \"email\": \"lindsay.ferguson@reqres.in\",\n    \"first_name\": \"Lindsay\",\n    \"last_name\": \"Ferguson\",\n    \"avatar\": \"https:\/\/reqres.in\/img\/faces\/8-image.jpg\"\n  },\n  {\n    \"id\": 9,\n    \"email\": \"tobias.funke@reqres.in\",\n    \"first_name\": \"Tobias\",\n    \"last_name\": \"Funke\",\n    \"avatar\": \"https:\/\/reqres.in\/img\/faces\/9-image.jpg\"\n  },\n  {\n    \"id\": 10,\n    \"email\": \"byron.fields@reqres.in\",\n    \"first_name\": \"Byron\",\n    \"last_name\": \"Fields\",\n    \"avatar\": \"https:\/\/reqres.in\/img\/faces\/10-image.jpg\"\n  },\n  {\n    \"id\": 11,\n    \"email\": \"george.edwards@reqres.in\",\n    \"first_name\": \"George\",\n    \"last_name\": \"Edwards\",\n    \"avatar\": \"https:\/\/reqres.in\/img\/faces\/11-image.jpg\"\n  },\n  {\n    \"id\": 12,\n    \"email\": \"rachel.howell@reqres.in\",\n    \"first_name\": \"Rachel\",\n    \"last_name\": \"Howell\",\n    \"avatar\": \"https:\/\/reqres.in\/img\/faces\/12-image.jpg\"\n  }\n]\n \n"},{"result":{"nanos":2606100,"millis":2.6061,"status":"passed"},"step":{"line":48,"prefix":"*","index":20,"text":"match jsonResponse.response.data == '#[6]'"}},{"result":{"nanos":1157700,"millis":1.1577,"status":"passed"},"step":{"line":49,"prefix":"*","index":21,"text":"assert jsonResponse.response.data.length == 6"}},{"result":{"nanos":1129000,"millis":1.129,"status":"passed"},"step":{"line":50,"prefix":"*","index":22,"text":"match jsonResponse.response.data[0].email == '#string'"}},{"result":{"nanos":368200,"millis":0.3682,"status":"passed"},"step":{"line":52,"prefix":"*","index":23,"text":"def parameter1 = { page:2 }"}},{"result":{"nanos":1876900,"millis":1.8769,"status":"passed"},"step":{"line":53,"prefix":"*","index":24,"text":"eval parameter1.column = 'column value'"}},{"result":{"nanos":1698300,"millis":1.6983,"status":"passed"},"step":{"line":54,"prefix":"*","index":25,"text":"print parameter1"},"stepLog":"10:43:14.900 [print] {\n  \"page\": 2,\n  \"column\": \"column value\"\n}\n \n"}],"executorName":"main","line":9,"name":"Validation_of_list_of_users_in_reqres","description":"","durationMillis":885.2976,"startTime":1659667393776,"failed":false,"refId":"[1:9]","endTime":1659667394900,"exampleIndex":-1},{"sectionIndex":1,"stepResults":[{"result":{"nanos":402600,"millis":0.4026,"status":"passed"},"step":{"background":true,"line":7,"prefix":"*","index":0,"text":"def ENVIRONMENT = env"},"stepLog":"10:43:14.906 karate.env system property was: null \n"},{"result":{"nanos":946000,"millis":0.946,"status":"passed"},"step":{"line":58,"prefix":"*","index":0,"text":"def foo = 10"}},{"result":{"nanos":7673300,"millis":7.6733,"status":"passed"},"step":{"line":59,"prefix":"*","index":1,"text":"def json = {\"bar\" : #(foo + '')}"}},{"result":{"nanos":311500,"millis":0.3115,"status":"passed"},"step":{"line":60,"prefix":"*","index":2,"text":"match json == {\"bar\" : '10'}"}}],"executorName":"main","line":57,"name":"Convert Number to String: 1) add(+) variable by ''","description":"","durationMillis":9.3334,"startTime":1659667394905,"failed":false,"refId":"[2:57]","endTime":1659667394918,"exampleIndex":-1},{"sectionIndex":2,"stepResults":[{"result":{"nanos":317600,"millis":0.3176,"status":"passed"},"step":{"background":true,"line":7,"prefix":"*","index":0,"text":"def ENVIRONMENT = env"},"stepLog":"10:43:14.924 karate.env system property was: null \n"},{"result":{"nanos":929300,"millis":0.9293,"status":"passed"},"step":{"line":63,"prefix":"*","index":0,"text":"def foo = '999'"}},{"result":{"nanos":13995100,"millis":13.9951,"status":"passed"},"step":{"line":64,"prefix":"*","index":1,"text":"def json = {\"bar\" : #(foo * 1)}"}},{"result":{"nanos":630500,"millis":0.6305,"status":"passed"},"step":{"line":65,"prefix":"*","index":2,"text":"match json == {\"bar\" : 999}"}},{"result":{"nanos":28816800,"millis":28.8168,"status":"passed"},"step":{"line":67,"prefix":"*","index":3,"text":"def json2 = {\"bar\" : #(~~parseInt(foo))}"}},{"result":{"nanos":515500,"millis":0.5155,"status":"passed"},"step":{"line":68,"prefix":"*","index":4,"text":"match json2 == {\"bar\" : 999}"}}],"executorName":"main","line":62,"name":"Convert String to Number: 1) multiply variable by '1' ; 2) use js ~~parseInt(var)","description":"","durationMillis":45.2048,"startTime":1659667394923,"failed":false,"refId":"[3:62]","endTime":1659667394971,"exampleIndex":-1},{"sectionIndex":3,"stepResults":[{"result":{"nanos":420300,"millis":0.4203,"status":"passed"},"step":{"background":true,"line":7,"prefix":"*","index":0,"text":"def ENVIRONMENT = env"},"stepLog":"10:43:14.980 karate.env system property was: null \n"},{"result":{"nanos":6647900,"millis":6.6479,"status":"passed"},"step":{"endLine":76,"line":72,"prefix":"*","index":0,"text":"table cats","table":[{"line":73,"row":["name","age"]},{"line":74,"row":["'Bob'","2"]},{"line":75,"row":["'Wild'","3"]},{"line":76,"row":["'Nyan'","8"]}]}}],"executorName":"main","line":70,"name":"TABLE- Simple way to create JSON","description":"","durationMillis":7.0682,"startTime":1659667394977,"failed":false,"refId":"[4:70]","endTime":1659667394990,"exampleIndex":-1}],"callDepth":0,"name":"Validation_of_list_of_users_in_reqres","description":"Description: List of users in Reqres.in sample website (used env: 'default')","resultDate":"2022-08-05 10:43:14 am","durationMillis":946.904,"passedCount":4}