{"failedCount":0,"prefixedPath":"src\/test\/java\/SamplePackage1\/scenarios\/activity_1\/Validation_of_list_of_users_in_reqres.feature","packageQualifiedName":"src.test.java.SamplePackage1.scenarios.activity_1.Validation_of_list_of_users_in_reqres","loopIndex":-1,"relativePath":"src\/test\/java\/SamplePackage1\/scenarios\/activity_1\/Validation_of_list_of_users_in_reqres.feature","scenarioResults":[{"sectionIndex":0,"stepResults":[{"result":{"nanos":1593099,"millis":1.593099,"status":"passed"},"step":{"background":true,"line":7,"prefix":"*","index":0,"text":"def ENVIRONMENT = env"},"stepLog":"09:52:00.736 karate.env system property was: null \n"},{"result":{"nanos":2213299,"millis":2.213299,"status":"passed"},"step":{"line":11,"prefix":"*","index":0,"text":"print ENVIRONMENT"},"stepLog":"09:52:00.791 [print] default \n"},{"result":{"nanos":64693299,"millis":64.693299,"status":"passed"},"step":{"line":13,"prefix":"*","index":1,"text":"def params = {page_number: 2}"}},{"result":{"nanos":791686200,"millis":791.6862,"status":"passed"},"step":{"line":14,"prefix":"*","index":2,"text":"def jsonResponse = call read('classpath:SamplePackage1\/reusableBC\/BC_for_users.feature') params"},"callResults":[{"prefixedPath":"classpath:SamplePackage1\/reusableBC\/BC_for_users.feature","loopIndex":-1,"callDepth":1,"description":"Description: Reusable BC for users in reqres.in\r\n  Parameters:\r\n  page_number (required)","resultDate":"2022-08-05 09:52:01 am","durationMillis":760.6887,"callArg":{"page_number":2},"failedCount":0,"packageQualifiedName":"SamplePackage1.reusableBC.BC_for_users","relativePath":"SamplePackage1\/reusableBC\/BC_for_users.feature","scenarioResults":[{"sectionIndex":0,"stepResults":[{"result":{"nanos":341899,"millis":0.341899,"status":"passed"},"step":{"background":true,"line":9,"prefix":"*","index":0,"text":"url p_base_url"}},{"result":{"nanos":1218100,"millis":1.2181,"status":"passed"},"step":{"line":13,"prefix":"Given","index":0,"text":"path '\/api\/users'"}},{"result":{"nanos":1752101,"millis":1.752101,"status":"passed"},"step":{"line":14,"prefix":"And","index":1,"text":"param page = page_number"}},{"result":{"nanos":757376600,"millis":757.3766,"status":"passed"},"step":{"line":15,"prefix":"When","index":2,"text":"method get"},"stepLog":"09:52:01.184 request:\n1 > GET https:\/\/reqres.in\/api\/users?page=2\n1 > Host: reqres.in\n1 > Connection: Keep-Alive\n1 > User-Agent: Apache-HttpClient\/4.5.13 (Java\/16.0.2)\n1 > Accept-Encoding: gzip,deflate\n\n\n09:52:01.643 response time in milliseconds: 457\n1 < 200\n1 < Date: Fri, 05 Aug 2022 01:52:01 GMT\n1 < Content-Type: application\/json; charset=utf-8\n1 < Transfer-Encoding: chunked\n1 < Connection: keep-alive\n1 < X-Powered-By: Express\n1 < Access-Control-Allow-Origin: *\n1 < Etag: W\/\"406-ut0vzoCuidvyMf8arZpMpJ6ZRDw\"\n1 < Via: 1.1 vegur\n1 < Cache-Control: max-age=14400\n1 < CF-Cache-Status: HIT\n1 < Age: 2162\n1 < Expect-CT: max-age=604800, report-uri=\"https:\/\/report-uri.cloudflare.com\/cdn-cgi\/beacon\/expect-ct\"\n1 < Report-To: {\"endpoints\":[{\"url\":\"https:\\\/\\\/a.nel.cloudflare.com\\\/report\\\/v3?s=aXNyEhTuVlU%2FuN0XoDTajuITt6riSw%2BGdsFMl%2BactgH%2FbhKFPq3l3xLmbG71%2FtxBaIfULEgz478dJ8JtuuaEX2PzaxaBxY2na0qNvzH7lH4MqA3%2FPVsdgaSCBg%3D%3D\"}],\"group\":\"cf-nel\",\"max_age\":604800}\n1 < NEL: {\"success_fraction\":0,\"report_to\":\"cf-nel\",\"max_age\":604800}\n1 < Vary: Accept-Encoding\n1 < Server: cloudflare\n1 < CF-RAY: 735be4195ba63408-NRT\n{\"page\":2,\"per_page\":6,\"total\":12,\"total_pages\":2,\"data\":[{\"id\":7,\"email\":\"michael.lawson@reqres.in\",\"first_name\":\"Michael\",\"last_name\":\"Lawson\",\"avatar\":\"https:\/\/reqres.in\/img\/faces\/7-image.jpg\"},{\"id\":8,\"email\":\"lindsay.ferguson@reqres.in\",\"first_name\":\"Lindsay\",\"last_name\":\"Ferguson\",\"avatar\":\"https:\/\/reqres.in\/img\/faces\/8-image.jpg\"},{\"id\":9,\"email\":\"tobias.funke@reqres.in\",\"first_name\":\"Tobias\",\"last_name\":\"Funke\",\"avatar\":\"https:\/\/reqres.in\/img\/faces\/9-image.jpg\"},{\"id\":10,\"email\":\"byron.fields@reqres.in\",\"first_name\":\"Byron\",\"last_name\":\"Fields\",\"avatar\":\"https:\/\/reqres.in\/img\/faces\/10-image.jpg\"},{\"id\":11,\"email\":\"george.edwards@reqres.in\",\"first_name\":\"George\",\"last_name\":\"Edwards\",\"avatar\":\"https:\/\/reqres.in\/img\/faces\/11-image.jpg\"},{\"id\":12,\"email\":\"rachel.howell@reqres.in\",\"first_name\":\"Rachel\",\"last_name\":\"Howell\",\"avatar\":\"https:\/\/reqres.in\/img\/faces\/12-image.jpg\"}],\"support\":{\"url\":\"https:\/\/reqres.in\/#support-heading\",\"text\":\"To keep ReqRes free, contributions towards server costs are appreciated!\"}}\n"}],"executorName":"main","line":11,"name":"Validation_of_list_of_users_in_reqres","description":"","durationMillis":760.6887,"startTime":1659664320886,"failed":false,"refId":"[1:11]","endTime":1659664321648,"exampleIndex":-1}],"name":"BC_for_users","passedCount":1}]},{"result":{"nanos":1414400,"millis":1.4144,"status":"passed"},"step":{"line":15,"prefix":"*","index":3,"text":"assert jsonResponse.responseStatus == 200"}},{"result":{"nanos":1958199,"millis":1.958199,"status":"passed"},"step":{"line":16,"prefix":"*","index":4,"text":"print jsonResponse.response"},"stepLog":"09:52:01.652 [print] {\n  \"page\": 2,\n  \"per_page\": 6,\n  \"total\": 12,\n  \"total_pages\": 2,\n  \"data\": [\n    {\n      \"id\": 7,\n      \"email\": \"michael.lawson@reqres.in\",\n      \"first_name\": \"Michael\",\n      \"last_name\": \"Lawson\",\n      \"avatar\": \"https:\/\/reqres.in\/img\/faces\/7-image.jpg\"\n    },\n    {\n      \"id\": 8,\n      \"email\": \"lindsay.ferguson@reqres.in\",\n      \"first_name\": \"Lindsay\",\n      \"last_name\": \"Ferguson\",\n      \"avatar\": \"https:\/\/reqres.in\/img\/faces\/8-image.jpg\"\n    },\n    {\n      \"id\": 9,\n      \"email\": \"tobias.funke@reqres.in\",\n      \"first_name\": \"Tobias\",\n      \"last_name\": \"Funke\",\n      \"avatar\": \"https:\/\/reqres.in\/img\/faces\/9-image.jpg\"\n    },\n    {\n      \"id\": 10,\n      \"email\": \"byron.fields@reqres.in\",\n      \"first_name\": \"Byron\",\n      \"last_name\": \"Fields\",\n      \"avatar\": \"https:\/\/reqres.in\/img\/faces\/10-image.jpg\"\n    },\n    {\n      \"id\": 11,\n      \"email\": \"george.edwards@reqres.in\",\n      \"first_name\": \"George\",\n      \"last_name\": \"Edwards\",\n      \"avatar\": \"https:\/\/reqres.in\/img\/faces\/11-image.jpg\"\n    },\n    {\n      \"id\": 12,\n      \"email\": \"rachel.howell@reqres.in\",\n      \"first_name\": \"Rachel\",\n      \"last_name\": \"Howell\",\n      \"avatar\": \"https:\/\/reqres.in\/img\/faces\/12-image.jpg\"\n    }\n  ],\n  \"support\": {\n    \"url\": \"https:\/\/reqres.in\/#support-heading\",\n    \"text\": \"To keep ReqRes free, contributions towards server costs are appreciated!\"\n  }\n}\n \n"}],"executorName":"main","line":9,"name":"Validation_of_list_of_users_in_reqres","description":"","durationMillis":863.558496,"startTime":1659664320536,"failed":false,"refId":"[1:9]","endTime":1659664321653,"exampleIndex":-1}],"callDepth":0,"name":"Validation_of_list_of_users_in_reqres","description":"Description: List of users in Reqres.in sample website (used env: 'default')","resultDate":"2022-08-05 09:52:01 am","durationMillis":863.558496,"passedCount":1}