{"failedCount":0,"prefixedPath":"src\/test\/java\/SamplePackage1\/scenarios\/activity_1\/Validation_of_list_of_users_in_reqres.feature","packageQualifiedName":"src.test.java.SamplePackage1.scenarios.activity_1.Validation_of_list_of_users_in_reqres","loopIndex":-1,"relativePath":"src\/test\/java\/SamplePackage1\/scenarios\/activity_1\/Validation_of_list_of_users_in_reqres.feature","scenarioResults":[{"sectionIndex":0,"stepResults":[{"result":{"nanos":1558600,"millis":1.5586,"status":"passed"},"step":{"background":true,"line":7,"prefix":"*","index":0,"text":"def ENVIRONMENT = env"},"stepLog":"10:50:22.950 karate.env system property was: null \n"},{"result":{"nanos":2415500,"millis":2.4155,"status":"passed"},"step":{"line":11,"prefix":"*","index":0,"text":"print ENVIRONMENT"},"stepLog":"10:50:23.000 [print] default \n"},{"result":{"nanos":50093200,"millis":50.0932,"status":"passed"},"step":{"line":13,"prefix":"*","index":1,"text":"def params = {page_number: 2}"}},{"result":{"nanos":810392800,"millis":810.3928,"status":"passed"},"step":{"line":14,"prefix":"*","index":2,"text":"def jsonResponse = call read('classpath:SamplePackage1\/reusableBC\/BC_for_users.feature') params"},"callResults":[{"prefixedPath":"classpath:SamplePackage1\/reusableBC\/BC_for_users.feature","loopIndex":-1,"callDepth":1,"description":"Description: Reusable BC for users in reqres.in\r\n  Parameters:\r\n  page_number (required)","resultDate":"2022-08-05 10:50:24 am","durationMillis":782.1596,"callArg":{"page_number":2},"failedCount":0,"packageQualifiedName":"SamplePackage1.reusableBC.BC_for_users","relativePath":"SamplePackage1\/reusableBC\/BC_for_users.feature","scenarioResults":[{"sectionIndex":0,"stepResults":[{"result":{"nanos":299900,"millis":0.2999,"status":"passed"},"step":{"background":true,"line":9,"prefix":"*","index":0,"text":"url p_base_url"}},{"result":{"nanos":643000,"millis":0.643,"status":"passed"},"step":{"line":13,"prefix":"Given","index":0,"text":"path '\/api\/users'"}},{"result":{"nanos":1714600,"millis":1.7146,"status":"passed"},"step":{"line":14,"prefix":"And","index":1,"text":"param page = page_number"}},{"result":{"nanos":779502100,"millis":779.5021,"status":"passed"},"step":{"line":15,"prefix":"When","index":2,"text":"method get"},"stepLog":"10:50:23.358 request:\n1 > GET https:\/\/reqres.in\/api\/users?page=2\n1 > Host: reqres.in\n1 > Connection: Keep-Alive\n1 > User-Agent: Apache-HttpClient\/4.5.13 (Java\/16.0.2)\n1 > Accept-Encoding: gzip,deflate\n\n\n10:50:23.856 response time in milliseconds: 495\n1 < 200\n1 < Date: Fri, 05 Aug 2022 02:50:23 GMT\n1 < Content-Type: application\/json; charset=utf-8\n1 < Transfer-Encoding: chunked\n1 < Connection: keep-alive\n1 < X-Powered-By: Express\n1 < Access-Control-Allow-Origin: *\n1 < Etag: W\/\"406-ut0vzoCuidvyMf8arZpMpJ6ZRDw\"\n1 < Via: 1.1 vegur\n1 < Cache-Control: max-age=14400\n1 < CF-Cache-Status: HIT\n1 < Age: 5664\n1 < Expect-CT: max-age=604800, report-uri=\"https:\/\/report-uri.cloudflare.com\/cdn-cgi\/beacon\/expect-ct\"\n1 < Report-To: {\"endpoints\":[{\"url\":\"https:\\\/\\\/a.nel.cloudflare.com\\\/report\\\/v3?s=q3eXDIWZ0bLCmN1%2B1Uv7W2iXZQsmu2819mcl6fieJkSosWeZZtVEHWAG8xeG1rMK1UQ8bN37NonvVomHj1sx16mBT1hPlK0r14tbZuTYENl0wQlQ5PJW5PJ6mQ%3D%3D\"}],\"group\":\"cf-nel\",\"max_age\":604800}\n1 < NEL: {\"success_fraction\":0,\"report_to\":\"cf-nel\",\"max_age\":604800}\n1 < Vary: Accept-Encoding\n1 < Server: cloudflare\n1 < CF-RAY: 735c39996f1faf54-NRT\n{\"page\":2,\"per_page\":6,\"total\":12,\"total_pages\":2,\"data\":[{\"id\":7,\"email\":\"michael.lawson@reqres.in\",\"first_name\":\"Michael\",\"last_name\":\"Lawson\",\"avatar\":\"https:\/\/reqres.in\/img\/faces\/7-image.jpg\"},{\"id\":8,\"email\":\"lindsay.ferguson@reqres.in\",\"first_name\":\"Lindsay\",\"last_name\":\"Ferguson\",\"avatar\":\"https:\/\/reqres.in\/img\/faces\/8-image.jpg\"},{\"id\":9,\"email\":\"tobias.funke@reqres.in\",\"first_name\":\"Tobias\",\"last_name\":\"Funke\",\"avatar\":\"https:\/\/reqres.in\/img\/faces\/9-image.jpg\"},{\"id\":10,\"email\":\"byron.fields@reqres.in\",\"first_name\":\"Byron\",\"last_name\":\"Fields\",\"avatar\":\"https:\/\/reqres.in\/img\/faces\/10-image.jpg\"},{\"id\":11,\"email\":\"george.edwards@reqres.in\",\"first_name\":\"George\",\"last_name\":\"Edwards\",\"avatar\":\"https:\/\/reqres.in\/img\/faces\/11-image.jpg\"},{\"id\":12,\"email\":\"rachel.howell@reqres.in\",\"first_name\":\"Rachel\",\"last_name\":\"Howell\",\"avatar\":\"https:\/\/reqres.in\/img\/faces\/12-image.jpg\"}],\"support\":{\"url\":\"https:\/\/reqres.in\/#support-heading\",\"text\":\"To keep ReqRes free, contributions towards server costs are appreciated!\"}}\n"}],"executorName":"main","line":11,"name":"Validation_of_list_of_users_in_reqres","description":"","durationMillis":782.1596,"startTime":1659667823078,"failed":false,"refId":"[1:11]","endTime":1659667823861,"exampleIndex":-1}],"name":"BC_for_users","passedCount":1}]},{"result":{"nanos":3154000,"millis":3.154,"status":"passed"},"step":{"line":15,"prefix":"*","index":3,"text":"print jsonResponse.response"},"stepLog":"10:50:23.865 [print] {\n  \"page\": 2,\n  \"per_page\": 6,\n  \"total\": 12,\n  \"total_pages\": 2,\n  \"data\": [\n    {\n      \"id\": 7,\n      \"email\": \"michael.lawson@reqres.in\",\n      \"first_name\": \"Michael\",\n      \"last_name\": \"Lawson\",\n      \"avatar\": \"https:\/\/reqres.in\/img\/faces\/7-image.jpg\"\n    },\n    {\n      \"id\": 8,\n      \"email\": \"lindsay.ferguson@reqres.in\",\n      \"first_name\": \"Lindsay\",\n      \"last_name\": \"Ferguson\",\n      \"avatar\": \"https:\/\/reqres.in\/img\/faces\/8-image.jpg\"\n    },\n    {\n      \"id\": 9,\n      \"email\": \"tobias.funke@reqres.in\",\n      \"first_name\": \"Tobias\",\n      \"last_name\": \"Funke\",\n      \"avatar\": \"https:\/\/reqres.in\/img\/faces\/9-image.jpg\"\n    },\n    {\n      \"id\": 10,\n      \"email\": \"byron.fields@reqres.in\",\n      \"first_name\": \"Byron\",\n      \"last_name\": \"Fields\",\n      \"avatar\": \"https:\/\/reqres.in\/img\/faces\/10-image.jpg\"\n    },\n    {\n      \"id\": 11,\n      \"email\": \"george.edwards@reqres.in\",\n      \"first_name\": \"George\",\n      \"last_name\": \"Edwards\",\n      \"avatar\": \"https:\/\/reqres.in\/img\/faces\/11-image.jpg\"\n    },\n    {\n      \"id\": 12,\n      \"email\": \"rachel.howell@reqres.in\",\n      \"first_name\": \"Rachel\",\n      \"last_name\": \"Howell\",\n      \"avatar\": \"https:\/\/reqres.in\/img\/faces\/12-image.jpg\"\n    }\n  ],\n  \"support\": {\n    \"url\": \"https:\/\/reqres.in\/#support-heading\",\n    \"text\": \"To keep ReqRes free, contributions towards server costs are appreciated!\"\n  }\n}\n \n"},{"result":{"nanos":1602900,"millis":1.6029,"status":"passed"},"step":{"line":16,"prefix":"*","index":4,"text":"print jsonResponse.responseStatus"},"stepLog":"10:50:23.867 [print] 200 \n"},{"result":{"nanos":5690900,"millis":5.6909,"status":"passed"},"step":{"line":17,"prefix":"*","index":5,"text":"print jsonResponse.responseTime"},"stepLog":"10:50:23.872 [print] null \n"},{"result":{"nanos":1474900,"millis":1.4749,"status":"passed"},"step":{"line":18,"prefix":"*","index":6,"text":"print jsonResponse.responseType"},"stepLog":"10:50:23.874 [print] null \n"},{"result":{"nanos":1436400,"millis":1.4364,"status":"passed"},"step":{"line":19,"prefix":"*","index":7,"text":"print jsonResponse.responseBytes"},"stepLog":"10:50:23.876 [print] null \n"},{"result":{"nanos":1811800,"millis":1.8118,"status":"passed"},"step":{"line":20,"prefix":"*","index":8,"text":"print jsonResponse.responseHeaders"},"stepLog":"10:50:23.877 [print] {\n  \"Date\": [\n    \"Fri, 05 Aug 2022 02:50:23 GMT\"\n  ],\n  \"Content-Type\": [\n    \"application\/json; charset=utf-8\"\n  ],\n  \"Transfer-Encoding\": [\n    \"chunked\"\n  ],\n  \"Connection\": [\n    \"keep-alive\"\n  ],\n  \"X-Powered-By\": [\n    \"Express\"\n  ],\n  \"Access-Control-Allow-Origin\": [\n    \"*\"\n  ],\n  \"Etag\": [\n    \"W\/\\\"406-ut0vzoCuidvyMf8arZpMpJ6ZRDw\\\"\"\n  ],\n  \"Via\": [\n    \"1.1 vegur\"\n  ],\n  \"Cache-Control\": [\n    \"max-age=14400\"\n  ],\n  \"CF-Cache-Status\": [\n    \"HIT\"\n  ],\n  \"Age\": [\n    \"5664\"\n  ],\n  \"Expect-CT\": [\n    \"max-age=604800, report-uri=\\\"https:\/\/report-uri.cloudflare.com\/cdn-cgi\/beacon\/expect-ct\\\"\"\n  ],\n  \"Report-To\": [\n    \"{\\\"endpoints\\\":[{\\\"url\\\":\\\"https:\\\\\/\\\\\/a.nel.cloudflare.com\\\\\/report\\\\\/v3?s=q3eXDIWZ0bLCmN1%2B1Uv7W2iXZQsmu2819mcl6fieJkSosWeZZtVEHWAG8xeG1rMK1UQ8bN37NonvVomHj1sx16mBT1hPlK0r14tbZuTYENl0wQlQ5PJW5PJ6mQ%3D%3D\\\"}],\\\"group\\\":\\\"cf-nel\\\",\\\"max_age\\\":604800}\"\n  ],\n  \"NEL\": [\n    \"{\\\"success_fraction\\\":0,\\\"report_to\\\":\\\"cf-nel\\\",\\\"max_age\\\":604800}\"\n  ],\n  \"Vary\": [\n    \"Accept-Encoding\"\n  ],\n  \"Server\": [\n    \"cloudflare\"\n  ],\n  \"CF-RAY\": [\n    \"735c39996f1faf54-NRT\"\n  ]\n}\n \n"},{"result":{"nanos":1383100,"millis":1.3831,"status":"passed"},"step":{"line":21,"prefix":"*","index":9,"text":"print jsonResponse.responseCookies"},"stepLog":"10:50:23.879 [print] null \n"},{"result":{"nanos":1741300,"millis":1.7413,"status":"passed"},"step":{"line":22,"prefix":"*","index":10,"text":"assert jsonResponse.responseStatus == 200"}},{"result":{"nanos":9609100,"millis":9.6091,"status":"passed"},"step":{"comments":["#      Validation"],"line":26,"prefix":"*","index":11,"text":"match jsonResponse.response contains {\"data\" : \"#array\", \"page\" : 2}"}},{"result":{"nanos":514300,"millis":0.5143,"status":"passed"},"step":{"line":27,"prefix":"*","index":12,"text":"match jsonResponse.response contains {\"data\" : \"#present\", \"page\" : \"#number\"}"}},{"result":{"nanos":1439400,"millis":1.4394,"status":"passed"},"step":{"line":28,"prefix":"*","index":13,"text":"match jsonResponse.response.page == 2"}},{"result":{"nanos":856400,"millis":0.8564,"status":"passed"},"step":{"line":29,"prefix":"*","index":14,"text":"match jsonResponse.response.per_page == 6"}},{"result":{"nanos":809700,"millis":0.8097,"status":"passed"},"step":{"line":31,"prefix":"*","index":15,"text":"match jsonResponse.response.data == '#array'"}},{"result":{"nanos":1677100,"millis":1.6771,"status":"passed"},"step":{"line":32,"prefix":"*","index":16,"text":"match jsonResponse.response.data[0].id == 7"}},{"result":{"nanos":1209500,"millis":1.2095,"status":"passed"},"step":{"line":33,"prefix":"*","index":17,"text":"match jsonResponse.response.data == '#notnull'"}},{"result":{"nanos":642400,"millis":0.6424,"status":"passed"},"step":{"endLine":45,"line":34,"prefix":"*","docString":"[\n  {\n    \"id\": 7,\n    \"email\": \"michael.lawson@reqres.in\",\n    \"first_name\": \"Michael\",\n    \"last_name\": \"Lawson\",\n    \"avatar\": \"https:\/\/reqres.in\/img\/faces\/7-image.jpg\"\n  }\n]","index":18,"text":"match jsonResponse.response.data contains"}},{"result":{"nanos":2581500,"millis":2.5815,"status":"passed"},"step":{"line":47,"prefix":"*","index":19,"text":"print jsonResponse.response.data"},"stepLog":"10:50:23.901 [print] [\n  {\n    \"id\": 7,\n    \"email\": \"michael.lawson@reqres.in\",\n    \"first_name\": \"Michael\",\n    \"last_name\": \"Lawson\",\n    \"avatar\": \"https:\/\/reqres.in\/img\/faces\/7-image.jpg\"\n  },\n  {\n    \"id\": 8,\n    \"email\": \"lindsay.ferguson@reqres.in\",\n    \"first_name\": \"Lindsay\",\n    \"last_name\": \"Ferguson\",\n    \"avatar\": \"https:\/\/reqres.in\/img\/faces\/8-image.jpg\"\n  },\n  {\n    \"id\": 9,\n    \"email\": \"tobias.funke@reqres.in\",\n    \"first_name\": \"Tobias\",\n    \"last_name\": \"Funke\",\n    \"avatar\": \"https:\/\/reqres.in\/img\/faces\/9-image.jpg\"\n  },\n  {\n    \"id\": 10,\n    \"email\": \"byron.fields@reqres.in\",\n    \"first_name\": \"Byron\",\n    \"last_name\": \"Fields\",\n    \"avatar\": \"https:\/\/reqres.in\/img\/faces\/10-image.jpg\"\n  },\n  {\n    \"id\": 11,\n    \"email\": \"george.edwards@reqres.in\",\n    \"first_name\": \"George\",\n    \"last_name\": \"Edwards\",\n    \"avatar\": \"https:\/\/reqres.in\/img\/faces\/11-image.jpg\"\n  },\n  {\n    \"id\": 12,\n    \"email\": \"rachel.howell@reqres.in\",\n    \"first_name\": \"Rachel\",\n    \"last_name\": \"Howell\",\n    \"avatar\": \"https:\/\/reqres.in\/img\/faces\/12-image.jpg\"\n  }\n]\n \n"},{"result":{"nanos":3045500,"millis":3.0455,"status":"passed"},"step":{"line":48,"prefix":"*","index":20,"text":"match jsonResponse.response.data == '#[6]'"}},{"result":{"nanos":1101300,"millis":1.1013,"status":"passed"},"step":{"line":49,"prefix":"*","index":21,"text":"assert jsonResponse.response.data.length == 6"}},{"result":{"nanos":939300,"millis":0.9393,"status":"passed"},"step":{"line":50,"prefix":"*","index":22,"text":"match jsonResponse.response.data[0].email == '#string'"}},{"result":{"nanos":302600,"millis":0.3026,"status":"passed"},"step":{"line":52,"prefix":"*","index":23,"text":"def parameter1 = { page:2 }"}},{"result":{"nanos":1439100,"millis":1.4391,"status":"passed"},"step":{"line":53,"prefix":"*","index":24,"text":"eval parameter1.column = 'column value'"}},{"result":{"nanos":1327700,"millis":1.3277,"status":"passed"},"step":{"line":54,"prefix":"*","index":25,"text":"print parameter1"},"stepLog":"10:50:23.910 [print] {\n  \"page\": 2,\n  \"column\": \"column value\"\n}\n \n"}],"executorName":"main","line":9,"name":"Validation_of_list_of_users_in_reqres","description":"","durationMillis":910.2503,"startTime":1659667822751,"failed":false,"refId":"[1:9]","endTime":1659667823910,"exampleIndex":-1},{"sectionIndex":1,"stepResults":[{"result":{"nanos":433800,"millis":0.4338,"status":"passed"},"step":{"background":true,"line":7,"prefix":"*","index":0,"text":"def ENVIRONMENT = env"},"stepLog":"10:50:23.918 karate.env system property was: null \n"},{"result":{"nanos":1145100,"millis":1.1451,"status":"passed"},"step":{"line":58,"prefix":"*","index":0,"text":"def foo = 10"}},{"result":{"nanos":8520400,"millis":8.5204,"status":"passed"},"step":{"line":59,"prefix":"*","index":1,"text":"def json = {\"bar\" : #(foo + '')}"}},{"result":{"nanos":401600,"millis":0.4016,"status":"passed"},"step":{"line":60,"prefix":"*","index":2,"text":"match json == {\"bar\" : '10'}"}}],"executorName":"main","line":57,"name":"Convert Number to String: 1) add(+) variable by ''","description":"","durationMillis":10.5009,"startTime":1659667823917,"failed":false,"refId":"[2:57]","endTime":1659667823930,"exampleIndex":-1},{"sectionIndex":2,"stepResults":[{"result":{"nanos":524000,"millis":0.524,"status":"passed"},"step":{"background":true,"line":7,"prefix":"*","index":0,"text":"def ENVIRONMENT = env"},"stepLog":"10:50:23.937 karate.env system property was: null \n"},{"result":{"nanos":882800,"millis":0.8828,"status":"passed"},"step":{"line":63,"prefix":"*","index":0,"text":"def foo = '999'"}},{"result":{"nanos":14596000,"millis":14.596,"status":"passed"},"step":{"line":64,"prefix":"*","index":1,"text":"def json = {\"bar\" : #(foo * 1)}"}},{"result":{"nanos":621700,"millis":0.6217,"status":"passed"},"step":{"line":65,"prefix":"*","index":2,"text":"match json == {\"bar\" : 999}"}},{"result":{"nanos":23144100,"millis":23.1441,"status":"passed"},"step":{"line":67,"prefix":"*","index":3,"text":"def json2 = {\"bar\" : #(~~parseInt(foo))}"}},{"result":{"nanos":316300,"millis":0.3163,"status":"passed"},"step":{"line":68,"prefix":"*","index":4,"text":"match json2 == {\"bar\" : 999}"}}],"executorName":"main","line":62,"name":"Convert String to Number: 1) multiply variable by '1' ; 2) use js ~~parseInt(var)","description":"","durationMillis":40.0849,"startTime":1659667823936,"failed":false,"refId":"[3:62]","endTime":1659667823979,"exampleIndex":-1},{"sectionIndex":3,"stepResults":[{"result":{"nanos":329900,"millis":0.3299,"status":"passed"},"step":{"background":true,"line":7,"prefix":"*","index":0,"text":"def ENVIRONMENT = env"},"stepLog":"10:50:23.990 karate.env system property was: null \n"},{"result":{"nanos":4259100,"millis":4.2591,"status":"passed"},"step":{"endLine":76,"line":72,"prefix":"*","index":0,"text":"table cats","table":[{"line":73,"row":["name","age"]},{"line":74,"row":["'Bob'","2"]},{"line":75,"row":["'Wild'","3"]},{"line":76,"row":["'Nyan'","8"]}]}},{"result":{"nanos":564300,"millis":0.5643,"status":"passed"},"step":{"line":78,"prefix":"*","index":1,"text":"match cats == [{name: 'Bob', age: 2}, {name: 'Wild', age: 3}, {name: 'Nyan', age: 8}]"}}],"executorName":"main","line":70,"name":"TABLE- Simple way to create JSON","description":"","durationMillis":5.1533,"startTime":1659667823987,"failed":false,"refId":"[4:70]","endTime":1659667823998,"exampleIndex":-1},{"sectionIndex":4,"stepResults":[{"result":{"nanos":525800,"millis":0.5258,"status":"passed"},"step":{"background":true,"line":7,"prefix":"*","index":0,"text":"def ENVIRONMENT = env"},"stepLog":"10:50:24.004 karate.env system property was: null \n"},{"result":{"nanos":2174300,"millis":2.1743,"status":"passed"},"step":{"line":82,"prefix":"*","index":0,"text":"def one = 'hello'"}},{"result":{"nanos":383900,"millis":0.3839,"status":"passed"},"step":{"line":83,"prefix":"*","index":1,"text":"def two = { baz: 'world'}"}},{"result":{"nanos":1724500,"millis":1.7245,"status":"passed"},"step":{"endLine":87,"line":84,"prefix":"*","index":2,"text":"table tabs","table":[{"line":85,"row":["foo","bar"]},{"line":86,"row":["one","{baz:1}"]},{"line":87,"row":["two.baz","['baz', 'ban']"]}]}},{"result":{"nanos":2231700,"millis":2.2317,"status":"passed"},"step":{"line":90,"prefix":"*","index":3,"text":"print tabs"},"stepLog":"10:50:24.014 [print] [\n  {\n    \"foo\": \"hello\",\n    \"bar\": {\n      \"baz\": 1\n    }\n  },\n  {\n    \"foo\": \"world\",\n    \"bar\": [\n      \"baz\",\n      \"ban\"\n    ]\n  }\n]\n \n"}],"executorName":"main","line":80,"name":"TABLE- Simple way to create JSON Arrays","description":"","durationMillis":7.0402,"startTime":1659667824003,"failed":false,"refId":"[5:80]","endTime":1659667824014,"exampleIndex":-1}],"callDepth":0,"name":"Validation_of_list_of_users_in_reqres","description":"Description: List of users in Reqres.in sample website (used env: 'default')","resultDate":"2022-08-05 10:50:24 am","durationMillis":973.0296,"passedCount":5}