{"failedCount":0,"prefixedPath":"src\/test\/java\/SamplePackage1\/scenarios\/activity_1\/Validation_of_list_of_users_in_reqres.feature","packageQualifiedName":"src.test.java.SamplePackage1.scenarios.activity_1.Validation_of_list_of_users_in_reqres","loopIndex":-1,"relativePath":"src\/test\/java\/SamplePackage1\/scenarios\/activity_1\/Validation_of_list_of_users_in_reqres.feature","scenarioResults":[{"sectionIndex":0,"stepResults":[{"result":{"nanos":1515000,"millis":1.515,"status":"passed"},"step":{"background":true,"line":7,"prefix":"*","index":0,"text":"def ENVIRONMENT = env"},"stepLog":"10:52:04.798 karate.env system property was: null \n"},{"result":{"nanos":3104700,"millis":3.1047,"status":"passed"},"step":{"line":11,"prefix":"*","index":0,"text":"print ENVIRONMENT"},"stepLog":"10:52:04.848 [print] default \n"},{"result":{"nanos":60428500,"millis":60.4285,"status":"passed"},"step":{"line":13,"prefix":"*","index":1,"text":"def params = {page_number: 2}"}},{"result":{"nanos":867602500,"millis":867.6025,"status":"passed"},"step":{"line":14,"prefix":"*","index":2,"text":"def jsonResponse = call read('classpath:SamplePackage1\/reusableBC\/BC_for_users.feature') params"},"callResults":[{"prefixedPath":"classpath:SamplePackage1\/reusableBC\/BC_for_users.feature","loopIndex":-1,"callDepth":1,"description":"Description: Reusable BC for users in reqres.in\r\n  Parameters:\r\n  page_number (required)","resultDate":"2022-08-05 10:52:05 am","durationMillis":833.2084,"callArg":{"page_number":2},"failedCount":0,"packageQualifiedName":"SamplePackage1.reusableBC.BC_for_users","relativePath":"SamplePackage1\/reusableBC\/BC_for_users.feature","scenarioResults":[{"sectionIndex":0,"stepResults":[{"result":{"nanos":394200,"millis":0.3942,"status":"passed"},"step":{"background":true,"line":9,"prefix":"*","index":0,"text":"url p_base_url"}},{"result":{"nanos":1305000,"millis":1.305,"status":"passed"},"step":{"line":13,"prefix":"Given","index":0,"text":"path '\/api\/users'"}},{"result":{"nanos":2003200,"millis":2.0032,"status":"passed"},"step":{"line":14,"prefix":"And","index":1,"text":"param page = page_number"}},{"result":{"nanos":829506000,"millis":829.506,"status":"passed"},"step":{"line":15,"prefix":"When","index":2,"text":"method get"},"stepLog":"10:52:05.250 request:\n1 > GET https:\/\/reqres.in\/api\/users?page=2\n1 > Host: reqres.in\n1 > Connection: Keep-Alive\n1 > User-Agent: Apache-HttpClient\/4.5.13 (Java\/16.0.2)\n1 > Accept-Encoding: gzip,deflate\n\n\n10:52:05.772 response time in milliseconds: 519\n1 < 200\n1 < Date: Fri, 05 Aug 2022 02:52:05 GMT\n1 < Content-Type: application\/json; charset=utf-8\n1 < Transfer-Encoding: chunked\n1 < Connection: keep-alive\n1 < X-Powered-By: Express\n1 < Access-Control-Allow-Origin: *\n1 < Etag: W\/\"406-ut0vzoCuidvyMf8arZpMpJ6ZRDw\"\n1 < Via: 1.1 vegur\n1 < Cache-Control: max-age=14400\n1 < CF-Cache-Status: HIT\n1 < Age: 6006\n1 < Expect-CT: max-age=604800, report-uri=\"https:\/\/report-uri.cloudflare.com\/cdn-cgi\/beacon\/expect-ct\"\n1 < Report-To: {\"endpoints\":[{\"url\":\"https:\\\/\\\/a.nel.cloudflare.com\\\/report\\\/v3?s=C8ciBG4EFlzLYPV5nB8%2BPZ6mutSJXMiBbJUy3eBCcgOn0v%2BNEYlYqo8feBlihPtFYUwOm6ujp6%2FS6DX9xlcJVUNeSPLZiiPuLjnY9EFzzWdxFpWVdRSaHETaaQ%3D%3D\"}],\"group\":\"cf-nel\",\"max_age\":604800}\n1 < NEL: {\"success_fraction\":0,\"report_to\":\"cf-nel\",\"max_age\":604800}\n1 < Vary: Accept-Encoding\n1 < Server: cloudflare\n1 < CF-RAY: 735c3c166d74afe5-NRT\n{\"page\":2,\"per_page\":6,\"total\":12,\"total_pages\":2,\"data\":[{\"id\":7,\"email\":\"michael.lawson@reqres.in\",\"first_name\":\"Michael\",\"last_name\":\"Lawson\",\"avatar\":\"https:\/\/reqres.in\/img\/faces\/7-image.jpg\"},{\"id\":8,\"email\":\"lindsay.ferguson@reqres.in\",\"first_name\":\"Lindsay\",\"last_name\":\"Ferguson\",\"avatar\":\"https:\/\/reqres.in\/img\/faces\/8-image.jpg\"},{\"id\":9,\"email\":\"tobias.funke@reqres.in\",\"first_name\":\"Tobias\",\"last_name\":\"Funke\",\"avatar\":\"https:\/\/reqres.in\/img\/faces\/9-image.jpg\"},{\"id\":10,\"email\":\"byron.fields@reqres.in\",\"first_name\":\"Byron\",\"last_name\":\"Fields\",\"avatar\":\"https:\/\/reqres.in\/img\/faces\/10-image.jpg\"},{\"id\":11,\"email\":\"george.edwards@reqres.in\",\"first_name\":\"George\",\"last_name\":\"Edwards\",\"avatar\":\"https:\/\/reqres.in\/img\/faces\/11-image.jpg\"},{\"id\":12,\"email\":\"rachel.howell@reqres.in\",\"first_name\":\"Rachel\",\"last_name\":\"Howell\",\"avatar\":\"https:\/\/reqres.in\/img\/faces\/12-image.jpg\"}],\"support\":{\"url\":\"https:\/\/reqres.in\/#support-heading\",\"text\":\"To keep ReqRes free, contributions towards server costs are appreciated!\"}}\n"}],"executorName":"main","line":11,"name":"Validation_of_list_of_users_in_reqres","description":"","durationMillis":833.2084,"startTime":1659667924942,"failed":false,"refId":"[1:11]","endTime":1659667925776,"exampleIndex":-1}],"name":"BC_for_users","passedCount":1}]},{"result":{"nanos":2437200,"millis":2.4372,"status":"passed"},"step":{"line":15,"prefix":"*","index":3,"text":"print jsonResponse.response"},"stepLog":"10:52:05.780 [print] {\n  \"page\": 2,\n  \"per_page\": 6,\n  \"total\": 12,\n  \"total_pages\": 2,\n  \"data\": [\n    {\n      \"id\": 7,\n      \"email\": \"michael.lawson@reqres.in\",\n      \"first_name\": \"Michael\",\n      \"last_name\": \"Lawson\",\n      \"avatar\": \"https:\/\/reqres.in\/img\/faces\/7-image.jpg\"\n    },\n    {\n      \"id\": 8,\n      \"email\": \"lindsay.ferguson@reqres.in\",\n      \"first_name\": \"Lindsay\",\n      \"last_name\": \"Ferguson\",\n      \"avatar\": \"https:\/\/reqres.in\/img\/faces\/8-image.jpg\"\n    },\n    {\n      \"id\": 9,\n      \"email\": \"tobias.funke@reqres.in\",\n      \"first_name\": \"Tobias\",\n      \"last_name\": \"Funke\",\n      \"avatar\": \"https:\/\/reqres.in\/img\/faces\/9-image.jpg\"\n    },\n    {\n      \"id\": 10,\n      \"email\": \"byron.fields@reqres.in\",\n      \"first_name\": \"Byron\",\n      \"last_name\": \"Fields\",\n      \"avatar\": \"https:\/\/reqres.in\/img\/faces\/10-image.jpg\"\n    },\n    {\n      \"id\": 11,\n      \"email\": \"george.edwards@reqres.in\",\n      \"first_name\": \"George\",\n      \"last_name\": \"Edwards\",\n      \"avatar\": \"https:\/\/reqres.in\/img\/faces\/11-image.jpg\"\n    },\n    {\n      \"id\": 12,\n      \"email\": \"rachel.howell@reqres.in\",\n      \"first_name\": \"Rachel\",\n      \"last_name\": \"Howell\",\n      \"avatar\": \"https:\/\/reqres.in\/img\/faces\/12-image.jpg\"\n    }\n  ],\n  \"support\": {\n    \"url\": \"https:\/\/reqres.in\/#support-heading\",\n    \"text\": \"To keep ReqRes free, contributions towards server costs are appreciated!\"\n  }\n}\n \n"},{"result":{"nanos":1233300,"millis":1.2333,"status":"passed"},"step":{"line":16,"prefix":"*","index":4,"text":"print jsonResponse.responseStatus"},"stepLog":"10:52:05.781 [print] 200 \n"},{"result":{"nanos":4496700,"millis":4.4967,"status":"passed"},"step":{"line":17,"prefix":"*","index":5,"text":"print jsonResponse.responseTime"},"stepLog":"10:52:05.786 [print] null \n"},{"result":{"nanos":1259600,"millis":1.2596,"status":"passed"},"step":{"line":18,"prefix":"*","index":6,"text":"print jsonResponse.responseType"},"stepLog":"10:52:05.787 [print] null \n"},{"result":{"nanos":1231700,"millis":1.2317,"status":"passed"},"step":{"line":19,"prefix":"*","index":7,"text":"print jsonResponse.responseBytes"},"stepLog":"10:52:05.788 [print] null \n"},{"result":{"nanos":1637000,"millis":1.637,"status":"passed"},"step":{"line":20,"prefix":"*","index":8,"text":"print jsonResponse.responseHeaders"},"stepLog":"10:52:05.790 [print] {\n  \"Date\": [\n    \"Fri, 05 Aug 2022 02:52:05 GMT\"\n  ],\n  \"Content-Type\": [\n    \"application\/json; charset=utf-8\"\n  ],\n  \"Transfer-Encoding\": [\n    \"chunked\"\n  ],\n  \"Connection\": [\n    \"keep-alive\"\n  ],\n  \"X-Powered-By\": [\n    \"Express\"\n  ],\n  \"Access-Control-Allow-Origin\": [\n    \"*\"\n  ],\n  \"Etag\": [\n    \"W\/\\\"406-ut0vzoCuidvyMf8arZpMpJ6ZRDw\\\"\"\n  ],\n  \"Via\": [\n    \"1.1 vegur\"\n  ],\n  \"Cache-Control\": [\n    \"max-age=14400\"\n  ],\n  \"CF-Cache-Status\": [\n    \"HIT\"\n  ],\n  \"Age\": [\n    \"6006\"\n  ],\n  \"Expect-CT\": [\n    \"max-age=604800, report-uri=\\\"https:\/\/report-uri.cloudflare.com\/cdn-cgi\/beacon\/expect-ct\\\"\"\n  ],\n  \"Report-To\": [\n    \"{\\\"endpoints\\\":[{\\\"url\\\":\\\"https:\\\\\/\\\\\/a.nel.cloudflare.com\\\\\/report\\\\\/v3?s=C8ciBG4EFlzLYPV5nB8%2BPZ6mutSJXMiBbJUy3eBCcgOn0v%2BNEYlYqo8feBlihPtFYUwOm6ujp6%2FS6DX9xlcJVUNeSPLZiiPuLjnY9EFzzWdxFpWVdRSaHETaaQ%3D%3D\\\"}],\\\"group\\\":\\\"cf-nel\\\",\\\"max_age\\\":604800}\"\n  ],\n  \"NEL\": [\n    \"{\\\"success_fraction\\\":0,\\\"report_to\\\":\\\"cf-nel\\\",\\\"max_age\\\":604800}\"\n  ],\n  \"Vary\": [\n    \"Accept-Encoding\"\n  ],\n  \"Server\": [\n    \"cloudflare\"\n  ],\n  \"CF-RAY\": [\n    \"735c3c166d74afe5-NRT\"\n  ]\n}\n \n"},{"result":{"nanos":1261400,"millis":1.2614,"status":"passed"},"step":{"line":21,"prefix":"*","index":9,"text":"print jsonResponse.responseCookies"},"stepLog":"10:52:05.791 [print] null \n"},{"result":{"nanos":1496800,"millis":1.4968,"status":"passed"},"step":{"line":22,"prefix":"*","index":10,"text":"assert jsonResponse.responseStatus == 200"}},{"result":{"nanos":8051200,"millis":8.0512,"status":"passed"},"step":{"comments":["#      Validation"],"line":26,"prefix":"*","index":11,"text":"match jsonResponse.response contains {\"data\" : \"#array\", \"page\" : 2}"}},{"result":{"nanos":514900,"millis":0.5149,"status":"passed"},"step":{"line":27,"prefix":"*","index":12,"text":"match jsonResponse.response contains {\"data\" : \"#present\", \"page\" : \"#number\"}"}},{"result":{"nanos":1281200,"millis":1.2812,"status":"passed"},"step":{"line":28,"prefix":"*","index":13,"text":"match jsonResponse.response.page == 2"}},{"result":{"nanos":757800,"millis":0.7578,"status":"passed"},"step":{"line":29,"prefix":"*","index":14,"text":"match jsonResponse.response.per_page == 6"}},{"result":{"nanos":635100,"millis":0.6351,"status":"passed"},"step":{"line":31,"prefix":"*","index":15,"text":"match jsonResponse.response.data == '#array'"}},{"result":{"nanos":1451000,"millis":1.451,"status":"passed"},"step":{"line":32,"prefix":"*","index":16,"text":"match jsonResponse.response.data[0].id == 7"}},{"result":{"nanos":757300,"millis":0.7573,"status":"passed"},"step":{"line":33,"prefix":"*","index":17,"text":"match jsonResponse.response.data == '#notnull'"}},{"result":{"nanos":479000,"millis":0.479,"status":"passed"},"step":{"endLine":45,"line":34,"prefix":"*","docString":"[\n  {\n    \"id\": 7,\n    \"email\": \"michael.lawson@reqres.in\",\n    \"first_name\": \"Michael\",\n    \"last_name\": \"Lawson\",\n    \"avatar\": \"https:\/\/reqres.in\/img\/faces\/7-image.jpg\"\n  }\n]","index":18,"text":"match jsonResponse.response.data contains"}},{"result":{"nanos":2952300,"millis":2.9523,"status":"passed"},"step":{"line":47,"prefix":"*","index":19,"text":"print jsonResponse.response.data"},"stepLog":"10:52:05.811 [print] [\n  {\n    \"id\": 7,\n    \"email\": \"michael.lawson@reqres.in\",\n    \"first_name\": \"Michael\",\n    \"last_name\": \"Lawson\",\n    \"avatar\": \"https:\/\/reqres.in\/img\/faces\/7-image.jpg\"\n  },\n  {\n    \"id\": 8,\n    \"email\": \"lindsay.ferguson@reqres.in\",\n    \"first_name\": \"Lindsay\",\n    \"last_name\": \"Ferguson\",\n    \"avatar\": \"https:\/\/reqres.in\/img\/faces\/8-image.jpg\"\n  },\n  {\n    \"id\": 9,\n    \"email\": \"tobias.funke@reqres.in\",\n    \"first_name\": \"Tobias\",\n    \"last_name\": \"Funke\",\n    \"avatar\": \"https:\/\/reqres.in\/img\/faces\/9-image.jpg\"\n  },\n  {\n    \"id\": 10,\n    \"email\": \"byron.fields@reqres.in\",\n    \"first_name\": \"Byron\",\n    \"last_name\": \"Fields\",\n    \"avatar\": \"https:\/\/reqres.in\/img\/faces\/10-image.jpg\"\n  },\n  {\n    \"id\": 11,\n    \"email\": \"george.edwards@reqres.in\",\n    \"first_name\": \"George\",\n    \"last_name\": \"Edwards\",\n    \"avatar\": \"https:\/\/reqres.in\/img\/faces\/11-image.jpg\"\n  },\n  {\n    \"id\": 12,\n    \"email\": \"rachel.howell@reqres.in\",\n    \"first_name\": \"Rachel\",\n    \"last_name\": \"Howell\",\n    \"avatar\": \"https:\/\/reqres.in\/img\/faces\/12-image.jpg\"\n  }\n]\n \n"},{"result":{"nanos":3178500,"millis":3.1785,"status":"passed"},"step":{"line":48,"prefix":"*","index":20,"text":"match jsonResponse.response.data == '#[6]'"}},{"result":{"nanos":851500,"millis":0.8515,"status":"passed"},"step":{"line":49,"prefix":"*","index":21,"text":"assert jsonResponse.response.data.length == 6"}},{"result":{"nanos":831800,"millis":0.8318,"status":"passed"},"step":{"line":50,"prefix":"*","index":22,"text":"match jsonResponse.response.data[0].email == '#string'"}},{"result":{"nanos":287700,"millis":0.2877,"status":"passed"},"step":{"line":52,"prefix":"*","index":23,"text":"def parameter1 = { page:2 }"}},{"result":{"nanos":1134400,"millis":1.1344,"status":"passed"},"step":{"line":53,"prefix":"*","index":24,"text":"eval parameter1.column = 'column value'"}},{"result":{"nanos":1663800,"millis":1.6638,"status":"passed"},"step":{"line":54,"prefix":"*","index":25,"text":"print parameter1"},"stepLog":"10:52:05.819 [print] {\n  \"page\": 2,\n  \"column\": \"column value\"\n}\n \n"}],"executorName":"main","line":9,"name":"Validation_of_list_of_users_in_reqres","description":"","durationMillis":972.5319,"startTime":1659667924562,"failed":false,"refId":"[1:9]","endTime":1659667925820,"exampleIndex":-1},{"sectionIndex":1,"stepResults":[{"result":{"nanos":472100,"millis":0.4721,"status":"passed"},"step":{"background":true,"line":7,"prefix":"*","index":0,"text":"def ENVIRONMENT = env"},"stepLog":"10:52:05.825 karate.env system property was: null \n"},{"result":{"nanos":903800,"millis":0.9038,"status":"passed"},"step":{"line":58,"prefix":"*","index":0,"text":"def foo = 10"}},{"result":{"nanos":5932800,"millis":5.9328,"status":"passed"},"step":{"line":59,"prefix":"*","index":1,"text":"def json = {\"bar\" : #(foo + '')}"}},{"result":{"nanos":378100,"millis":0.3781,"status":"passed"},"step":{"line":60,"prefix":"*","index":2,"text":"match json == {\"bar\" : '10'}"}}],"executorName":"main","line":57,"name":"Convert Number to String: 1) add(+) variable by ''","description":"","durationMillis":7.6868,"startTime":1659667925824,"failed":false,"refId":"[2:57]","endTime":1659667925835,"exampleIndex":-1},{"sectionIndex":2,"stepResults":[{"result":{"nanos":308400,"millis":0.3084,"status":"passed"},"step":{"background":true,"line":7,"prefix":"*","index":0,"text":"def ENVIRONMENT = env"},"stepLog":"10:52:05.840 karate.env system property was: null \n"},{"result":{"nanos":907500,"millis":0.9075,"status":"passed"},"step":{"line":63,"prefix":"*","index":0,"text":"def foo = '999'"}},{"result":{"nanos":13639100,"millis":13.6391,"status":"passed"},"step":{"line":64,"prefix":"*","index":1,"text":"def json = {\"bar\" : #(foo * 1)}"}},{"result":{"nanos":379900,"millis":0.3799,"status":"passed"},"step":{"line":65,"prefix":"*","index":2,"text":"match json == {\"bar\" : 999}"}},{"result":{"nanos":27551800,"millis":27.5518,"status":"passed"},"step":{"line":67,"prefix":"*","index":3,"text":"def json2 = {\"bar\" : #(~~parseInt(foo))}"}},{"result":{"nanos":308200,"millis":0.3082,"status":"passed"},"step":{"line":68,"prefix":"*","index":4,"text":"match json2 == {\"bar\" : 999}"}}],"executorName":"main","line":62,"name":"Convert String to Number: 1) multiply variable by '1' ; 2) use js ~~parseInt(var)","description":"","durationMillis":43.0949,"startTime":1659667925840,"failed":false,"refId":"[3:62]","endTime":1659667925885,"exampleIndex":-1},{"sectionIndex":3,"stepResults":[{"result":{"nanos":800600,"millis":0.8006,"status":"passed"},"step":{"background":true,"line":7,"prefix":"*","index":0,"text":"def ENVIRONMENT = env"},"stepLog":"10:52:05.891 karate.env system property was: null \n"},{"result":{"nanos":5477500,"millis":5.4775,"status":"passed"},"step":{"endLine":76,"line":72,"prefix":"*","index":0,"text":"table cats","table":[{"line":73,"row":["name","age"]},{"line":74,"row":["'Bob'","2"]},{"line":75,"row":["'Wild'","3"]},{"line":76,"row":["'Nyan'","8"]}]}},{"result":{"nanos":1509800,"millis":1.5098,"status":"passed"},"step":{"line":78,"prefix":"*","index":1,"text":"print cats"},"stepLog":"10:52:05.901 [print] [\n  {\n    \"name\": \"Bob\",\n    \"age\": 2\n  },\n  {\n    \"name\": \"Wild\",\n    \"age\": 3\n  },\n  {\n    \"name\": \"Nyan\",\n    \"age\": 8\n  }\n]\n \n"},{"result":{"nanos":558300,"millis":0.5583,"status":"passed"},"step":{"line":79,"prefix":"*","index":2,"text":"match cats == [{name: 'Bob', age: 2}, {name: 'Wild', age: 3}, {name: 'Nyan', age: 8}]"}}],"executorName":"main","line":70,"name":"TABLE- Simple way to create JSON","description":"","durationMillis":8.3462,"startTime":1659667925890,"failed":false,"refId":"[4:70]","endTime":1659667925902,"exampleIndex":-1},{"sectionIndex":4,"stepResults":[{"result":{"nanos":526900,"millis":0.5269,"status":"passed"},"step":{"background":true,"line":7,"prefix":"*","index":0,"text":"def ENVIRONMENT = env"},"stepLog":"10:52:05.907 karate.env system property was: null \n"},{"result":{"nanos":1191900,"millis":1.1919,"status":"passed"},"step":{"line":83,"prefix":"*","index":0,"text":"def one = 'hello'"}},{"result":{"nanos":337500,"millis":0.3375,"status":"passed"},"step":{"line":84,"prefix":"*","index":1,"text":"def two = { baz: 'world'}"}},{"result":{"nanos":1293200,"millis":1.2932,"status":"passed"},"step":{"endLine":88,"line":85,"prefix":"*","index":2,"text":"table tabs","table":[{"line":86,"row":["foo","bar"]},{"line":87,"row":["one","{baz:1}"]},{"line":88,"row":["two.baz","['baz', 'ban']"]}]}},{"result":{"nanos":1625300,"millis":1.6253,"status":"passed"},"step":{"line":91,"prefix":"*","index":3,"text":"print tabs"},"stepLog":"10:52:05.914 [print] [\n  {\n    \"foo\": \"hello\",\n    \"bar\": {\n      \"baz\": 1\n    }\n  },\n  {\n    \"foo\": \"world\",\n    \"bar\": [\n      \"baz\",\n      \"ban\"\n    ]\n  }\n]\n \n"},{"result":{"nanos":439000,"millis":0.439,"status":"passed"},"step":{"line":92,"prefix":"*","index":4,"text":"match tabs == [{ \"foo\": \"hello\", \"bar\": {\"baz\": 1} },{\"foo\": \"world\",\"bar\": [ \"baz\",\"ban\"]}]"}}],"executorName":"main","line":81,"name":"TABLE- Simple way to create JSON Arrays","description":"","durationMillis":5.4138,"startTime":1659667925906,"failed":false,"refId":"[5:81]","endTime":1659667925914,"exampleIndex":-1}],"callDepth":0,"name":"Validation_of_list_of_users_in_reqres","description":"Description: List of users in Reqres.in sample website (used env: 'default')","resultDate":"2022-08-05 10:52:05 am","durationMillis":1037.0736,"passedCount":5}