{"failedCount":0,"prefixedPath":"src\/test\/java\/SamplePackage1\/scenarios\/activity_2\/calling_reusable_BC_into_feature.feature","packageQualifiedName":"src.test.java.SamplePackage1.scenarios.activity_2.calling_reusable_BC_into_feature","loopIndex":-1,"relativePath":"src\/test\/java\/SamplePackage1\/scenarios\/activity_2\/calling_reusable_BC_into_feature.feature","scenarioResults":[{"sectionIndex":0,"stepResults":[{"result":{"nanos":1521500,"millis":1.5215,"status":"passed"},"step":{"background":true,"line":7,"prefix":"*","index":0,"text":"def ENVIRONMENT = env"},"stepLog":"05:59:50.075 karate.env system property was: null \n"},{"result":{"nanos":1085410800,"millis":1085.4108,"status":"passed"},"step":{"line":11,"prefix":"*","index":0,"text":"def ListUsers = call read('classpath:SamplePackage1\/reusableBC\/api_list_users.feature')"},"callResults":[{"failedCount":0,"prefixedPath":"classpath:SamplePackage1\/reusableBC\/api_list_users.feature","packageQualifiedName":"SamplePackage1.reusableBC.api_list_users","loopIndex":-1,"relativePath":"SamplePackage1\/reusableBC\/api_list_users.feature","scenarioResults":[{"sectionIndex":0,"stepResults":[{"result":{"nanos":1124500,"millis":1.1245,"status":"passed"},"step":{"background":true,"line":14,"prefix":"*","index":0,"text":"url p_base_url"}},{"result":{"nanos":684200,"millis":0.6842,"status":"passed"},"step":{"line":18,"prefix":"Given","index":0,"text":"path '\/api\/users'"}},{"result":{"nanos":1914100,"millis":1.9141,"status":"passed"},"step":{"line":19,"prefix":"And","index":1,"text":"param page = 2"}},{"result":{"nanos":1055716200,"millis":1055.7162,"status":"passed"},"step":{"line":20,"prefix":"When","index":2,"text":"method get"},"stepLog":"05:59:50.553 request:\n1 > GET https:\/\/reqres.in\/api\/users?page=2\n1 > Host: reqres.in\n1 > Connection: Keep-Alive\n1 > User-Agent: Apache-HttpClient\/4.5.13 (Java\/16.0.2)\n1 > Accept-Encoding: gzip,deflate\n\n\n05:59:51.171 response time in milliseconds: 613\n1 < 200\n1 < Date: Tue, 09 Aug 2022 21:59:47 GMT\n1 < Content-Type: application\/json; charset=utf-8\n1 < Transfer-Encoding: chunked\n1 < Connection: keep-alive\n1 < X-Powered-By: Express\n1 < Access-Control-Allow-Origin: *\n1 < Etag: W\/\"406-ut0vzoCuidvyMf8arZpMpJ6ZRDw\"\n1 < Via: 1.1 vegur\n1 < Cache-Control: max-age=14400\n1 < CF-Cache-Status: HIT\n1 < Age: 6390\n1 < Expect-CT: max-age=604800, report-uri=\"https:\/\/report-uri.cloudflare.com\/cdn-cgi\/beacon\/expect-ct\"\n1 < Report-To: {\"endpoints\":[{\"url\":\"https:\\\/\\\/a.nel.cloudflare.com\\\/report\\\/v3?s=PHWid6RNeBexd1VWvYjj99y5I%2BrEyhMASJJ%2FofJmUR0yYWh2LOOxFEskhkgBDoCCWcNj2t9eslDWmc2n9FhJqm1bcldN%2BYL2S3QXDCQ3%2FQe%2F%2FfPhzY1ieiz3sQ%3D%3D\"}],\"group\":\"cf-nel\",\"max_age\":604800}\n1 < NEL: {\"success_fraction\":0,\"report_to\":\"cf-nel\",\"max_age\":604800}\n1 < Vary: Accept-Encoding\n1 < Server: cloudflare\n1 < CF-RAY: 7383c2cc6ef56e3f-HKG\n{\"page\":2,\"per_page\":6,\"total\":12,\"total_pages\":2,\"data\":[{\"id\":7,\"email\":\"michael.lawson@reqres.in\",\"first_name\":\"Michael\",\"last_name\":\"Lawson\",\"avatar\":\"https:\/\/reqres.in\/img\/faces\/7-image.jpg\"},{\"id\":8,\"email\":\"lindsay.ferguson@reqres.in\",\"first_name\":\"Lindsay\",\"last_name\":\"Ferguson\",\"avatar\":\"https:\/\/reqres.in\/img\/faces\/8-image.jpg\"},{\"id\":9,\"email\":\"tobias.funke@reqres.in\",\"first_name\":\"Tobias\",\"last_name\":\"Funke\",\"avatar\":\"https:\/\/reqres.in\/img\/faces\/9-image.jpg\"},{\"id\":10,\"email\":\"byron.fields@reqres.in\",\"first_name\":\"Byron\",\"last_name\":\"Fields\",\"avatar\":\"https:\/\/reqres.in\/img\/faces\/10-image.jpg\"},{\"id\":11,\"email\":\"george.edwards@reqres.in\",\"first_name\":\"George\",\"last_name\":\"Edwards\",\"avatar\":\"https:\/\/reqres.in\/img\/faces\/11-image.jpg\"},{\"id\":12,\"email\":\"rachel.howell@reqres.in\",\"first_name\":\"Rachel\",\"last_name\":\"Howell\",\"avatar\":\"https:\/\/reqres.in\/img\/faces\/12-image.jpg\"}],\"support\":{\"url\":\"https:\/\/reqres.in\/#support-heading\",\"text\":\"To keep ReqRes free, contributions towards server costs are appreciated!\"}}\n"},{"result":{"nanos":326200,"millis":0.3262,"status":"passed"},"step":{"line":22,"prefix":"*","index":3,"text":"def timeRespond = responseTime"}},{"result":{"nanos":1500600,"millis":1.5006,"status":"passed"},"step":{"line":23,"prefix":"*","index":4,"text":"print timeRespond"},"stepLog":"05:59:51.210 [print] 613 \n"}],"executorName":"main","line":16,"name":"api_list_users","description":"","durationMillis":1061.2658,"startTime":1660082390148,"failed":false,"refId":"[1:16]","endTime":1660082391210,"exampleIndex":-1}],"callDepth":1,"name":"api_list_users","description":"Description:\r\n  Reusable BC to get list of users in reqres.in\r\n\r\n  Used in:\r\n  activity_2.calling_reusable_BC_into_feature\r\n\r\n  Parameters:\r\n  none","resultDate":"2022-08-10 05:59:51 am","durationMillis":1061.2658,"passedCount":1}]},{"result":{"nanos":7126100,"millis":7.1261,"status":"passed"},"step":{"line":12,"prefix":"*","index":1,"text":"print ListUsers.response"},"stepLog":"05:59:51.219 [print] {\n  \"page\": 2,\n  \"per_page\": 6,\n  \"total\": 12,\n  \"total_pages\": 2,\n  \"data\": [\n    {\n      \"id\": 7,\n      \"email\": \"michael.lawson@reqres.in\",\n      \"first_name\": \"Michael\",\n      \"last_name\": \"Lawson\",\n      \"avatar\": \"https:\/\/reqres.in\/img\/faces\/7-image.jpg\"\n    },\n    {\n      \"id\": 8,\n      \"email\": \"lindsay.ferguson@reqres.in\",\n      \"first_name\": \"Lindsay\",\n      \"last_name\": \"Ferguson\",\n      \"avatar\": \"https:\/\/reqres.in\/img\/faces\/8-image.jpg\"\n    },\n    {\n      \"id\": 9,\n      \"email\": \"tobias.funke@reqres.in\",\n      \"first_name\": \"Tobias\",\n      \"last_name\": \"Funke\",\n      \"avatar\": \"https:\/\/reqres.in\/img\/faces\/9-image.jpg\"\n    },\n    {\n      \"id\": 10,\n      \"email\": \"byron.fields@reqres.in\",\n      \"first_name\": \"Byron\",\n      \"last_name\": \"Fields\",\n      \"avatar\": \"https:\/\/reqres.in\/img\/faces\/10-image.jpg\"\n    },\n    {\n      \"id\": 11,\n      \"email\": \"george.edwards@reqres.in\",\n      \"first_name\": \"George\",\n      \"last_name\": \"Edwards\",\n      \"avatar\": \"https:\/\/reqres.in\/img\/faces\/11-image.jpg\"\n    },\n    {\n      \"id\": 12,\n      \"email\": \"rachel.howell@reqres.in\",\n      \"first_name\": \"Rachel\",\n      \"last_name\": \"Howell\",\n      \"avatar\": \"https:\/\/reqres.in\/img\/faces\/12-image.jpg\"\n    }\n  ],\n  \"support\": {\n    \"url\": \"https:\/\/reqres.in\/#support-heading\",\n    \"text\": \"To keep ReqRes free, contributions towards server costs are appreciated!\"\n  }\n}\n \n"},{"result":{"nanos":1120900,"millis":1.1209,"status":"passed"},"step":{"line":13,"prefix":"*","index":2,"text":"assert ListUsers.responseStatus == 200"}},{"result":{"nanos":1863800,"millis":1.8638,"status":"passed"},"step":{"line":14,"prefix":"*","index":3,"text":"print ListUsers.timeRespond"},"stepLog":"05:59:51.222 [print] 613 \n"},{"result":{"nanos":3190900,"millis":3.1909,"status":"passed"},"step":{"line":15,"prefix":"*","index":4,"text":"assert ListUsers.timeRespond < 10001"}}],"executorName":"main","line":9,"name":"Get List Users by calling reusable BC - \"call read\" no parameter used","description":"","durationMillis":1100.234,"startTime":1660082389873,"failed":false,"refId":"[1:9]","endTime":1660082391226,"exampleIndex":-1}],"callDepth":0,"name":"calling_reusable_BC_into_feature","description":"Description: Different ways to call feature \/ reusable BC into the feature file","resultDate":"2022-08-10 05:59:51 am","durationMillis":1100.234,"passedCount":1}