{"failedCount":0,"prefixedPath":"src\/test\/java\/SamplePackage1\/scenarios\/Activity_4\/reading_different_file_formats.feature","packageQualifiedName":"src.test.java.SamplePackage1.scenarios.Activity_4.reading_different_file_formats","loopIndex":-1,"relativePath":"src\/test\/java\/SamplePackage1\/scenarios\/Activity_4\/reading_different_file_formats.feature","scenarioResults":[{"sectionIndex":0,"stepResults":[{"result":{"nanos":1490900,"millis":1.4909,"status":"passed"},"step":{"background":true,"line":7,"prefix":"*","index":0,"text":"def ENVIRONMENT = env"},"stepLog":"07:21:46.459 karate.env system property was: null \n"},{"result":{"nanos":59112700,"millis":59.1127,"status":"passed"},"step":{"line":10,"prefix":"*","index":0,"text":"def ListUsers = read('classpath:SamplePackage1\/reusableBC\/Activity_4_helper\/api_list_users.json')"}},{"result":{"nanos":5986800,"millis":5.9868,"status":"passed"},"step":{"line":11,"prefix":"*","index":1,"text":"print ListUsers"},"stepLog":"07:21:46.570 [print] {\n  \"page\": 2,\n  \"per_page\": 6,\n  \"total\": 12,\n  \"total_pages\": 2,\n  \"data\": [\n    {\n      \"id\": 7,\n      \"email\": \"michael.lawson@reqres.in\",\n      \"first_name\": \"Michael\",\n      \"last_name\": \"Lawson\",\n      \"avatar\": \"https:\/\/reqres.in\/img\/faces\/7-image.jpg\"\n    },\n    {\n      \"id\": 8,\n      \"email\": \"lindsay.ferguson@reqres.in\",\n      \"first_name\": \"Lindsay\",\n      \"last_name\": \"Ferguson\",\n      \"avatar\": \"https:\/\/reqres.in\/img\/faces\/8-image.jpg\"\n    },\n    {\n      \"id\": 9,\n      \"email\": \"tobias.funke@reqres.in\",\n      \"first_name\": \"Tobias\",\n      \"last_name\": \"Funke\",\n      \"avatar\": \"https:\/\/reqres.in\/img\/faces\/9-image.jpg\"\n    },\n    {\n      \"id\": 10,\n      \"email\": \"byron.fields@reqres.in\",\n      \"first_name\": \"Byron\",\n      \"last_name\": \"Fields\",\n      \"avatar\": \"https:\/\/reqres.in\/img\/faces\/10-image.jpg\"\n    },\n    {\n      \"id\": 11,\n      \"email\": \"george.edwards@reqres.in\",\n      \"first_name\": \"George\",\n      \"last_name\": \"Edwards\",\n      \"avatar\": \"https:\/\/reqres.in\/img\/faces\/11-image.jpg\"\n    },\n    {\n      \"id\": 12,\n      \"email\": \"rachel.howell@reqres.in\",\n      \"first_name\": \"Rachel\",\n      \"last_name\": \"Howell\",\n      \"avatar\": \"https:\/\/reqres.in\/img\/faces\/12-image.jpg\"\n    }\n  ],\n  \"support\": {\n    \"url\": \"https:\/\/reqres.in\/#support-heading\",\n    \"text\": \"To keep ReqRes free, contributions towards server costs are appreciated!\"\n  }\n}\n \n"},{"result":{"nanos":1501300,"millis":1.5013,"status":"passed"},"step":{"line":12,"prefix":"*","index":2,"text":"print ListUsers.page"},"stepLog":"07:21:46.572 [print] 2 \n"},{"result":{"nanos":6789600,"millis":6.7896,"status":"passed"},"step":{"line":13,"prefix":"*","index":3,"text":"print ListUsers.data[0]"},"stepLog":"07:21:46.578 [print] {\n  \"id\": 7,\n  \"email\": \"michael.lawson@reqres.in\",\n  \"first_name\": \"Michael\",\n  \"last_name\": \"Lawson\",\n  \"avatar\": \"https:\/\/reqres.in\/img\/faces\/7-image.jpg\"\n}\n \n"},{"result":{"nanos":1478500,"millis":1.4785,"status":"passed"},"step":{"line":14,"prefix":"*","index":4,"text":"print ListUsers.data[1].email"},"stepLog":"07:21:46.580 [print] lindsay.ferguson@reqres.in \n"},{"result":{"nanos":3179400,"millis":3.1794,"status":"passed"},"step":{"line":16,"prefix":"*","index":5,"text":"set ListUsers.newObject = 'Im a new object'"}},{"result":{"nanos":2132700,"millis":2.1327,"status":"passed"},"step":{"line":17,"prefix":"*","index":6,"text":"set ListUsers.data[*].addedObject = 'Im a new ADDED object'"}},{"result":{"nanos":1742700,"millis":1.7427,"status":"passed"},"step":{"line":18,"prefix":"*","index":7,"text":"print ListUsers"},"stepLog":"07:21:46.588 [print] {\n  \"page\": 2,\n  \"per_page\": 6,\n  \"total\": 12,\n  \"total_pages\": 2,\n  \"data\": [\n    {\n      \"id\": 7,\n      \"email\": \"michael.lawson@reqres.in\",\n      \"first_name\": \"Michael\",\n      \"last_name\": \"Lawson\",\n      \"avatar\": \"https:\/\/reqres.in\/img\/faces\/7-image.jpg\",\n      \"addedObject\": \"Im a new ADDED object\"\n    },\n    {\n      \"id\": 8,\n      \"email\": \"lindsay.ferguson@reqres.in\",\n      \"first_name\": \"Lindsay\",\n      \"last_name\": \"Ferguson\",\n      \"avatar\": \"https:\/\/reqres.in\/img\/faces\/8-image.jpg\",\n      \"addedObject\": \"Im a new ADDED object\"\n    },\n    {\n      \"id\": 9,\n      \"email\": \"tobias.funke@reqres.in\",\n      \"first_name\": \"Tobias\",\n      \"last_name\": \"Funke\",\n      \"avatar\": \"https:\/\/reqres.in\/img\/faces\/9-image.jpg\",\n      \"addedObject\": \"Im a new ADDED object\"\n    },\n    {\n      \"id\": 10,\n      \"email\": \"byron.fields@reqres.in\",\n      \"first_name\": \"Byron\",\n      \"last_name\": \"Fields\",\n      \"avatar\": \"https:\/\/reqres.in\/img\/faces\/10-image.jpg\",\n      \"addedObject\": \"Im a new ADDED object\"\n    },\n    {\n      \"id\": 11,\n      \"email\": \"george.edwards@reqres.in\",\n      \"first_name\": \"George\",\n      \"last_name\": \"Edwards\",\n      \"avatar\": \"https:\/\/reqres.in\/img\/faces\/11-image.jpg\",\n      \"addedObject\": \"Im a new ADDED object\"\n    },\n    {\n      \"id\": 12,\n      \"email\": \"rachel.howell@reqres.in\",\n      \"first_name\": \"Rachel\",\n      \"last_name\": \"Howell\",\n      \"avatar\": \"https:\/\/reqres.in\/img\/faces\/12-image.jpg\",\n      \"addedObject\": \"Im a new ADDED object\"\n    }\n  ],\n  \"support\": {\n    \"url\": \"https:\/\/reqres.in\/#support-heading\",\n    \"text\": \"To keep ReqRes free, contributions towards server costs are appreciated!\"\n  },\n  \"newObject\": \"Im a new object\"\n}\n \n"}],"executorName":"main","line":9,"name":"Read json's files - Using * def + varName","description":"","durationMillis":83.4146,"startTime":1660087306257,"failed":false,"refId":"[1:9]","endTime":1660087306588,"exampleIndex":-1}],"callDepth":0,"name":"reading_different_file_formats","description":"Description: Ways to read different file format using feature file","resultDate":"2022-08-10 07:21:46 am","durationMillis":83.4146,"passedCount":1}