{"failedCount":0,"prefixedPath":"src\/test\/java\/SamplePackage1\/scenarios\/activity_2\/calling_reusable_BC_into_feature.feature","packageQualifiedName":"src.test.java.SamplePackage1.scenarios.activity_2.calling_reusable_BC_into_feature","loopIndex":-1,"relativePath":"src\/test\/java\/SamplePackage1\/scenarios\/activity_2\/calling_reusable_BC_into_feature.feature","scenarioResults":[{"sectionIndex":0,"stepResults":[{"result":{"nanos":1309500,"millis":1.3095,"status":"passed"},"step":{"background":true,"line":7,"prefix":"*","index":0,"text":"def ENVIRONMENT = env"},"stepLog":"06:23:50.659 karate.env system property was: null \n"},{"result":{"nanos":864121100,"millis":864.1211,"status":"passed"},"step":{"line":11,"prefix":"*","index":0,"text":"def ListUsers = call read('classpath:SamplePackage1\/reusableBC\/api_list_users.feature')"},"callResults":[{"failedCount":0,"prefixedPath":"classpath:SamplePackage1\/reusableBC\/api_list_users.feature","packageQualifiedName":"SamplePackage1.reusableBC.api_list_users","loopIndex":-1,"relativePath":"SamplePackage1\/reusableBC\/api_list_users.feature","scenarioResults":[{"sectionIndex":0,"stepResults":[{"result":{"nanos":1132400,"millis":1.1324,"status":"passed"},"step":{"background":true,"line":14,"prefix":"*","index":0,"text":"url p_base_url"}},{"result":{"nanos":767900,"millis":0.7679,"status":"passed"},"step":{"line":18,"prefix":"Given","index":0,"text":"path '\/api\/users'"}},{"result":{"nanos":2156900,"millis":2.1569,"status":"passed"},"step":{"line":19,"prefix":"And","index":1,"text":"param page = 2"}},{"result":{"nanos":833522800,"millis":833.5228,"status":"passed"},"step":{"line":20,"prefix":"When","index":2,"text":"method get"},"stepLog":"06:23:51.069 request:\n1 > GET https:\/\/reqres.in\/api\/users?page=2\n1 > Host: reqres.in\n1 > Connection: Keep-Alive\n1 > User-Agent: Apache-HttpClient\/4.5.13 (Java\/16.0.2)\n1 > Accept-Encoding: gzip,deflate\n\n\n06:23:51.538 response time in milliseconds: 465\n1 < 200\n1 < Date: Tue, 09 Aug 2022 22:23:48 GMT\n1 < Content-Type: application\/json; charset=utf-8\n1 < Transfer-Encoding: chunked\n1 < Connection: keep-alive\n1 < X-Powered-By: Express\n1 < Access-Control-Allow-Origin: *\n1 < Etag: W\/\"406-ut0vzoCuidvyMf8arZpMpJ6ZRDw\"\n1 < Via: 1.1 vegur\n1 < Cache-Control: max-age=14400\n1 < CF-Cache-Status: HIT\n1 < Age: 887\n1 < Expect-CT: max-age=604800, report-uri=\"https:\/\/report-uri.cloudflare.com\/cdn-cgi\/beacon\/expect-ct\"\n1 < Report-To: {\"endpoints\":[{\"url\":\"https:\\\/\\\/a.nel.cloudflare.com\\\/report\\\/v3?s=3uXqeawl%2Fr3NaGiRpv387dMacp2MeWcLTZOrFZdUYB3OvZ9fMf1XqHNZvF3aeMN54XG0V%2BDOh82TGvvYIaIX1cBQRI8N87sehYMa%2FrVjy5OgBIAkVotOzR%2BMRw%3D%3D\"}],\"group\":\"cf-nel\",\"max_age\":604800}\n1 < NEL: {\"success_fraction\":0,\"report_to\":\"cf-nel\",\"max_age\":604800}\n1 < Vary: Accept-Encoding\n1 < Server: cloudflare\n1 < CF-RAY: 7383e5f6ae33afdf-NRT\n{\"page\":2,\"per_page\":6,\"total\":12,\"total_pages\":2,\"data\":[{\"id\":7,\"email\":\"michael.lawson@reqres.in\",\"first_name\":\"Michael\",\"last_name\":\"Lawson\",\"avatar\":\"https:\/\/reqres.in\/img\/faces\/7-image.jpg\"},{\"id\":8,\"email\":\"lindsay.ferguson@reqres.in\",\"first_name\":\"Lindsay\",\"last_name\":\"Ferguson\",\"avatar\":\"https:\/\/reqres.in\/img\/faces\/8-image.jpg\"},{\"id\":9,\"email\":\"tobias.funke@reqres.in\",\"first_name\":\"Tobias\",\"last_name\":\"Funke\",\"avatar\":\"https:\/\/reqres.in\/img\/faces\/9-image.jpg\"},{\"id\":10,\"email\":\"byron.fields@reqres.in\",\"first_name\":\"Byron\",\"last_name\":\"Fields\",\"avatar\":\"https:\/\/reqres.in\/img\/faces\/10-image.jpg\"},{\"id\":11,\"email\":\"george.edwards@reqres.in\",\"first_name\":\"George\",\"last_name\":\"Edwards\",\"avatar\":\"https:\/\/reqres.in\/img\/faces\/11-image.jpg\"},{\"id\":12,\"email\":\"rachel.howell@reqres.in\",\"first_name\":\"Rachel\",\"last_name\":\"Howell\",\"avatar\":\"https:\/\/reqres.in\/img\/faces\/12-image.jpg\"}],\"support\":{\"url\":\"https:\/\/reqres.in\/#support-heading\",\"text\":\"To keep ReqRes free, contributions towards server costs are appreciated!\"}}\n"},{"result":{"nanos":516100,"millis":0.5161,"status":"passed"},"step":{"line":22,"prefix":"*","index":3,"text":"def timeRespond = responseTime"}},{"result":{"nanos":1762400,"millis":1.7624,"status":"passed"},"step":{"line":23,"prefix":"*","index":4,"text":"print timeRespond"},"stepLog":"06:23:51.574 [print] 465 \n"}],"executorName":"main","line":16,"name":"api_list_users","description":"","durationMillis":839.8585,"startTime":1660083830732,"failed":false,"refId":"[1:16]","endTime":1660083831574,"exampleIndex":-1}],"callDepth":1,"name":"api_list_users","description":"Description:\r\n  Reusable BC to get list of users in reqres.in\r\n\r\n  Used in:\r\n  activity_2.calling_reusable_BC_into_feature\r\n\r\n  Parameters:\r\n  none","resultDate":"2022-08-10 06:23:51 am","durationMillis":839.8585,"passedCount":1}]},{"result":{"nanos":7026600,"millis":7.0266,"status":"passed"},"step":{"line":12,"prefix":"*","index":1,"text":"print ListUsers.response"},"stepLog":"06:23:51.583 [print] {\n  \"page\": 2,\n  \"per_page\": 6,\n  \"total\": 12,\n  \"total_pages\": 2,\n  \"data\": [\n    {\n      \"id\": 7,\n      \"email\": \"michael.lawson@reqres.in\",\n      \"first_name\": \"Michael\",\n      \"last_name\": \"Lawson\",\n      \"avatar\": \"https:\/\/reqres.in\/img\/faces\/7-image.jpg\"\n    },\n    {\n      \"id\": 8,\n      \"email\": \"lindsay.ferguson@reqres.in\",\n      \"first_name\": \"Lindsay\",\n      \"last_name\": \"Ferguson\",\n      \"avatar\": \"https:\/\/reqres.in\/img\/faces\/8-image.jpg\"\n    },\n    {\n      \"id\": 9,\n      \"email\": \"tobias.funke@reqres.in\",\n      \"first_name\": \"Tobias\",\n      \"last_name\": \"Funke\",\n      \"avatar\": \"https:\/\/reqres.in\/img\/faces\/9-image.jpg\"\n    },\n    {\n      \"id\": 10,\n      \"email\": \"byron.fields@reqres.in\",\n      \"first_name\": \"Byron\",\n      \"last_name\": \"Fields\",\n      \"avatar\": \"https:\/\/reqres.in\/img\/faces\/10-image.jpg\"\n    },\n    {\n      \"id\": 11,\n      \"email\": \"george.edwards@reqres.in\",\n      \"first_name\": \"George\",\n      \"last_name\": \"Edwards\",\n      \"avatar\": \"https:\/\/reqres.in\/img\/faces\/11-image.jpg\"\n    },\n    {\n      \"id\": 12,\n      \"email\": \"rachel.howell@reqres.in\",\n      \"first_name\": \"Rachel\",\n      \"last_name\": \"Howell\",\n      \"avatar\": \"https:\/\/reqres.in\/img\/faces\/12-image.jpg\"\n    }\n  ],\n  \"support\": {\n    \"url\": \"https:\/\/reqres.in\/#support-heading\",\n    \"text\": \"To keep ReqRes free, contributions towards server costs are appreciated!\"\n  }\n}\n \n"},{"result":{"nanos":1788600,"millis":1.7886,"status":"passed"},"step":{"line":13,"prefix":"*","index":2,"text":"assert ListUsers.responseStatus == 200"}},{"result":{"nanos":2308000,"millis":2.308,"status":"passed"},"step":{"line":14,"prefix":"*","index":3,"text":"print ListUsers.timeRespond"},"stepLog":"06:23:51.587 [print] 465 \n"},{"result":{"nanos":3600000,"millis":3.6,"status":"passed"},"step":{"line":15,"prefix":"*","index":4,"text":"assert ListUsers.timeRespond < 10001"}}],"executorName":"main","line":9,"name":"Get List Users by calling reusable BC - \"call read\" NO parameter used","description":"","durationMillis":880.1538,"startTime":1660083830431,"failed":false,"refId":"[1:9]","endTime":1660083831591,"exampleIndex":-1},{"sectionIndex":1,"stepResults":[{"result":{"nanos":604300,"millis":0.6043,"status":"passed"},"step":{"background":true,"line":7,"prefix":"*","index":0,"text":"def ENVIRONMENT = env"},"stepLog":"06:23:51.601 karate.env system property was: null \n"},{"result":{"nanos":327329600,"millis":327.3296,"status":"passed"},"step":{"line":19,"prefix":"*","index":0,"text":"def ListUsers = call read('classpath:SamplePackage1\/reusableBC\/api_list_users_with_params.feature') {page_number:2 , var1 : \"sample parameter only\" }"},"callResults":[{"prefixedPath":"classpath:SamplePackage1\/reusableBC\/api_list_users_with_params.feature","loopIndex":-1,"callDepth":1,"description":"Description:\r\n  Reusable BC to get list of users in reqres.in\r\n\r\n  Used in:\r\n  activity_2.calling_reusable_BC_into_feature\r\n\r\n  Parameters:\r\n  page_number (required)\r\n  var_1 (required)\r\n  x_limit (optional)","resultDate":"2022-08-10 06:23:51 am","durationMillis":290.3334,"callArg":{"page_number":2,"var1":"sample parameter only"},"failedCount":0,"packageQualifiedName":"SamplePackage1.reusableBC.api_list_users_with_params","relativePath":"SamplePackage1\/reusableBC\/api_list_users_with_params.feature","scenarioResults":[{"sectionIndex":0,"stepResults":[{"result":{"nanos":230600,"millis":0.2306,"status":"passed"},"step":{"background":true,"line":16,"prefix":"*","index":0,"text":"url p_base_url"}},{"result":{"nanos":17995800,"millis":17.9958,"status":"passed"},"step":{"background":true,"line":17,"prefix":"*","index":1,"text":"def withXLimit = {\"X-Limit\" : #(x_limit)}"}},{"result":{"nanos":8799900,"millis":8.7999,"status":"passed"},"step":{"background":true,"line":18,"prefix":"*","index":2,"text":"def requestHeader = typeof x_limit != 'undefined' ? withXLimit : {}"}},{"result":{"nanos":442500,"millis":0.4425,"status":"passed"},"step":{"line":22,"prefix":"Given","index":0,"text":"path '\/api\/users'"}},{"result":{"nanos":1032300,"millis":1.0323,"status":"passed"},"step":{"line":23,"prefix":"And","index":1,"text":"param page = page_number"}},{"result":{"nanos":255943500,"millis":255.9435,"status":"passed"},"step":{"line":24,"prefix":"When","index":2,"text":"method get"},"stepLog":"06:23:51.676 request:\n1 > GET https:\/\/reqres.in\/api\/users?page=2\n1 > Host: reqres.in\n1 > Connection: Keep-Alive\n1 > User-Agent: Apache-HttpClient\/4.5.13 (Java\/16.0.2)\n1 > Accept-Encoding: gzip,deflate\n\n\n06:23:51.925 response time in milliseconds: 249\n1 < 200\n1 < Date: Tue, 09 Aug 2022 22:23:48 GMT\n1 < Content-Type: application\/json; charset=utf-8\n1 < Transfer-Encoding: chunked\n1 < Connection: keep-alive\n1 < X-Powered-By: Express\n1 < Access-Control-Allow-Origin: *\n1 < Etag: W\/\"406-ut0vzoCuidvyMf8arZpMpJ6ZRDw\"\n1 < Via: 1.1 vegur\n1 < Cache-Control: max-age=14400\n1 < CF-Cache-Status: HIT\n1 < Age: 887\n1 < Expect-CT: max-age=604800, report-uri=\"https:\/\/report-uri.cloudflare.com\/cdn-cgi\/beacon\/expect-ct\"\n1 < Report-To: {\"endpoints\":[{\"url\":\"https:\\\/\\\/a.nel.cloudflare.com\\\/report\\\/v3?s=yIzkYxNHWPY2pFGsRw%2B1jXb%2B7ceXgjuDGrsyIUHsmEZw3E32hBNPtZDMcLk1ydRk7DufUruGGTAHie%2B20Fe1Q0YTOWPeROievG%2FCSzVWyjjCCaNXCeGak42T%2Fw%3D%3D\"}],\"group\":\"cf-nel\",\"max_age\":604800}\n1 < NEL: {\"success_fraction\":0,\"report_to\":\"cf-nel\",\"max_age\":604800}\n1 < Vary: Accept-Encoding\n1 < Server: cloudflare\n1 < CF-RAY: 7383e5f93b6cafd6-NRT\n{\"page\":2,\"per_page\":6,\"total\":12,\"total_pages\":2,\"data\":[{\"id\":7,\"email\":\"michael.lawson@reqres.in\",\"first_name\":\"Michael\",\"last_name\":\"Lawson\",\"avatar\":\"https:\/\/reqres.in\/img\/faces\/7-image.jpg\"},{\"id\":8,\"email\":\"lindsay.ferguson@reqres.in\",\"first_name\":\"Lindsay\",\"last_name\":\"Ferguson\",\"avatar\":\"https:\/\/reqres.in\/img\/faces\/8-image.jpg\"},{\"id\":9,\"email\":\"tobias.funke@reqres.in\",\"first_name\":\"Tobias\",\"last_name\":\"Funke\",\"avatar\":\"https:\/\/reqres.in\/img\/faces\/9-image.jpg\"},{\"id\":10,\"email\":\"byron.fields@reqres.in\",\"first_name\":\"Byron\",\"last_name\":\"Fields\",\"avatar\":\"https:\/\/reqres.in\/img\/faces\/10-image.jpg\"},{\"id\":11,\"email\":\"george.edwards@reqres.in\",\"first_name\":\"George\",\"last_name\":\"Edwards\",\"avatar\":\"https:\/\/reqres.in\/img\/faces\/11-image.jpg\"},{\"id\":12,\"email\":\"rachel.howell@reqres.in\",\"first_name\":\"Rachel\",\"last_name\":\"Howell\",\"avatar\":\"https:\/\/reqres.in\/img\/faces\/12-image.jpg\"}],\"support\":{\"url\":\"https:\/\/reqres.in\/#support-heading\",\"text\":\"To keep ReqRes free, contributions towards server costs are appreciated!\"}}\n"},{"result":{"nanos":2465500,"millis":2.4655,"status":"passed"},"step":{"line":25,"prefix":"And","index":3,"text":"headers requestHeader"}},{"result":{"nanos":1844200,"millis":1.8442,"status":"passed"},"step":{"line":26,"prefix":"*","index":4,"text":"print var1"},"stepLog":"06:23:51.932 [print] sample parameter only \n"},{"result":{"nanos":367500,"millis":0.3675,"status":"passed"},"step":{"line":28,"prefix":"*","index":5,"text":"def timeRespond = responseTime"}},{"result":{"nanos":1211600,"millis":1.2116,"status":"passed"},"step":{"line":29,"prefix":"*","index":6,"text":"print timeRespond"},"stepLog":"06:23:51.934 [print] 249 \n"}],"executorName":"main","line":20,"name":"api_list_users","description":"","durationMillis":290.3334,"startTime":1660083831643,"failed":false,"refId":"[1:20]","endTime":1660083831934,"exampleIndex":-1}],"name":"api_list_users","passedCount":1}]},{"result":{"nanos":2048400,"millis":2.0484,"status":"passed"},"step":{"line":20,"prefix":"*","index":1,"text":"print ListUsers.response"},"stepLog":"06:23:51.936 [print] {\n  \"page\": 2,\n  \"per_page\": 6,\n  \"total\": 12,\n  \"total_pages\": 2,\n  \"data\": [\n    {\n      \"id\": 7,\n      \"email\": \"michael.lawson@reqres.in\",\n      \"first_name\": \"Michael\",\n      \"last_name\": \"Lawson\",\n      \"avatar\": \"https:\/\/reqres.in\/img\/faces\/7-image.jpg\"\n    },\n    {\n      \"id\": 8,\n      \"email\": \"lindsay.ferguson@reqres.in\",\n      \"first_name\": \"Lindsay\",\n      \"last_name\": \"Ferguson\",\n      \"avatar\": \"https:\/\/reqres.in\/img\/faces\/8-image.jpg\"\n    },\n    {\n      \"id\": 9,\n      \"email\": \"tobias.funke@reqres.in\",\n      \"first_name\": \"Tobias\",\n      \"last_name\": \"Funke\",\n      \"avatar\": \"https:\/\/reqres.in\/img\/faces\/9-image.jpg\"\n    },\n    {\n      \"id\": 10,\n      \"email\": \"byron.fields@reqres.in\",\n      \"first_name\": \"Byron\",\n      \"last_name\": \"Fields\",\n      \"avatar\": \"https:\/\/reqres.in\/img\/faces\/10-image.jpg\"\n    },\n    {\n      \"id\": 11,\n      \"email\": \"george.edwards@reqres.in\",\n      \"first_name\": \"George\",\n      \"last_name\": \"Edwards\",\n      \"avatar\": \"https:\/\/reqres.in\/img\/faces\/11-image.jpg\"\n    },\n    {\n      \"id\": 12,\n      \"email\": \"rachel.howell@reqres.in\",\n      \"first_name\": \"Rachel\",\n      \"last_name\": \"Howell\",\n      \"avatar\": \"https:\/\/reqres.in\/img\/faces\/12-image.jpg\"\n    }\n  ],\n  \"support\": {\n    \"url\": \"https:\/\/reqres.in\/#support-heading\",\n    \"text\": \"To keep ReqRes free, contributions towards server costs are appreciated!\"\n  }\n}\n \n"},{"result":{"nanos":592600,"millis":0.5926,"status":"passed"},"step":{"line":21,"prefix":"*","index":2,"text":"assert ListUsers.responseStatus == 200"}},{"result":{"nanos":975800,"millis":0.9758,"status":"passed"},"step":{"line":22,"prefix":"*","index":3,"text":"print ListUsers.timeRespond"},"stepLog":"06:23:51.938 [print] 249 \n"},{"result":{"nanos":300300,"millis":0.3003,"status":"passed"},"step":{"line":23,"prefix":"*","index":4,"text":"assert ListUsers.timeRespond < 10001"}}],"executorName":"main","line":17,"name":"Get List Users by calling reusable BC - \"call read\" WITH parameter used (single line)","description":"","durationMillis":331.851,"startTime":1660083831600,"failed":false,"refId":"[2:17]","endTime":1660083831939,"exampleIndex":-1}],"callDepth":0,"name":"calling_reusable_BC_into_feature","description":"Description: Different ways to call feature \/ reusable BC into the feature file","resultDate":"2022-08-10 06:23:51 am","durationMillis":1212.0048,"passedCount":2}